#FIG 3.2  Produced by xfig version 3.2.5-alpha5
Landscape
Center
Metric
A4      
100.00
Single
-2
1200 2
6 12375 7335 12735 7695
1 3 0 1 0 27 50 -1 20 0.000 1 0.0000 12573 7507 160 160 12573 7507 12733 7507
4 0 0 50 -1 24 11 0.0000 4 135 90 12510 7560 3\001
-6
6 11160 7875 11520 8235
1 3 0 1 0 17 50 -1 20 0.000 1 0.0000 11358 8047 160 160 11358 8047 11518 8047
4 0 0 50 -1 24 11 0.0000 4 135 90 11295 8100 4\001
-6
6 11475 6435 11835 6795
1 3 0 1 0 27 50 -1 20 0.000 1 0.0000 11673 6607 160 160 11673 6607 11833 6607
4 0 0 50 -1 24 11 0.0000 4 135 90 11610 6660 1\001
-6
6 10890 5850 11250 6210
1 3 0 1 0 27 50 -1 20 0.000 1 0.0000 11088 6022 160 160 11088 6022 11248 6022
4 0 0 50 -1 24 11 0.0000 4 135 90 11025 6075 2\001
-6
6 8865 6930 9225 7290
1 3 0 1 0 1 50 -1 20 0.000 1 0.0000 9051 7090 160 160 9051 7090 9211 7090
4 0 0 50 -1 24 10 0.0000 4 120 75 9029 7147 7\001
-6
6 10305 6885 10665 7245
1 3 0 1 0 17 50 -1 20 0.000 1 0.0000 10503 7057 160 160 10503 7057 10663 7057
4 0 0 50 -1 24 11 0.0000 4 135 90 10440 7110 5\001
-6
6 9405 5985 9765 6345
1 3 0 1 0 17 50 -1 20 0.000 1 0.0000 9603 6157 160 160 9603 6157 9763 6157
4 0 0 50 -1 24 11 0.0000 4 135 90 9540 6210 6\001
-6
6 1575 5625 6525 7965
1 3 0 1 7 27 50 -1 20 0.000 1 0.0000 1710 7560 45 45 1710 7560 1755 7560
1 3 0 1 7 27 50 -1 20 0.000 1 0.0000 4680 5850 45 45 4680 5850 4725 5850
1 3 0 1 7 27 50 -1 20 0.000 1 0.0000 6345 7875 45 45 6345 7875 6390 7875
2 3 0 1 0 7 50 -1 -1 0.000 0 0 0 0 0 4
	 6345 7875 4682 5850 1712 7560 6345 7875
4 0 17 50 -1 0 12 0.0000 4 150 105 5580 6795 6\001
4 0 27 50 -1 0 12 0.0000 4 150 105 6390 7965 3\001
4 0 27 50 -1 0 12 0.0000 4 150 105 1575 7650 1\001
4 0 17 50 -1 0 12 0.0000 4 150 105 3195 6570 5\001
4 0 17 50 -1 0 12 0.0000 4 150 105 3960 7965 4\001
4 0 1 50 -1 0 12 0.0000 4 150 105 4230 7065 7\001
4 0 27 50 -1 0 12 0.0000 4 150 105 4680 5805 2\001
-6
6 1710 3060 6705 5400
1 3 0 1 7 27 50 -1 20 0.000 1 0.0000 1845 4995 45 45 1845 4995 1890 4995
1 3 0 1 7 27 50 -1 20 0.000 1 0.0000 4815 3285 45 45 4815 3285 4860 3285
1 3 0 1 7 27 50 -1 20 0.000 1 0.0000 6480 5310 45 45 6480 5310 6525 5310
2 1 0 1 0 7 50 -1 -1 0.000 0 0 -1 0 0 3
	 1845 4995 4500 4500 4815 3285
2 1 0 1 0 7 50 -1 -1 0.000 0 0 -1 0 0 2
	 4500 4500 6480 5310
2 3 0 1 0 7 50 -1 -1 0.000 0 0 0 0 0 4
	 6480 5310 4817 3285 1847 4995 6480 5310
4 0 27 50 -1 0 12 0.0000 4 150 105 4680 3240 2\001
4 0 17 50 -1 0 12 0.0000 4 150 105 3825 5400 4\001
4 0 17 50 -1 0 12 0.0000 4 150 105 5715 4230 6\001
4 0 17 50 -1 0 12 0.0000 4 150 105 4725 4005 9\001
4 0 17 50 -1 0 12 0.0000 4 150 210 5400 4815 10\001
4 0 1 50 -1 0 12 0.0000 4 150 210 4860 4410 13\001
4 0 1 50 -1 0 12 0.0000 4 150 210 3960 4095 12\001
4 0 27 50 -1 0 12 0.0000 4 150 105 1710 5040 1\001
4 0 17 50 -1 0 12 0.0000 4 150 105 3375 4005 5\001
4 0 17 50 -1 0 12 0.0000 4 150 105 3465 4635 8\001
4 0 27 50 -1 0 12 0.0000 4 150 105 4320 4455 7\001
4 0 1 50 -1 0 12 0.0000 4 150 210 4320 4995 11\001
4 0 27 50 -1 0 12 0.0000 4 150 105 6570 5400 3\001
-6
6 11970 3645 12330 4005
1 3 0 1 0 27 50 -1 20 0.000 1 0.0000 12168 3817 160 160 12168 3817 12328 3817
4 0 0 50 -1 24 11 0.0000 4 135 90 12105 3870 7\001
-6
6 10845 3825 11205 4185
1 3 0 1 0 17 50 -1 20 0.000 1 0.0000 11043 3997 160 160 11043 3997 11203 3997
4 0 0 50 -1 24 11 0.0000 4 135 90 10980 4050 8\001
-6
6 11790 4950 12150 5310
1 3 0 1 0 17 50 -1 20 0.000 1 0.0000 11988 5122 160 160 11988 5122 12148 5122
4 0 0 50 -1 24 11 0.0000 4 135 180 11880 5175 10\001
-6
6 10035 3015 10395 3375
1 3 0 1 0 17 50 -1 20 0.000 1 0.0000 10233 3187 160 160 10233 3187 10393 3187
4 0 0 50 -1 24 11 0.0000 4 135 90 10170 3240 9\001
-6
6 8055 3420 8415 3780
1 3 0 1 0 1 50 -1 20 0.000 1 0.0000 8241 3620 160 160 8241 3620 8401 3620
4 0 0 50 -1 24 10 0.0000 4 120 150 8174 3682 12\001
-6
6 9000 4185 9360 4545
1 3 0 1 0 1 50 -1 20 0.000 1 0.0000 9186 4385 160 160 9186 4385 9346 4385
4 0 0 50 -1 24 10 0.0000 4 120 150 9119 4447 13\001
-6
6 9495 4860 9855 5220
1 3 0 1 0 1 50 -1 20 0.000 1 0.0000 9681 5060 160 160 9681 5060 9841 5060
4 0 0 50 -1 24 10 0.0000 4 120 150 9614 5122 11\001
-6
6 7335 7965 9225 8280
6 7335 7965 7605 8280
2 2 0 1 26 26 50 -1 20 0.000 0 0 -1 0 0 5
	 7335 7965 7605 7965 7605 8280 7335 8280 7335 7965
4 0 0 50 -1 24 11 0.0000 4 135 90 7425 8190 1\001
-6
6 7740 7965 8010 8280
2 2 0 1 5 5 50 -1 20 0.000 0 0 -1 0 0 5
	 7740 7965 8010 7965 8010 8280 7740 8280 7740 7965
4 0 0 50 -1 24 11 0.0000 4 135 90 7830 8190 2\001
-6
6 8145 7965 8415 8280
2 2 0 1 11 11 50 -1 20 0.000 0 0 -1 0 0 5
	 8145 7965 8415 7965 8415 8280 8145 8280 8145 7965
4 0 0 50 -1 24 11 0.0000 4 135 90 8235 8190 3\001
-6
6 8550 7965 8820 8280
2 2 0 1 4 4 50 -1 20 0.000 0 0 -1 0 0 5
	 8550 7965 8820 7965 8820 8280 8550 8280 8550 7965
4 0 0 50 -1 24 11 0.0000 4 135 90 8640 8190 4\001
-6
6 8955 7965 9225 8280
2 2 0 1 2 2 50 -1 20 0.000 0 0 -1 0 0 5
	 8955 7965 9225 7965 9225 8280 8955 8280 8955 7965
4 0 0 50 -1 24 11 0.0000 4 135 90 9045 8190 5\001
-6
-6
2 1 0 1 5 7 50 -1 -1 0.000 0 0 -1 1 0 2
	1 1 2.00 85.50 142.50
	 11475 6615 10665 6975
2 1 0 1 5 7 50 -1 -1 0.000 0 0 -1 1 0 2
	1 1 2.00 85.50 142.50
	 10980 6210 10575 6885
2 1 0 1 5 7 50 -1 -1 0.000 0 0 -1 1 0 2
	1 1 2.00 85.50 142.50
	 12420 7380 9765 6300
2 1 0 1 5 7 50 -1 -1 0.000 0 0 -1 1 0 2
	1 1 2.00 85.50 142.50
	 11610 6795 11385 7875
2 1 0 1 5 7 50 -1 -1 0.000 0 0 -1 1 0 2
	1 1 2.00 85.50 142.50
	 10890 6030 9810 6120
2 1 0 1 26 7 50 -1 -1 0.000 0 0 -1 1 0 2
	1 1 2.00 85.50 142.50
	 10305 7065 9225 7110
2 1 0 1 2 7 50 -1 -1 0.000 0 0 -1 1 0 2
	1 1 2.00 85.50 142.50
	 8235 3780 8910 6930
2 1 0 1 2 7 50 -1 -1 0.000 0 0 -1 1 0 2
	1 1 2.00 85.50 142.50
	 9630 5265 9135 6930
2 1 0 1 2 7 50 -1 -1 0.000 0 0 -1 1 0 2
	1 1 2.00 85.50 142.50
	 9135 4590 9000 6930
2 1 0 1 11 7 50 -1 -1 0.000 0 0 -1 1 0 2
	1 1 2.00 85.50 142.50
	 11610 6435 11070 4185
2 1 0 1 11 7 50 -1 -1 0.000 0 0 -1 1 0 2
	1 1 2.00 85.50 142.50
	 11056 5854 10260 3375
2 1 0 1 26 7 50 -1 -1 0.000 0 0 -1 1 0 2
	1 1 2.00 85.50 142.50
	 9547 6304 9142 6934
2 1 0 1 5 7 50 -1 -1 0.000 0 0 -1 1 0 2
	1 1 2.00 85.50 142.50
	 12375 7560 11520 7965
2 1 0 1 11 7 50 -1 -1 0.000 0 0 -1 1 0 2
	1 1 2.00 85.50 142.50
	 12510 7290 12015 5310
2 1 0 1 26 7 50 -1 -1 0.000 0 0 -1 1 0 2
	1 1 2.00 85.50 142.50
	 11160 8010 9180 7290
2 1 0 1 11 7 50 -1 -1 0.000 0 0 -1 1 0 2
	1 1 2.00 85.50 142.50
	 11271 7915 9765 5220
2 1 0 1 11 7 50 -1 -1 0.000 0 0 -1 1 0 2
	1 1 2.00 85.50 142.50
	 9551 5982 9225 4590
2 1 0 1 4 7 50 -1 -1 0.000 0 0 -1 1 0 2
	1 1 2.00 85.50 142.50
	 10035 3240 8415 3510
2 1 0 1 4 7 50 -1 -1 0.000 0 0 -1 1 0 2
	1 1 2.00 85.50 142.50
	 11790 5130 9855 5040
2 1 0 1 4 7 50 -1 -1 0.000 0 0 -1 1 0 2
	1 1 2.00 85.50 142.50
	 10845 4050 9900 4950
2 1 0 1 4 7 50 -1 -1 0.000 0 0 -1 1 0 2
	1 1 2.00 85.50 142.50
	 11790 5130 9405 4365
2 1 0 1 4 7 50 -1 -1 0.000 0 0 -1 1 0 2
	1 1 2.00 85.50 142.50
	 11970 3825 11205 3960
2 1 0 1 4 7 50 -1 -1 0.000 0 0 -1 1 0 2
	1 1 2.00 85.50 142.50
	 11925 3780 10350 3240
2 1 0 1 4 7 50 -1 -1 0.000 0 0 -1 1 0 2
	1 1 2.00 85.50 142.50
	 10845 4005 8460 3600
2 1 0 1 4 7 50 -1 -1 0.000 0 0 -1 1 0 2
	1 1 2.00 85.50 142.50
	 12000 3874 11925 4950
2 1 0 1 4 7 50 -1 -1 0.000 0 0 -1 1 0 2
	1 1 2.00 85.50 142.50
	 10080 3330 9360 4320
2 1 0 1 11 7 50 -1 -1 0.000 0 0 -1 1 0 2
	1 1 2.00 85.50 142.50
	 10454 6882 8325 3780
