<?xml version="1.0" encoding="UTF-8" standalone="no"?>
<!-- Created with Inkscape (http://www.inkscape.org/) -->
<svg
   xmlns:dc="http://purl.org/dc/elements/1.1/"
   xmlns:cc="http://web.resource.org/cc/"
   xmlns:rdf="http://www.w3.org/1999/02/22-rdf-syntax-ns#"
   xmlns:svg="http://www.w3.org/2000/svg"
   xmlns="http://www.w3.org/2000/svg"
   xmlns:sodipodi="http://sodipodi.sourceforge.net/DTD/sodipodi-0.dtd"
   xmlns:inkscape="http://www.inkscape.org/namespaces/inkscape"
   width="744.09448819"
   height="1052.3622047"
   id="svg3098"
   sodipodi:version="0.32"
   inkscape:version="0.45.1"
   sodipodi:docbase="/Users/aterrel/Research/Kansas/Seminar"
   sodipodi:docname="FEM3.svg"
   inkscape:output_extension="org.inkscape.output.svg.inkscape"
   inkscape:export-filename="/Users/aterrel/Research/Kansas/Seminar/FEM3.png"
   inkscape:export-xdpi="90"
   inkscape:export-ydpi="90">
  <defs
     id="defs3100" />
  <sodipodi:namedview
     id="base"
     pagecolor="#ffffff"
     bordercolor="#666666"
     borderopacity="1.0"
     gridtolerance="10000"
     guidetolerance="10"
     objecttolerance="10"
     inkscape:pageopacity="0.0"
     inkscape:pageshadow="2"
     inkscape:zoom="1.4"
     inkscape:cx="281.29374"
     inkscape:cy="934.42825"
     inkscape:document-units="px"
     inkscape:current-layer="layer1"
     showgrid="true"
     inkscape:window-width="870"
     inkscape:window-height="740"
     inkscape:window-x="81"
     inkscape:window-y="22"
     showguides="true"
     inkscape:guide-bbox="true" />
  <metadata
     id="metadata3103">
    <rdf:RDF>
      <cc:Work
         rdf:about="">
        <dc:format>image/svg+xml</dc:format>
        <dc:type
           rdf:resource="http://purl.org/dc/dcmitype/StillImage" />
      </cc:Work>
    </rdf:RDF>
  </metadata>
  <g
     inkscape:label="Layer 1"
     inkscape:groupmode="layer"
     id="layer1">
    <g
       id="g3070"
       transform="translate(-430.69329,-411.12637)">
      <text
         sodipodi:linespacing="125%"
         id="text3072"
         y="427.74008"
         x="512.12695"
         style="font-size:18px;font-style:normal;font-variant:normal;font-weight:normal;font-stretch:normal;text-align:start;line-height:125%;writing-mode:lr-tb;text-anchor:start;fill:#000000;fill-opacity:1;stroke:none;stroke-width:1px;stroke-linecap:butt;stroke-linejoin:miter;stroke-opacity:1;font-family:Bitstream Vera Sans"
         xml:space="preserve"><tspan
           y="427.74008"
           x="512.12695"
           id="tspan3074"
           sodipodi:role="line">Find u_h on a triangulization of domain Ω,</tspan><tspan
           y="450.24008"
           x="512.12695"
           sodipodi:role="line"
           id="tspan3335">given f and BC,</tspan><tspan
           y="472.74008"
           x="512.12695"
           sodipodi:role="line"
           id="tspan3239">such that for all v in the function space S  </tspan><tspan
           id="tspan3076"
           y="495.24008"
           x="512.12695"
           sodipodi:role="line" /></text>
    </g>
    <text
       xml:space="preserve"
       style="font-size:10px;font-style:normal;font-weight:normal;fill:#000000;fill-opacity:1;stroke:none;stroke-width:1px;stroke-linecap:butt;stroke-linejoin:miter;stroke-opacity:1;font-family:Bitstream Vera Sans"
       x="302.35065"
       y="78.216255"
       id="text3078"><tspan
         sodipodi:role="line"
         id="tspan3080"
         x="302.35065"
         y="78.216255">u = T0</tspan></text>
    <text
       xml:space="preserve"
       style="font-size:10px;font-style:normal;font-weight:normal;fill:#000000;fill-opacity:1;stroke:none;stroke-width:1px;stroke-linecap:butt;stroke-linejoin:miter;stroke-opacity:1;font-family:Bitstream Vera Sans"
       x="244.61465"
       y="132.99799"
       id="text3082"><tspan
         sodipodi:role="line"
         id="tspan3084"
         x="244.61465"
         y="132.99799">u'=0</tspan></text>
    <text
       xml:space="preserve"
       style="font-size:10px;font-style:normal;font-weight:normal;fill:#000000;fill-opacity:1;stroke:none;stroke-width:1px;stroke-linecap:butt;stroke-linejoin:miter;stroke-opacity:1;font-family:Bitstream Vera Sans"
       x="360.02155"
       y="133.77972"
       id="text3090"><tspan
         sodipodi:role="line"
         id="tspan3092"
         x="360.02155"
         y="133.77972">u'=0</tspan></text>
    <text
       xml:space="preserve"
       style="font-size:10px;font-style:normal;font-weight:normal;fill:#000000;fill-opacity:1;stroke:none;stroke-width:1px;stroke-linecap:butt;stroke-linejoin:miter;stroke-opacity:1;font-family:Bitstream Vera Sans"
       x="304.35065"
       y="214.21626"
       id="text3094"><tspan
         sodipodi:role="line"
         id="tspan3096"
         x="304.35065"
         y="214.21626">u = T1</tspan></text>
    <g
       id="g3234"
       transform="translate(-406.6933,-330.99844)">
      <text
         sodipodi:linespacing="125%"
         id="text3197"
         y="471.11551"
         x="495.61224"
         style="font-size:18px;font-style:normal;font-variant:normal;font-weight:normal;font-stretch:normal;text-align:start;line-height:125%;writing-mode:lr-tb;text-anchor:start;fill:#000000;fill-opacity:1;stroke:none;stroke-width:1px;stroke-linecap:butt;stroke-linejoin:miter;stroke-opacity:1;font-family:Bitstream Vera Sans"
         xml:space="preserve"><tspan
           y="471.11551"
           x="495.61224"
           id="tspan3199"
           sodipodi:role="line">a(u_h,v) = (f,v)</tspan><tspan
           id="tspan3201"
           y="493.61551"
           x="495.61224"
           sodipodi:role="line" /></text>
    </g>
    <g
       id="g3315"
       transform="translate(48.922485,-97.571426)">
      <rect
         style="fill:#b3b3b3;fill-opacity:1;stroke:#000000;stroke-width:2;stroke-miterlimit:4;stroke-dasharray:none;stroke-opacity:1"
         id="rect3296"
         width="80"
         height="120"
         x="222.07751"
         y="180.93361" />
      <path
         style="fill:none;fill-rule:evenodd;stroke:#000000;stroke-width:1px;stroke-linecap:butt;stroke-linejoin:miter;stroke-opacity:1"
         d="M 222.07752,200.93361 C 292.07752,200.93361 302.44508,200.93361 302.44508,200.93361"
         id="path9072"
         sodipodi:nodetypes="cc" />
      <path
         style="fill:none;fill-rule:evenodd;stroke:#000000;stroke-width:1px;stroke-linecap:butt;stroke-linejoin:miter;stroke-opacity:1"
         d="M 222.07752,220.93361 C 292.07752,220.93361 292.07752,220.93361 292.07752,220.93361 L 292.07752,220.93361 L 301.97383,220.93361"
         id="path9074"
         sodipodi:nodetypes="cccc" />
      <path
         style="fill:none;fill-rule:evenodd;stroke:#000000;stroke-width:1px;stroke-linecap:butt;stroke-linejoin:miter;stroke-opacity:1"
         d="M 301.97383,241.40486 C 231.97383,241.40486 222.07752,240.93361 222.07752,240.93361"
         id="path9076"
         sodipodi:nodetypes="cc" />
      <path
         style="fill:none;fill-rule:evenodd;stroke:#000000;stroke-width:1px;stroke-linecap:butt;stroke-linejoin:miter;stroke-opacity:1"
         d="M 222.07752,260.93361 C 292.07752,260.93361 301.97383,260.46236 301.97383,260.46236"
         id="path9078"
         sodipodi:nodetypes="cc" />
      <path
         style="fill:none;fill-rule:evenodd;stroke:#000000;stroke-width:1px;stroke-linecap:butt;stroke-linejoin:miter;stroke-opacity:1"
         d="M 222.07752,280.93361 C 292.07752,280.93361 292.07752,280.93361 292.07752,280.93361 L 302.7082,280.62329"
         id="path9080"
         sodipodi:nodetypes="ccc" />
      <path
         style="fill:none;fill-rule:evenodd;stroke:#000000;stroke-width:1px;stroke-linecap:butt;stroke-linejoin:miter;stroke-opacity:1"
         d="M 242.07752,180.93361 C 242.07752,300.93361 242.07752,300.93361 242.07752,300.93361 L 242.07752,300.93361 L 242.07752,300.93361"
         id="path9082" />
      <path
         style="fill:none;fill-rule:evenodd;stroke:#000000;stroke-width:1px;stroke-linecap:butt;stroke-linejoin:miter;stroke-opacity:1"
         d="M 262.07752,180.93361 C 262.07752,300.93361 262.07752,300.93361 262.07752,300.93361"
         id="path9084" />
      <path
         style="fill:none;fill-rule:evenodd;stroke:#000000;stroke-width:1px;stroke-linecap:butt;stroke-linejoin:miter;stroke-opacity:1"
         d="M 282.07752,180.93361 C 282.07752,300.93361 282.07752,300.93361 282.07752,300.93361"
         id="path9086" />
      <path
         style="fill:none;fill-rule:evenodd;stroke:#000000;stroke-width:1px;stroke-linecap:butt;stroke-linejoin:miter;stroke-opacity:1"
         d="M 222.07752,180.93361 C 227.07752,185.93361 302.07752,260.93361 302.07752,260.93361 L 302.07752,260.93361 L 302.07752,260.93361"
         id="path9088" />
      <path
         style="fill:none;fill-rule:evenodd;stroke:#000000;stroke-width:1px;stroke-linecap:butt;stroke-linejoin:miter;stroke-opacity:1"
         d="M 222.07752,200.93361 L 302.07752,280.93361"
         id="path9090" />
      <path
         style="fill:none;fill-rule:evenodd;stroke:#000000;stroke-width:1px;stroke-linecap:butt;stroke-linejoin:miter;stroke-opacity:1"
         d="M 222.07752,220.93361 L 302.07752,300.93361 L 302.07752,300.93361 L 302.07752,300.93361"
         id="path9092" />
      <path
         style="fill:none;fill-rule:evenodd;stroke:#000000;stroke-width:1px;stroke-linecap:butt;stroke-linejoin:miter;stroke-opacity:1"
         d="M 222.07752,240.93361 L 282.07752,300.93361 L 282.07752,300.93361 L 282.07752,300.93361 L 281.97308,301.35842"
         id="path9094" />
      <path
         style="fill:none;fill-rule:evenodd;stroke:#000000;stroke-width:1px;stroke-linecap:butt;stroke-linejoin:miter;stroke-opacity:1"
         d="M 222.07752,260.93361 C 262.07752,300.93361 262.07752,300.93361 262.07752,300.93361"
         id="path9098" />
      <path
         style="fill:none;fill-rule:evenodd;stroke:#000000;stroke-width:1px;stroke-linecap:butt;stroke-linejoin:miter;stroke-opacity:1"
         d="M 222.07752,280.93361 C 242.07752,300.93361 242.07752,300.93361 242.07752,300.93361"
         id="path9100" />
      <path
         style="fill:none;fill-rule:evenodd;stroke:#000000;stroke-width:1px;stroke-linecap:butt;stroke-linejoin:miter;stroke-opacity:1"
         d="M 242.07752,180.93361 C 302.07752,240.93361 302.07752,240.93361 302.07752,240.93361"
         id="path9102" />
      <path
         style="fill:none;fill-rule:evenodd;stroke:#000000;stroke-width:1px;stroke-linecap:butt;stroke-linejoin:miter;stroke-opacity:1"
         d="M 262.07752,180.93361 C 302.07752,220.93361 302.07752,220.93361 302.07752,220.93361"
         id="path9104" />
      <path
         style="fill:none;fill-rule:evenodd;stroke:#000000;stroke-width:1px;stroke-linecap:butt;stroke-linejoin:miter;stroke-opacity:1"
         d="M 282.07752,180.93361 C 302.07752,200.93361 302.07752,200.93361 302.07752,200.93361"
         id="path9106" />
    </g>
  </g>
</svg>
