<?xml version="1.0" encoding="UTF-8" standalone="no"?>
<!-- Created with Inkscape (http://www.inkscape.org/) -->
<svg
   xmlns:dc="http://purl.org/dc/elements/1.1/"
   xmlns:cc="http://web.resource.org/cc/"
   xmlns:rdf="http://www.w3.org/1999/02/22-rdf-syntax-ns#"
   xmlns:svg="http://www.w3.org/2000/svg"
   xmlns="http://www.w3.org/2000/svg"
   xmlns:sodipodi="http://sodipodi.sourceforge.net/DTD/sodipodi-0.dtd"
   xmlns:inkscape="http://www.inkscape.org/namespaces/inkscape"
   width="363.74695"
   height="362.11337"
   id="svg2"
   sodipodi:version="0.32"
   inkscape:version="0.45.1"
   sodipodi:docbase="/Users/aterrel/Research/Presentations/figures/FEMCartoons"
   sodipodi:docname="RT0BC.svg"
   inkscape:output_extension="org.inkscape.output.svg.inkscape"
   version="1.0">
  <defs
     id="defs4">
    <marker
       inkscape:stockid="TriangleOutM"
       orient="auto"
       refY="0"
       refX="0"
       id="TriangleOutM"
       style="overflow:visible">
      <path
         id="path4211"
         d="M 5.77,0 L -2.88,5 L -2.88,-5 L 5.77,0 z "
         style="fill-rule:evenodd;stroke:#000000;stroke-width:1pt;marker-start:none"
         transform="scale(0.4,0.4)" />
    </marker>
    <marker
       inkscape:stockid="Arrow2Lend"
       orient="auto"
       refY="0"
       refX="0"
       id="Arrow2Lend"
       style="overflow:visible">
      <path
         id="path4131"
         style="font-size:12px;fill-rule:evenodd;stroke-width:0.625;stroke-linejoin:round"
         d="M 8.7185878,4.0337352 L -2.2072895,0.016013256 L 8.7185884,-4.0017078 C 6.97309,-1.6296469 6.9831476,1.6157441 8.7185878,4.0337352 z "
         transform="matrix(-1.1,0,0,-1.1,-1.1,0)" />
    </marker>
  </defs>
  <sodipodi:namedview
     id="base"
     pagecolor="#ffffff"
     bordercolor="#666666"
     borderopacity="1.0"
     gridtolerance="10000"
     guidetolerance="10"
     objecttolerance="10"
     inkscape:pageopacity="0.0"
     inkscape:pageshadow="2"
     inkscape:zoom="0.52168351"
     inkscape:cx="372.04724"
     inkscape:cy="-10.010359"
     inkscape:document-units="px"
     inkscape:current-layer="layer1"
     showgrid="true"
     inkscape:window-width="1280"
     inkscape:window-height="752"
     inkscape:window-x="40"
     inkscape:window-y="62"
     width="990px"
     height="765px" />
  <metadata
     id="metadata7">
    <rdf:RDF>
      <cc:Work
         rdf:about="">
        <dc:format>image/svg+xml</dc:format>
        <dc:type
           rdf:resource="http://purl.org/dc/dcmitype/StillImage" />
      </cc:Work>
    </rdf:RDF>
  </metadata>
  <g
     inkscape:label="Layer 1"
     inkscape:groupmode="layer"
     id="layer1"
     transform="translate(-41.883443,-309.15503)">
    <path
       style="fill:none;fill-opacity:1;fill-rule:evenodd;stroke:#000000;stroke-width:5;stroke-linecap:butt;stroke-linejoin:miter;stroke-miterlimit:4;stroke-dasharray:none;stroke-opacity:1"
       d="M 221.9932,311.65503 L 44.383444,486.44647 L 223.20853,668.15492 L 221.9932,311.65503 z "
       id="path2160" />
    <path
       style="fill:none;fill-rule:evenodd;stroke:#000000;stroke-width:3.00000024;stroke-linecap:butt;stroke-linejoin:miter;marker-end:url(#TriangleOutM);stroke-miterlimit:4;stroke-dasharray:none;stroke-opacity:1"
       d="M 127.79088,402.25799 C 85.705125,359.49364 85.705125,359.49364 85.705125,359.49364"
       id="path3136" />
    <path
       style="fill:none;fill-rule:evenodd;stroke:#000000;stroke-width:3.00000024;stroke-linecap:butt;stroke-linejoin:miter;marker-end:url(#TriangleOutM);stroke-miterlimit:4;stroke-dasharray:none;stroke-opacity:1"
       d="M 224.50835,497.78683 C 284.50642,498.26666 284.50642,498.26666 284.50642,498.26666"
       id="path4317" />
    <path
       style="fill:none;fill-opacity:1;fill-rule:evenodd;stroke:#010df1;stroke-width:5;stroke-linecap:butt;stroke-linejoin:miter;stroke-miterlimit:4;stroke-dasharray:none;stroke-opacity:1"
       d="M 228.4497,668.76841 L 404.65593,492.56218 L 224.38344,312.28969 L 228.4497,668.76841 z "
       id="path4350" />
    <path
       style="fill:none;fill-rule:evenodd;stroke:#010df1;stroke-width:3;stroke-linecap:butt;stroke-linejoin:miter;marker-end:url(#TriangleOutM);stroke-miterlimit:4;stroke-dasharray:none;stroke-opacity:1"
       d="M 321.92444,577.415 C 364.35072,619.84128 364.35072,619.84128 364.35072,619.84128"
       id="path4352" />
    <path
       sodipodi:type="arc"
       style="fill:none;fill-opacity:1;stroke:#010df1;stroke-width:5;stroke-linejoin:miter;stroke-miterlimit:4;stroke-dasharray:none;stroke-opacity:1"
       id="path5334"
       sodipodi:cx="301.9072"
       sodipodi:cy="67.873672"
       sodipodi:rx="6.7090487"
       sodipodi:ry="6.7090487"
       d="M 308.61624 67.873672 A 6.7090487 6.7090487 0 1 1  295.19815,67.873672 A 6.7090487 6.7090487 0 1 1  308.61624 67.873672 z"
       transform="translate(30.767198,352.60378)" />
    <path
       sodipodi:type="arc"
       style="fill:none;fill-opacity:1;stroke:#000000;stroke-width:5;stroke-linejoin:miter;stroke-miterlimit:4;stroke-dasharray:none;stroke-opacity:1"
       id="path6309"
       sodipodi:cx="301.9072"
       sodipodi:cy="67.873672"
       sodipodi:rx="6.7090487"
       sodipodi:ry="6.7090487"
       d="M 308.61624 67.873672 A 6.7090487 6.7090487 0 1 1  295.19815,67.873672 A 6.7090487 6.7090487 0 1 1  308.61624 67.873672 z"
       transform="translate(-177.92591,499.54628)" />
    <text
       xml:space="preserve"
       style="font-size:20px;font-style:normal;font-variant:normal;font-weight:normal;font-stretch:normal;text-align:start;line-height:125%;writing-mode:lr-tb;text-anchor:start;fill:#000000;fill-opacity:1;stroke:none;stroke-width:1px;stroke-linecap:butt;stroke-linejoin:miter;stroke-opacity:1;font-family:Monaco"
       x="82.054604"
       y="343.48346"
       id="text7284"
       sodipodi:linespacing="125%"><tspan
         sodipodi:role="line"
         id="tspan7286"
         x="82.054604"
         y="343.48346">a(u_g,v)</tspan></text>
    <text
       xml:space="preserve"
       style="font-size:20px;font-style:normal;font-variant:normal;font-weight:normal;font-stretch:normal;text-align:start;line-height:125%;writing-mode:lr-tb;text-anchor:start;fill:#000000;fill-opacity:1;stroke:none;stroke-width:1px;stroke-linecap:butt;stroke-linejoin:miter;stroke-opacity:1;font-family:Monaco"
       x="307.694"
       y="647.33289"
       id="text7288"
       sodipodi:linespacing="125%"><tspan
         sodipodi:role="line"
         id="tspan7290"
         x="307.694"
         y="647.33289">a(u_g,v)</tspan></text>
  </g>
</svg>
