#FIG 3.2  Produced by xfig version 3.2.5-alpha5
Landscape
Center
Metric
A4      
100.00
Single
-2
1200 2
6 135 270 7110 630
6 2025 270 3285 630
6 2025 270 2475 630
2 2 0 1 0 5 50 -1 20 0.000 0 0 -1 0 0 5
	 2055 292 2460 292 2460 607 2055 607 2055 292
4 1 7 50 -1 0 16 0.0000 4 195 270 2190 562 11\001
-6
6 2430 270 2880 630
2 2 0 1 0 5 50 -1 20 0.000 0 0 -1 0 0 5
	 2460 292 2865 292 2865 607 2460 607 2460 292
4 1 7 50 -1 0 16 0.0000 4 195 270 2595 562 13\001
-6
6 2835 270 3285 630
2 2 0 1 0 5 50 -1 20 0.000 0 0 -1 0 0 5
	 2865 292 3270 292 3270 607 2865 607 2865 292
4 1 7 50 -1 0 16 0.0000 4 195 270 3000 562 15\001
-6
-6
6 3960 270 5220 630
6 3960 270 4410 630
2 2 0 1 0 5 50 -1 20 0.000 0 0 -1 0 0 5
	 3975 292 4380 292 4380 607 3975 607 3975 292
4 1 7 50 -1 0 16 0.0000 4 195 270 4110 562 15\001
-6
6 4365 270 4815 630
2 2 0 1 0 5 50 -1 20 0.000 0 0 -1 0 0 5
	 4380 292 4785 292 4785 607 4380 607 4380 292
4 1 7 50 -1 0 16 0.0000 4 195 270 4515 562 14\001
-6
6 4770 270 5220 630
2 2 0 1 0 5 50 -1 20 0.000 0 0 -1 0 0 5
	 4785 292 5190 292 5190 607 4785 607 4785 292
4 1 7 50 -1 0 16 0.0000 4 195 270 4920 562 11\001
-6
-6
6 135 270 1350 630
6 135 270 540 630
2 2 0 1 0 5 50 -1 20 0.000 0 0 -1 0 0 5
	 135 292 540 292 540 607 135 607 135 292
4 1 7 50 -1 0 16 0.0000 4 195 270 270 562 13\001
-6
6 540 270 945 630
2 2 0 1 0 5 50 -1 20 0.000 0 0 -1 0 0 5
	 540 292 945 292 945 607 540 607 540 292
4 1 7 50 -1 0 16 0.0000 4 195 270 675 562 11\001
-6
6 945 270 1350 630
2 2 0 1 0 5 50 -1 20 0.000 0 0 -1 0 0 5
	 945 292 1350 292 1350 607 945 607 945 292
4 1 7 50 -1 0 16 0.0000 4 195 270 1080 562 12\001
-6
-6
6 5895 270 7110 630
6 5895 270 6300 630
2 2 0 1 0 5 50 -1 20 0.000 0 0 -1 0 0 5
	 5895 292 6300 292 6300 607 5895 607 5895 292
4 1 7 50 -1 0 16 0.0000 4 195 270 6030 562 16\001
-6
6 6300 270 6705 630
2 2 0 1 0 5 50 -1 20 0.000 0 0 -1 0 0 5
	 6300 292 6705 292 6705 607 6300 607 6300 292
4 1 7 50 -1 0 16 0.0000 4 195 270 6435 562 15\001
-6
6 6705 270 7110 630
2 2 0 1 0 5 50 -1 20 0.000 0 0 -1 0 0 5
	 6705 292 7110 292 7110 607 6705 607 6705 292
4 1 7 50 -1 0 16 0.0000 4 195 270 6840 562 13\001
-6
-6
-6
6 405 1620 6930 2430
6 405 1620 1170 2430
1 3 0 1 0 1 55 -1 20 0.000 1 0.0000 807 2025 363 363 807 2025 1170 2025
4 0 7 50 -1 0 16 0.0000 4 195 135 765 2115 3\001
-6
6 6165 1620 6930 2430
1 3 0 1 0 1 55 -1 20 0.000 1 0.0000 6537 2025 363 363 6537 2025 6900 2025
4 0 7 50 -1 0 16 0.0000 4 195 135 6495 2115 7\001
-6
6 4245 1620 5010 2430
1 3 0 1 0 1 55 -1 20 0.000 1 0.0000 4642 2025 363 363 4642 2025 5005 2025
4 0 7 50 -1 0 16 0.0000 4 195 135 4600 2115 6\001
-6
6 2325 1620 3090 2430
1 3 0 1 0 1 55 -1 20 0.000 1 0.0000 2702 2025 363 363 2702 2025 3065 2025
4 0 7 50 -1 0 16 0.0000 4 195 135 2660 2115 5\001
-6
-6
2 1 0 1 0 7 50 -1 -1 0.000 0 0 -1 1 0 2
	1 1 1.00 60.00 120.00
	 315 630 585 1710
2 1 0 1 0 7 50 -1 -1 0.000 0 0 -1 1 0 2
	1 1 1.00 60.00 120.00
	 720 630 765 1620
2 1 0 1 0 7 50 -1 -1 0.000 0 0 -1 1 0 2
	1 1 1.00 60.00 120.00
	 1125 585 945 1665
2 1 0 1 0 7 50 -1 -1 0.000 0 0 -1 1 0 2
	1 1 1.00 60.00 120.00
	 2250 630 2520 1710
2 1 0 1 0 7 50 -1 -1 0.000 0 0 -1 1 0 2
	1 1 1.00 60.00 120.00
	 2655 585 2700 1665
2 1 0 1 0 7 50 -1 -1 0.000 0 0 -1 1 0 2
	1 1 1.00 60.00 120.00
	 3060 630 2880 1665
2 1 0 1 0 7 50 -1 -1 0.000 0 0 -1 1 0 2
	1 1 1.00 60.00 120.00
	 4185 585 4455 1710
2 1 0 1 0 7 50 -1 -1 0.000 0 0 -1 1 0 2
	1 1 1.00 60.00 120.00
	 4545 630 4635 1620
2 1 0 1 0 7 50 -1 -1 0.000 0 0 -1 1 0 2
	1 1 1.00 60.00 120.00
	 4995 585 4770 1665
2 1 0 1 0 7 50 -1 -1 0.000 0 0 -1 1 0 2
	1 1 1.00 60.00 120.00
	 6120 585 6345 1710
2 1 0 1 0 7 50 -1 -1 0.000 0 0 -1 1 0 2
	1 1 1.00 60.00 120.00
	 6525 585 6525 1665
2 1 0 1 0 7 50 -1 -1 0.000 0 0 -1 1 0 2
	1 1 1.00 60.00 120.00
	 6885 585 6705 1665
