%!PS-Adobe-3.0
%%Creator: GIMP PostScript file plugin V 1.17 by Peter Kirchgessner
%%Title: simplicial_2d_mesh_dist.ps
%%CreationDate: Mon Jan 29 21:34:01 2007
%%DocumentData: Clean7Bit
%%LanguageLevel: 2
%%Pages: 1
%%BoundingBox: 14 14 582 582
%%EndComments
%%BeginProlog
% Use own dictionary to avoid conflicts
10 dict begin
%%EndProlog
%%Page: 1 1
% Translate for offset
14.173228346456694 14.173228346456694 translate
% Translate to begin of first scanline
0 566.92913385826773 translate
566.92913385826773 -566.92913385826773 scale
% Image geometry
460 460 8
% Transformation matrix
[ 460 0 0 460 0 0 ]
% Strings to hold RGB-samples per scanline
/rstr 460 string def
/gstr 460 string def
/bstr 460 string def
{currentfile /ASCII85Decode filter /RunLengthDecode filter rstr readstring pop}
{currentfile /ASCII85Decode filter /RunLengthDecode filter gstr readstring pop}
{currentfile /ASCII85Decode filter /RunLengthDecode filter bstr readstring pop}
true 3
%%BeginData:        26426 ASCII Bytes
colorimage
JcC<$JcE.XJ,~>
JcC<$JcE.XJ,~>
JcC<$JcE.XJ,~>
JcC<$JcE.XJ,~>
JcC<$JcE.XJ,~>
JcC<$JcE.XJ,~>
JcC<$JcE.XJ,~>
JcC<$JcE.XJ,~>
JcC<$JcE.XJ,~>
r;Qa)JcC<$JcE@^J,~>
r;V<JJH16$^&\-3J,~>
qu;3IJH16$^B"64J,~>
r;Zd)JcC<$JcEC_J,~>
r;V<JJH16$^&\-3J,~>
qYu*HJH16$^]=?5J,~>
r;Za(JcC<$JcEF`J,~>
r;V<JJH16$^&\-3J,~>
q>Z!GJH16$_#XH6J,~>
r;Z^'JcC<$JcEIaJ,~>
r;V<JJH16$^&\-3J,~>
q#>mFJH16$_>sQ7J,~>
r;Z[&JcC<$JcELbJ,~>
r;V<JJH16$^&\-3J,~>
p]#dEJH16$_Z9Z8J,~>
r;ZX%JcC<$JcEOcJ,~>
r;V<JJH16$^&\-3J,~>
pA][DJH16$_uTc9J,~>
r;ZU$JcC<$JcERdJ,~>
r;V<JJH16$^&\-3J,~>
p&BRCJH16$`;ol:J,~>
r;ZR#JcC<$JcEUeJ,~>
r;V<JJH16$^&\-3J,~>
o`'IBJH16$`W5u;J,~>
r;ZO"JcC<$JcEXfJ,~>
r;V<JJH16$^&\-3J,~>
oDa@AJH16$`rQ)<J,~>
r;ZL!JcC<$JcE[gJ,~>
r;V<JJH16$^&\-3J,~>
o)F7@JH16$a8l2=J,~>
r;ZHuJcC<$JcE^hJ,~>
r;V<JJH16$^&\-3J,~>
nc+.?JH16$aT2;>J,~>
r;ZEtJcC<$JcEaiJ,~>
r;V<JJH16$^&\-3J,~>
nGe%>JH16$aoMD?J,~>
r;ZBsJcC<$JcEdjJ,~>
r;V<JJH16$^&\-3J,~>
n,Iq=JH16$b5hM@J,~>
r;Z?rJcC<$JcEgkJ,~>
r;V<JJH16$^&\-3J,~>
mf.h<JH16$bQ.VAJ,~>
r;Z<qJcC<$JcEjlJ,~>
r;V<JJH16$^&\-3J,~>
mJh_;JH16$blI_BJ,~>
r;Z9pJcC<$JcEmmJ,~>
r;V<JJH16$^&\-3J,~>
m/MV:JH16$c2dhCJ,~>
r;Z6oJcC<$JcEpnJ,~>
r;V<JJH16$^&\-3J,~>
li2M9JH16$cN*qDJ,~>
r;Z3nJcC<$JcEsoJ,~>
r;V<JJH16$^&\-3J,~>
lMlD8JH16$ciF%EJ,~>
r;Z0mJcC<$JcF!pJ,~>
r;V<JJH16$^&\-3J,~>
l2Q;7JH16$d/a.FJ,~>
r;Z-lJcC<$JcF$qJ,~>
r;V<JJH16$^&\-3J,~>
kl626JH16$dK'7GJ,~>
r;Z*kJcC<$JcF'rJ,~>
r;V<JJH16$^&\-3J,~>
kPp)5JH16$dfB@HJ,~>
r;Z'jJcC<$JcF*sJ,~>
r;V<JJH16$^&\-3J,~>
k5Tu4JH16$e,]IIJ,~>
r;Z$iJcC<$JcF-tJ,~>
r;V<JJH16$^&\-3J,~>
jo9l3JH16$eH#RJJ,~>
r;Z!hJcC<$JcF0uJ,~>
r;V<JJH16$^&\-3J,~>
jSsc2JH16$ec>[KJ,~>
r;YsgJcC<$JcF4!J,~>
r;V<JJH16$^&\-3J,~>
j8XZ1JH16$f)YdLJ,~>
r;YpfJcC<$JcF7"J,~>
r;V<JJH16$^&\-3J,~>
ir=Q0JH16$fDtmMJ,~>
r;YmeJcC<$JcF:#J,~>
r;V<JJH16$^&\-3J,~>
iW"H/JH16$f`;!NJ,~>
r;YjdJcC<$JcF=$J,~>
r;V<JJH16$^&\-3J,~>
i;\?.JH16$g&V*OJ,~>
r;YgcJcC<$JcF@%J,~>
r;V<JJH16$^&\-3J,~>
huA6-JH16$gAq3PJ,~>
r;YdbJcC<$JcFC&J,~>
r;V<JJH16$^&\-3J,~>
hZ&-,JH16$g]7<QJ,~>
r;YaaJcC<$JcFF'J,~>
r;V<JJH16$^&\-3J,~>
h>`$+JH16$h#RERJ,~>
r;Y^`JcC<$JcFI(J,~>
r;V<JJH16$^&\-3J,~>
h#Dp*JH16$h>mNSJ,~>
r;Y[_JcC<$JcFL)J,~>
r;V<JJH16$^&\-3J,~>
g])g)JH16$hZ3WTJ,~>
r;YX^JcC<$JcFO*J,~>
r;V<JJH16$^&\-3J,~>
gAc^(JH16$huN`UJ,~>
r;YU]JcC<$JcFR+J,~>
r;V<JJH16$^&\-3J,~>
g&HU'JH16$i;iiVJ,~>
r;YR\JcC<$JcFU,J,~>
r;V<JJH16$^&\-3J,~>
f`-L&JH16$iW/rWJ,~>
r;YO[JcC<$JcFX-J,~>
r;V<JJH16$^&\-3J,~>
fDgC%JH16$irK&XJ,~>
r;YLZJcC<$JcF[.J,~>
r;V<JJH16$^&\-3J,~>
f)L:$JH16$j8f/YJ,~>
r;YIYJcC<$JcF^/J,~>
r;V<JJH16$^&\-3J,~>
ec11#JH16$jT,8ZJ,~>
r;YCWJcC<$JcFd1J,~>
r;V<JJH16$^&\-3J,~>
e,Ot!JH16$k5bJ\J,~>
r;YCWJcC<$JcFd1J,~>
r;V<JJH16$^&\-3J,~>
e,Ot!JH16$k5bJ\J,~>
r;Y@VJcC<$JcFg2J,~>
r;V<JJH16$^&\-3J,~>
df4juJH16$kQ(S]J,~>
r;Y=UJcC<$JcFj3J,~>
r;V<JJH16$^&\-3J,~>
dJnatJH16$klC\^J,~>
r;Y:TJcC<$JcFm4J,~>
r;V<JJH16$^&\-3J,~>
d/SXsJH16$l2^e_J,~>
r;Y7SJcC<$JcFp5J,~>
r;V<JJH16$^&\-3J,~>
ci8OrJH16$lN$n`J,~>
r;Y4RJcC<$JcFs6J,~>
r;V<JJH16$^&\-3J,~>
cMrFqJH16$li@"aJ,~>
r;Y1QJcC<$JcG!7J,~>
r;V<JJH16$^&\-3J,~>
c2W=pJH16$m/[+bJ,~>
r;Y.PJcC<$JcG$8J,~>
r;V<JJH16$^&\-3J,~>
bl<4oJH16$mK!4cJ,~>
r;Y+OJcC<$JcG'9J,~>
r;V<JJH16$^&\-3J,~>
bQ!+nJH16$mf<=dJ,~>
r;Y(NJcC<$JcG*:J,~>
r;V<JJH16$^&\-3J,~>
b5["mJH16$n,WFeJ,~>
r;Y%MJcC<$JcG-;J,~>
r;V<JJH16$^&\-3J,~>
ao?nlJH16$nGrOfJ,~>
r;Y"LJcC<$JcG0<J,~>
r;V<JJH16$^&\-3J,~>
aT$ekJH16$nc8XgJ,~>
r;XtKJcC<$JcG3=J,~>
r;V<JJH16$^&\-3J,~>
a8^\jJH16$o)SahJ,~>
r;XqJJcC<$JcG6>J,~>
r;V<JJH16$^&\-3J,~>
`rCSiJH16$oDnjiJ,~>
r;XnIJcC<$JcG9?J,~>
r;V<JJH16$^&\-3J,~>
`W(JhJH16$o`4sjJ,~>
r;XkHJcC<$JcG<@J,~>
r;V<JJH16$^&\-3J,~>
`;bAgJH16$p&P'kJ,~>
r;XhGJcC<$JcG?AJ,~>
r;V<JJH16$^&\-3J,~>
_uG8fJH16$pAk0lJ,~>
r;XeFJcC<$JcGBBJ,~>
r;V<JJH16$^&\-3J,~>
_Z,/eJH16$p]19mJ,~>
r;XbEJcC<$JcGECJ,~>
r;V<JJH16$^&\-3J,~>
_>f&dJH16$q#LBnJ,~>
r;X_DJcC<$JcGHDJ,~>
r;V<JJH16$^&\-3J,~>
_#JrcJH16$q>gKoJ,~>
r;X\CJcC<$JcGKEJ,~>
r;V<JJH16$^&\-3J,~>
^]/ibJH16$qZ-TpJ,~>
r;XYBJcC<$JcGNFJ,~>
r;V<JJH16$^&\-3J,~>
^Ai`aJH16$quH]qJ,~>
r;XVAJcC<$JcGQGJ,~>
r;V<JJH16$^&\-3J,~>
^&NW`JH16$r;cfrJ,~>
r;XS@JcC<$JcGTHJ,~>
r;V<JJH16$^&\-3J,~>
]`3N_JH16$rW)osJ,~>
r;XP?JcC<$JcGWIJ,~>
r;V<JJH16$^&\-3J,~>
]DmE^JH16$rrE#tJ,~>
r;XM>JcC<$JcGZJJ,~>
r;V<JJH16$^&\-3J,~>
])R<]JH16$!!)utJ,~>
r;XJ=JcC<$JcG]KJ,~>
r;V<JJH16$^&\-3J,~>
\c73\JH16$rVqB~>
r;XG<JcC<$JcG`LJ,~>
r;V<JJH16$^&\-3J,~>
\Gq*[JH19%rVqB~>
r;XD;JcC<$JcGcMJ,~>
r;V<JJH16$^&\-3J,~>
\,V!ZJH1<&rVqB~>
r;XA:JcC<$Jc>`MJ,~>
r;V<JJH16$^&\-3J,~>
[f:mYJH1?'rVqB~>
r;X>9JcC<$JcC6~>
r;V<JJH16$^&\-3J,~>
[JtdXJH1B(rVqB~>
r;X;8JcC<$K)^?~>
r;V<JJH16$^&\-3J,~>
[/Y[WJH1E)rVqB~>
r;X87JcC<$KE$H~>
r;V<JJH16$^&\-3J,~>
Zi>RVJH1H*rVqB~>
r;X56JcC<$K`?Q~>
r;V<JJH16$^&\-3J,~>
ZN#IUJH1K+rVqB~>
r;X25JcC<$L&ZZ~>
r;V<JJH16$^&\-3J,~>
Z2]@TJH1N,rVqB~>
r;X/4JcC<$LAuc~>
r;V<JJH16$^&\-3J,~>
YlB7SJH1Q-rVqB~>
r;X,3JcC<$L];l~>
r;V<JJH16$^&\-3J,~>
YQ'.RJH1T.rVqB~>
r;X)2JcC<$M#Vu~>
r;V<JJH16$^&\-3J,~>
Y5a%QJH1W/rVqB~>
r;X&1JcC<$M>r)~>
r;V<JJH16$^&\-3J,~>
XoEqPJH1Z0rVqB~>
r;X#0JcC<$MZ82~>
r;V<JJH16$^&\-3J,~>
XT*hOJH1]1rVqB~>
r;Wu/JcC<$MuS;~>
r;V<JJH16$^&\-3J,~>
X8d_NJH1`2rVqB~>
r;Wr.JcC<$N;nD~>
r;V<JJH16$^&\-3J,~>
WrIVMJH1c3rVqB~>
r;Wo-JcC<$NW4M~>
r;V<JJH16$^&\-3J,~>
WW.MLJH1f4rVqB~>
r;Wl,JcC<$NrOV~>
r;V<JJH16$^&\-3J,~>
W;hDKJH1i5rVqB~>
r;Wi+JcC<$O8j_~>
r;V<JJH16$^&\-3J,~>
VuM;JJH1l6rVqB~>
r;Wf*JcC<$OT0h~>
r;V<JJH16$^&\-3J,~>
VZ22IJH1o7rVqB~>
r;Wc)JcC<$OoKq~>
r;V<JJH16$^&\-3J,~>
V>l)HJH1r8rVqB~>
r;W`(JcC<$P5g%~>
r;V<JJH16$^&\-3J,~>
V#PuGJH1u9rVqB~>
r;W]'JcC<$PQ-.~>
r;V<JJH16$^&\-3J,~>
U]5lFJH2#:rVqB~>
r;WZ&JcC<$PlH7~>
r;V<JJH16$^&\-3J,~>
UAocEJH2&;rVqB~>
r;WW%JcC<$Q2c@~>
r;V<JJH16$^&\-3J,~>
U&TZDJH2)<rVqB~>
r;WT$JcC<$QN)I~>
r;V<JJH16$^&\-3J,~>
T`9QCJH2,=rVqB~>
r;WQ#JcC<$QiDR~>
r;V<JJH16$^&\-3J,~>
TDsHBJH2/>rVqB~>
r;WN"JcC<$R/_[~>
r;V<JJH16$^&\-3J,~>
T)X?AJH22?rVqB~>
r;WK!JcC<$RK%d~>
r;V<JJH16$^&\-3J,~>
Sc=6@JH25@rVqB~>
r;WGuJcC<$Rf@m~>
r;V<JJH16$^&\-3J,~>
SH"-?JH28ArVqB~>
r;WDtJcC<$S,\!~>
r;V<JJH16$^&\-3J,~>
S,\$>JH2;BrVqB~>
r;WAsJcC<$SH"*~>
r;V<JJH16$^&\-3J,~>
Rf@p=JH2>CrVqB~>
r;W>rJcC<$Sc=3~>
r;V<JJH16$^&\-3J,~>
RK%g<JH2ADrVqB~>
r;W;qJcC<$T)X<~>
r;V<JJH16$^&\-3J,~>
R/_^;JH2DErVqB~>
r;W8pJcC<$TDsE~>
r;V<JJH16$^&\-3J,~>
QiDU:JH2GFrVqB~>
r;W5oJcC<$T`9N~>
r;V<JJH16$^&\-3J,~>
QN)L9JH2JGrVqB~>
r;W2nJcC<$U&TW~>
r;V<JJH16$^&\-3J,~>
Q2cC8JH2MHrVqB~>
r;W/mJcC<$UAo`~>
r;V<JJH16$^&\-3J,~>
PlH:7JH2PIrVqB~>
r;W,lJcC<$U]5i~>
r;V<JJH16$^&\-3J,~>
PQ-16JH2SJrVqB~>
r;W)kJcC<$V#Pr~>
r;V<JJH16$^&\-3J,~>
P5g(5JH2VKrVqB~>
r;W&jJcC<$V>l&~>
r;V<JJH16$^&\-3J,~>
OoKt4JH2YLrVqB~>
r;W#iJcC<$VZ2/~>
r;V<JJH16$^&\-3J,~>
OT0k3JH2\MrVqB~>
r;VuhJcC<$VuM8~>
r;V<JJH16$^&\-3J,~>
O8jb2JH2_NrVqB~>
r;VrgJcC<$W;hA~>
r;V<JJH16$^&\-3J,~>
NrOY1JH2bOrVqB~>
r;VofJcC<$WW.J~>
r;V<JJH16$^&\-3J,~>
NW4P0JH2ePrVqB~>
r;VleJcC<$WrIS~>
r;V<JJH16$^&\-3J,~>
N;nG/JH2hQrVqB~>
r;VidJcC<$X8d\~>
r;V<JJH16$^&\-3J,~>
MuS>.JH2kRrVqB~>
r;VfcJcC<$XT*e~>
r;V<JJH16$^&\-3J,~>
MZ85-JH2nSrVqB~>
r;VcbJcC<$XoEn~>
r;V<JJH16$^&\-3J,~>
M>r,,JH2qTrVqB~>
r;V`aJcC<$Y5a"~>
r;V<JJH16$^&\-3J,~>
M#W#+JH2tUrVqB~>
r;V]`JcC<$YQ'+~>
r;V<JJH16$^&\-3J,~>
L];o*JH3"VrVqB~>
r;VZ_JcC<$YlB4~>
r;V<JJH16$^&\-3J,~>
LAuf)JH3%WrVqB~>
r;VW^JcC<$Z2]=~>
r;V<JJH16$^&\-3J,~>
L&Z](JH3(XrVqB~>
r;VT]JcC<$ZN#F~>
r;V<JJH16$^&\-3J,~>
K`?T'JH3+YrVqB~>
r;VQ\JcC<$Zi>O~>
r;V<JJH16$^&\-3J,~>
KE$K&JH3.ZrVqB~>
r;VN[JcC<$[/YX~>
r;V<JJH16$^&\-3J,~>
K)^B%JH31[rVqB~>
r;VKZJcC<$[Jta~>
r;V<JJH16$^&\-3J,~>
JcC9$JH34\rVqB~>
r;VHYJcC<$[f:j~>
r;V<JJH16$^&\-3J,~>
Jc>`MJH16$\cD^/J,~>
r;VEXJcC<$\,Us~>
r;V<JJH16$^&\-3J,~>
JcGcMJH16$])_g0J,~>
r;VBWJcC<$\Gq'~>
r;V<JJH16$^&\-3J,~>
JcG`LJH16$]E%p1J,~>
r;V?VJcC<$\c70~>
r;V<JJH16$^&\-3J,~>
JcG]KJH16$]`A$2J,~>
r;V<UJcC<$])R9~>
r;V<JJH16$^&\-3J,~>
JcGZJJH16$^&\-3J,~>
r;V<U!"4AXJcE@^J,~>
r;V<JJH16$^&\-3J,~>
JcGWIJH16$^B"64J,~>
r;V<UrsODXJcEC_J,~>
r;V<JJH16$^&\-3J,~>
JcGTHJH16$^]=?5J,~>
r;V<UrX4;WJcEF`J,~>
r;V<JJH16$^&\-3J,~>
JcGQGJH16$_#XH6J,~>
r;V<Ur<n2VJcEIaJ,~>
r;V<JJH16$^&\-3J,~>
JcGNFJH16$_>sQ7J,~>
r;V<Ur!S)UJcELbJ,~>
r;V<JJH16$^&\-3J,~>
JcGKEJH16$_Z9Z8J,~>
r;V<Uq[7uTJcEOcJ,~>
r;V<JJH16$^&\-3J,~>
JcGHDJH16$_uTc9J,~>
r;V<Uq?qlSJcERdJ,~>
r;V<JJH16$^&\-3J,~>
JcGECJH16$`;ol:J,~>
r;V<Uq$VcRJcEUeJ,~>
r;V<JJH16$^&\-3J,~>
JcGBBJH16$`W5u;J,~>
r;V<Up^;ZQJcEXfJ,~>
r;V<JJH16$^&\-3J,~>
JcG?AJH16$`rQ)<J,~>
r;V<UpBuQPJcE[gJ,~>
r;V<JJH16$^&\-3J,~>
JcG<@JH16$a8l2=J,~>
r;V<Up'ZHOJcE^hJ,~>
r;V<JJH16$^&\-3J,~>
JcG9?JH16$aT2;>J,~>
r;V<Uoa??NJcEaiJ,~>
r;V<JJH16$^&\-3J,~>
JcG6>JH16$aoMD?J,~>
r;V<UoF$6MJcEdjJ,~>
r;V<JJH16$^&\-3J,~>
JcG3=JH16$b5hM@J,~>
r;V<Uo*^-LJcEgkJ,~>
r;V<JJH16$^&\-3J,~>
JcG0<JH16$bQ.VAJ,~>
r;V<UndC$KJcEjlJ,~>
r;V<JJH16$^&\-3J,~>
JcG-;JH16$blI_BJ,~>
r;V<UnI'pJJcEmmJ,~>
r;V<JJH16$^&\-3J,~>
JcG*:JH16$c2dhCJ,~>
r;V<Un-agIJcEpnJ,~>
r;V<JJH16$^&\-3J,~>
JcG'9JH16$cN*qDJ,~>
r;V<UmgF^HJcEsoJ,~>
r;V<JJH16$^&\-3J,~>
JcG$8JH16$ciF%EJ,~>
r;V<UmL+UGJcF!pJ,~>
r;V<JJH16$^&\-3J,~>
JcG!7JH16$d/a.FJ,~>
r;V<Um0eLFJcF$qJ,~>
r;V<JJH16$^&\-3J,~>
JcFs6JH16$dK'7GJ,~>
r;V<UljJCEJcF'rJ,~>
r;V<JJH16$^&\-3J,~>
JcFp5JH16$dfB@HJ,~>
r;V<UlO/:DJcF*sJ,~>
r;V<JJH16$^&\-3J,~>
JcFm4JH16$e,]IIJ,~>
r;V<Ul3i1CJcF-tJ,~>
r;V<JJH16$^&\-3J,~>
JcFj3JH16$eH#RJJ,~>
r;V<UkmN(BJcF0uJ,~>
r;V<JJH16$^&\-3J,~>
JcFg2JH16$ec>[KJ,~>
r;V<UkR2tAJcF4!J,~>
r;V<JJH16$^&\-3J,~>
JcFd1JH16$f)YdLJ,~>
r;V<Uk6lk@JcF7"J,~>
r;V<JJH16$^&\-3J,~>
JcFa0JH16$fDtmMJ,~>
r;V<UjpQb?JcF:#J,~>
r;V<JJH16$^&\-3J,~>
JcF^/JH16$f`;!NJ,~>
r;V<UjU6Y>JcF=$J,~>
r;V<JJH16$^&\-3J,~>
JcF[.JH16$g&V*OJ,~>
r;V<Uj9pP=JcF@%J,~>
r;V<JJH16$^&\-3J,~>
JcFX-JH16$gAq3PJ,~>
r;V<UisUG<JcFC&J,~>
r;V<JJH16$^&\-3J,~>
JcFU,JH16$g]7<QJ,~>
r;V<UiX:>;JcFF'J,~>
r;V<JJH16$^&\-3J,~>
JcFR+JH16$h#RERJ,~>
r;V<Ui<t5:JcFI(J,~>
r;V<JJH16$^&\-3J,~>
JcFO*JH16$h>mNSJ,~>
r;V<Ui!Y,9JcFL)J,~>
r;V<JJH16$^&\-3J,~>
JcFL)JH16$hZ3WTJ,~>
r;V<Uh[>#8JcFO*J,~>
r;V<JJH16$^&\-3J,~>
JcFI(JH16$huN`UJ,~>
r;V<Uh@"o7JcFR+J,~>
r;V<JJH16$^&\-3J,~>
JcFF'JH16$i;iiVJ,~>
r;V<Uh$\f6JcFU,J,~>
r;V<JJH16$^&\-3J,~>
JcFC&JH16$iW/rWJ,~>
r;V<Ug^A]5JcFX-J,~>
r;V<JJH16$^&\-3J,~>
JcF@%JH16$irK&XJ,~>
r;V<UgC&T4JcF[.J,~>
r;V<JJH16$^&\-3J,~>
JcF=$JH16$j8f/YJ,~>
r;V<Ug'`K3JcF^/J,~>
r;V<JJH16$^&\-3J,~>
JcF:#JH16$jT,8ZJ,~>
r;V<UfaEB2JcFa0J,~>
r;V<JJH16$^&\-3J,~>
JcF7"JH16$joGA[J,~>
r;V<UfF*91JcFd1J,~>
r;V<JJH16$^&\-3J,~>
JcF4!JH16$k5bJ\J,~>
r;V<Uf*d00JcFg2J,~>
r;V<JJH16$^&\-3J,~>
JcF0uJH16$kQ(S]J,~>
r;V<UedI'/JcFj3J,~>
r;V<JJH16$^&\-3J,~>
JcF-tJH16$klC\^J,~>
r;V<UeI-s.JcFm4J,~>
r;V<JJH16$^&\-3J,~>
JcF*sJH16$l2^e_J,~>
r;V<Ue-gj-JcFp5J,~>
r;V<JJH16$^&\-3J,~>
JcF'rJH16$lN$n`J,~>
r;V<UdgLa,JcFs6J,~>
r;V<JJH16$^&\-3J,~>
JcF$qJH16$li@"aJ,~>
r;V<UdL1X+JcG!7J,~>
r;V<JJH16$^&\-3J,~>
JcF!pJH16$m/[+bJ,~>
r;V<Ud0kO*JcG$8J,~>
r;V<JJH16$^&\-3J,~>
JcEsoJH16$mK!4cJ,~>
r;V<UcjPF)JcG'9J,~>
r;V<JJH16$^&\-3J,~>
JcEpnJH16$mf<=dJ,~>
r;V<UcO5=(JcG*:J,~>
r;V<JJH16$^&\-3J,~>
JcEmmJH16$n,WFeJ,~>
r;V<Uc3o4'JcG-;J,~>
r;V<JJH16$^&\-3J,~>
JcEjlJH16$nGrOfJ,~>
r;V<UbmT+&JcG0<J,~>
r;V<JJH16$^&\-3J,~>
JcEgkJH16$nc8XgJ,~>
r;V<UbR9"%JcG3=J,~>
r;V<JJH16$^&\-3J,~>
JcEdjJH16$o)SahJ,~>
r;V<Ub6rn$JcG6>J,~>
r;V<JJH16$^&\-3J,~>
JcEaiJH16$oDnjiJ,~>
r;V<UapWe#JcG9?J,~>
r;V<JJH16$^&\-3J,~>
JcE^hJH16$o`4sjJ,~>
r;V<UaU<\"JcG<@J,~>
r;V<JJH16$^&\-3J,~>
JcE[gJH16$p&P'kJ,~>
r;V<Ua:!S!JcG?AJ,~>
r;V<JJH16$^&\-3J,~>
JcEXfJH16$pAk0lJ,~>
r;V<U`s[IuJcGBBJ,~>
r;V<JJH16$^&\-3J,~>
JcEUeJH16$p]19mJ,~>
r;V<U`X@@tJcGECJ,~>
r;V<JJH16$^&\-3J,~>
JcERdJH16$q#LBnJ,~>
r;V<U`=%7sJcGHDJ,~>
r;V<JJH16$^&\-3J,~>
JcEOcJH16$q>gKoJ,~>
r;V<U`!_.rJcGKEJ,~>
r;V<JJH16$^&\-3J,~>
JcELbJH16$qZ-TpJ,~>
r;V<U_[D%qJcGNFJ,~>
r;V<JJH16$^&\-3J,~>
JcEIaJH16$quH]qJ,~>
r;V<U_@(qpJcGQGJ,~>
r;V<JJH16$^&\-3J,~>
JcEF`JH16$r;cfrJ,~>
r;V<U_$bhoJcGTHJ,~>
r;V<JJH16$^&\-3J,~>
JcEC_JH16$rW)osJ,~>
r;V<U^^G_nJcGWIJ,~>
r;V<JJH16$^&\-3J,~>
JcE@^JH16$rrE#tJ,~>
r;V<U^C,VmJcGZJJ,~>
r;V<JJH16$^&\-3J,~>
JcE=]JH16$!!)utJ,~>
r;V<U^'fMlJcG]KJ,~>
r;V<JJH16$^&\-3J,~>
JcE:\JH16$rVqB~>
r;V<U]aKDkJcG`LJ,~>
r;V<JJH16$^&\-3J,~>
JcE7[JH19%rVqB~>
r;V<U]F0;jJcGcMJ,~>
r;V<JJH16$^&\-3J,~>
JcE4ZJH1<&rVqB~>
r;V<U]*j2iJc>`MJ,~>
r;V<JJH16$^&\-3J,~>
JcE1YJH1?'rVqB~>
r;V<U\dO)hJcC6~>
r;V<JJH16$^&\-3J,~>
JcE.XJH1B(rVqB~>
r;V<U\I3ugK)^?~>
r;V<JJH16$^&\-3J,~>
JcE+WJH1E)rVqB~>
r;V<U\-mlfKE$H~>
r;V<JJH16$^&\-3J,~>
JcE(VJH1H*rVqB~>
r;V<U[gRceK`?Q~>
r;V<JJH16$^&\-3J,~>
JcE%UJH1K+rVqB~>
r;V<U[L7ZdL&ZZ~>
r;V<JJH16$^&\-3J,~>
JcE"TJH1N,rVqB~>
r;V<U[0qQcLAuc~>
r;V<JJH16$^&\-3J,~>
JcDtSJH1Q-rVqB~>
r;V<UZjVHbL];l~>
r;V<JJH16$^&\-3J,~>
JcDqRJH1T.rVqB~>
r;V<UZO;?aM#Vu~>
r;V<JJH16$^&\-3J,~>
JcDnQJH1W/rVqB~>
r;V<UZ3u6`M>r)~>
r;V<JJH16$^&\-3J,~>
JcDkPJH1Z0rVqB~>
r;V<UYmZ-_MZ82~>
r;V<JJH16$^&\-3J,~>
JcDhOJH1]1rVqB~>
r;V<UYR?$^MuS;~>
r;V<JJH16$^&\-3J,~>
JcDeNJH1`2rVqB~>
r;V<UY7#p]N;nD~>
r;V<JJH16$^&\-3J,~>
JcDbMJH1c3rVqB~>
r;V<UXp]g\NW4M~>
r;V<JJH16$^&\-3J,~>
JcD_LJH1f4rVqB~>
r;V<UXUB^[NrOV~>
r;V<JJH16$^&\-3J,~>
JcD\KJH1i5rVqB~>
r;V<UX:'UZO8j_~>
r;V<JJH16$^&\-3J,~>
JcDYJJH1l6rVqB~>
r;V<UWsaLYOT0h~>
r;V<JJH16$^&\-3J,~>
JcDVIJH1o7rVqB~>
r;V<UWXFCXOoKq~>
r;V<JJH16$^&\-3J,~>
JcDSHJH1r8rVqB~>
r;V<UW=+:WP5g%~>
r;V<JJH16$^&\-3J,~>
JcDPGJH1u9rVqB~>
r;V<UW!e1VPQ-.~>
r;V<JJH16$^&\-3J,~>
JcDMFJH2#:rVqB~>
r;V<UV[J(UPlH7~>
r;V<JJH16$^&\-3J,~>
JcDJEJH2&;rVqB~>
r;V<UV@.tTQ2c@~>
r;V<JJH16$^&\-3J,~>
JcDGDJH2)<rVqB~>
r;V<UV$hkSQN)I~>
r;V<JJH16$^&\-3J,~>
JcDDCJH2,=rVqB~>
r;V<UU^MbRQiDR~>
r;V<JJH16$^&\-3J,~>
JcDABJH2/>rVqB~>
r;V<UUC2YQR/_[~>
r;V<JJH16$^&\-3J,~>
JcD>AJH22?rVqB~>
r;V<UU'lPPRK%d~>
r;V<JJH16$^&\-3J,~>
JcD;@JH25@rVqB~>
r;V<UTaQGORf@m~>
r;V<JJH16$^&\-3J,~>
JcD8?JH28ArVqB~>
r;V<UTF6>NS,\!~>
r;V<JJH16$^&\-3J,~>
JcD5>JH2;BrVqB~>
r;V<UT*p5MSH"*~>
r;V<JJH16$^&\-3J,~>
JcD2=JH2>CrVqB~>
r;V<USdU,LSc=3~>
r;V<JJH16$^&\-3J,~>
JcD/<JH2ADrVqB~>
r;V<USI:#KT)X<~>
r;V<JJH16$^&\-3J,~>
JcD,;JH2DErVqB~>
r;V<US-soJTDsE~>
r;V<JJH16$^&\-3J,~>
JcD):JH2GFrVqB~>
r;V<URgXfIT`9N~>
r;V<JJH16$^&\-3J,~>
JcD&9JH2JGrVqB~>
r;V<URL=]HU&TW~>
r;V<JJH16$^&\-3J,~>
JcD#8JH2MHrVqB~>
r;V<UR1"TGUAo`~>
r;V<JJH16$^&\-3J,~>
JcCu7JH2PIrVqB~>
r;V<UQj\KFU]5i~>
r;V<JJH16$^&\-3J,~>
JcCr6JH2SJrVqB~>
r;V<UQOABEV#Pr~>
r;V<JJH16$^&\-3J,~>
JcCo5JH2VKrVqB~>
r;V<UQ4&9DV>l&~>
r;V<JJH16$^&\-3J,~>
JcCl4JH2YLrVqB~>
r;V<UPm`0CVZ2/~>
r;V<JJH16$^&\-3J,~>
JcCi3JH2\MrVqB~>
r;V<UPRE'BVuM8~>
r;V<JJH16$^&\-3J,~>
JcCf2JH2_NrVqB~>
r;V<UP7)sAW;hA~>
r;V<JJH16$^&\-3J,~>
JcCc1JH2bOrVqB~>
r;V<UOpcj@WW.J~>
r;V<JJH16$^&\-3J,~>
JcC`0JH2ePrVqB~>
r;V<UOUHa?WrIS~>
r;V<JJH16$^&\-3J,~>
JcC]/JH2hQrVqB~>
r;V<UO:-X>X8d\~>
r;V<JJH16$^&\-3J,~>
JcCZ.JH2kRrVqB~>
r;V<UNsgO=XT*e~>
r;V<JJH16$^&\-3J,~>
JcCW-JH2nSrVqB~>
r;V<UNXLF<XoEn~>
r;V<JJH16$^&\-3J,~>
JcCT,JH2qTrVqB~>
r;V<UN=1=;Y5a"~>
r;V<JJH16$^&\-3J,~>
JcCQ+JH2tUrVqB~>
r;V<UN!k4:YQ'+~>
r;V<JJH16$^&\-3J,~>
JcCN*JH3"VrVqB~>
r;V<UM[P+9YlB4~>
r;V<JJH16$^&\-3J,~>
JcCK)JH3%WrVqB~>
r;V<UM@5"8Z2]=~>
r;V<JJH16$^&\-3J,~>
JcCH(JH3(XrVqB~>
r;V<UM$nn7ZN#F~>
r;V<JJH16$^&\-3J,~>
JcCE'JH3+YrVqB~>
r;V<UL^Se6Zi>O~>
r;V<JJH16$^&\-3J,~>
JcCB&JH3.ZrVqB~>
r;V<ULC8\5[/YX~>
r;V<JJH16$^&\-3J,~>
JcC?%JH31[rVqB~>
r;V<UL'rS4[Jta~>
r;V<JJH16$^&\-3J,~>
JcC<$JH34\rVqB~>
r;V<UKaWJ3[f:j~>
r;V<JJH16$^&\-3J,~>
JcC<$!<7TM\cD^/J,~>
r;V<UKF<A2\,Us~>
r;V<JJH16$^&\-3J,~>
JcC<$s8RWM])_g0J,~>
r;V<UK+!81\Gq'~>
r;V<JJH16$^&\-3J,~>
JcC<$rr7NL]E%p1J,~>
r;V<UJd[/0\c70~>
r;V<JJH16$^&\-3J,~>
JcC<$rVqEK]`A$2J,~>
r;V<UJI@&/])R9~>
r;V<JJH16$^&\-3J,~>
JcC<$r;V<J^&\-3J,~>
r;V<UJI;GcJcE@^J,~>
r;V<JJH16$^&\-3J,~>
JcC<$qu;3I^B"64J,~>
r;V<UJIDJcJcEC_J,~>
r;V<JJH16$^&\-3J,~>
JcC<$qYu*H^]=?5J,~>
r;V<UJIDGbJcEF`J,~>
r;V<JJH16$^&\-3J,~>
JcC<$q>Z!G_#XH6J,~>
r;V<UJIDDaJcEIaJ,~>
r;V<JJH16$^&\-3J,~>
JcC<$q#>mF_>sQ7J,~>
r;V<UJIDA`JcELbJ,~>
r;V<JJH16$^&\-3J,~>
JcC<$p]#dE_Z9Z8J,~>
r;V<UJID>_JcEOcJ,~>
r;V<JJH16$^&\-3J,~>
JcC<$pA][D_uTc9J,~>
r;V<UJID;^JcERdJ,~>
r;V<JJH16$^&\-3J,~>
JcC<$p&BRC`;ol:J,~>
r;V<UJID8]JcEUeJ,~>
r;V<JJH16$^&\-3J,~>
JcC<$o`'IB`W5u;J,~>
r;V<UJID5\JcEXfJ,~>
r;V<JJH16$^&\-3J,~>
JcC<$oDa@A`rQ)<J,~>
r;V<UJID2[JcE[gJ,~>
r;V<JJH16$^&\-3J,~>
JcC<$o)F7@a8l2=J,~>
r;V<UJID/ZJcE^hJ,~>
r;V<JJH16$^&\-3J,~>
JcC<$nc+.?aT2;>J,~>
r;V<UJID,YJcEaiJ,~>
r;V<JJH16$^&\-3J,~>
JcC<$nGe%>aoMD?J,~>
r;V<UJID)XJcEdjJ,~>
r;V<JJH16$^&\-3J,~>
JcC<$n,Iq=b5hM@J,~>
r;V<UJID&WJcEgkJ,~>
r;V<JJH16$^&\-3J,~>
JcC<$mf.h<bQ.VAJ,~>
r;V<UJID#VJcEjlJ,~>
r;V<JJH16$^&\-3J,~>
JcC<$mJh_;blI_BJ,~>
r;V<UJICuUJcEmmJ,~>
r;V<JJH16$^&\-3J,~>
JcC<$m/MV:c2dhCJ,~>
r;V<UJICrTJcEpnJ,~>
r;V<JJH16$^&\-3J,~>
JcC<$li2M9cN*qDJ,~>
r;V<UJICoSJcEsoJ,~>
r;V<JJH16$^&\-3J,~>
JcC<$lMlD8ciF%EJ,~>
r;V<UJIClRJcF!pJ,~>
r;V<JJH16$^&\-3J,~>
JcC<$l2Q;7d/a.FJ,~>
r;V<UJICiQJcF$qJ,~>
r;V<JJH16$^&\-3J,~>
JcC<$kl626dK'7GJ,~>
r;V<UJICfPJcF'rJ,~>
r;V<JJH16$^&\-3J,~>
JcC<$kPp)5dfB@HJ,~>
r;V<UJICcOJcF*sJ,~>
r;V<JJH16$^&\-3J,~>
JcC<$k5Tu4e,]IIJ,~>
r;V<UJIC`NJcF-tJ,~>
r;V<JJH16$^&\-3J,~>
JcC<$jo9l3eH#RJJ,~>
r;V<UJIC]MJcF0uJ,~>
r;V<JJH16$^&\-3J,~>
JcC<$jSsc2ec>[KJ,~>
r;V<UJICZLJcF4!J,~>
r;V<JJH16$^&\-3J,~>
JcC<$j8XZ1f)YdLJ,~>
r;V<UJICWKJcF7"J,~>
r;V<JJH16$^&\-3J,~>
JcC<$ir=Q0fDtmMJ,~>
r;V<UJICTJJcF:#J,~>
r;V<JJH16$^&\-3J,~>
JcC<$iW"H/f`;!NJ,~>
r;V<UJICQIJcF=$J,~>
r;V<JJH16$^&\-3J,~>
JcC<$i;\?.g&V*OJ,~>
r;V<UJICNHJcF@%J,~>
r;V<JJH16$^&\-3J,~>
JcC<$huA6-gAq3PJ,~>
r;V<UJICKGJcFC&J,~>
r;V<JJH16$^&\-3J,~>
JcC<$hZ&-,g]7<QJ,~>
r;V<UJICHFJcFF'J,~>
r;V<JJH16$^&\-3J,~>
JcC<$h>`$+h#RERJ,~>
r;V<UJICEEJcFI(J,~>
r;V<JJH16$^&\-3J,~>
JcC<$h#Dp*h>mNSJ,~>
r;V<UJICBDJcFL)J,~>
r;V<JJH16$^&\-3J,~>
JcC<$g])g)hZ3WTJ,~>
r;V<UJIC?CJcFO*J,~>
r;V<JJH16$^&\-3J,~>
JcC<$gAc^(huN`UJ,~>
r;V<UJIC<BJcFR+J,~>
r;V<JJH16$^&\-3J,~>
JcC<$g&HU'i;iiVJ,~>
r;V<UJIC9AJcFU,J,~>
r;V<JJH16$^&\-3J,~>
JcC<$f`-L&iW/rWJ,~>
r;V<UJIC6@JcFX-J,~>
r;V<JJH16$^&\-3J,~>
JcC<$fDgC%irK&XJ,~>
r;V<UJIC3?JcF[.J,~>
r;V<JJH16$^&\-3J,~>
JcC<$f)L:$j8f/YJ,~>
r;V<UJIC0>JcF^/J,~>
r;V<JJH16$^&\-3J,~>
JcC<$ec11#jT,8ZJ,~>
r;V<UJIC-=JcFa0J,~>
r;V<JJH16$^&\-3J,~>
JcC<$eGk("joGA[J,~>
r;V<UJIC*<JcFd1J,~>
r;V<JJH16$^&\-3J,~>
JcC<$e,Ot!k5bJ\J,~>
r;V<UJIC';JcFg2J,~>
r;V<JJH16$^&\-3J,~>
JcC<$df4jukQ(S]J,~>
r;V<UJIC$:JcFj3J,~>
r;V<JJH16$^&\-3J,~>
JcC<$dJnatklC\^J,~>
r;V<UJIC!9JcFm4J,~>
r;V<JJH16$^&\-3J,~>
JcC<$d/SXsl2^e_J,~>
r;V<UJIBs8JcFp5J,~>
r;V<JJH16$^&\-3J,~>
JcC<$ci8OrlN$n`J,~>
r;V<UJIBp7JcFs6J,~>
r;V<JJH16$^&\-3J,~>
JcC<$cMrFqli@"aJ,~>
r;V<UJIBm6JcG!7J,~>
r;V<JJH16$^&\-3J,~>
JcC<$c2W=pm/[+bJ,~>
r;V<UJIBj5JcG$8J,~>
r;V<JJH16$^&\-3J,~>
JcC<$bl<4omK!4cJ,~>
r;V<UJIBg4JcG'9J,~>
r;V<JJH16$^&\-3J,~>
JcC<$bQ!+nmf<=dJ,~>
r;V<UJIBd3JcG*:J,~>
r;V<JJH16$^&\-3J,~>
JcC<$b5["mn,WFeJ,~>
r;V<UJIBa2JcG-;J,~>
r;V<JJH16$^&\-3J,~>
JcC<$ao?nlnGrOfJ,~>
r;V<UJIB^1JcG0<J,~>
r;V<JJH16$^&\-3J,~>
JcC<$aT$eknc8XgJ,~>
r;V<UJIB[0JcG3=J,~>
r;V<JJH16$^&\-3J,~>
JcC<$a8^\jo)SahJ,~>
r;V<UJIBX/JcG6>J,~>
r;V<JJH16$^&\-3J,~>
JcC<$`rCSioDnjiJ,~>
r;V<UJIBU.JcG9?J,~>
r;V<JJH16$^&\-3J,~>
JcC<$`W(Jho`4sjJ,~>
r;V<UJIBR-JcG<@J,~>
r;V<JJH16$^&\-3J,~>
JcC<$`;bAgp&P'kJ,~>
r;V<UJIBO,JcG?AJ,~>
r;V<JJH16$^&\-3J,~>
JcC<$_uG8fpAk0lJ,~>
r;V<UJIBL+JcGBBJ,~>
r;V<JJH16$^&\-3J,~>
JcC<$_Z,/ep]19mJ,~>
r;V<UJIBI*JcGECJ,~>
r;V<JJH16$^&\-3J,~>
JcC<$_>f&dq#LBnJ,~>
r;V<UJIBF)JcGHDJ,~>
r;V<JJH16$^&\-3J,~>
JcC<$_#Jrcq>gKoJ,~>
r;V<UJIBC(JcGKEJ,~>
r;V<JJH16$^&\-3J,~>
JcC<$^]/ibqZ-TpJ,~>
r;V<UJIB@'JcGNFJ,~>
r;V<JJH16$^&\-3J,~>
JcC<$^Ai`aquH]qJ,~>
r;V<UJIB=&JcGQGJ,~>
r;V<JJH16$^&\-3J,~>
JcC<$^&NW`r;cfrJ,~>
r;V<UJIB:%JcGTHJ,~>
r;V<JJH16$^&\-3J,~>
JcC<$]`3N_rW)osJ,~>
r;V<UJIB7$JcGWIJ,~>
r;V<JJH16$^&\-3J,~>
JcC<$]DmE^rrE#tJ,~>
r;V<UJIB4#JcGZJJ,~>
r;V<JJH16$^&\-3J,~>
JcC<$])R<]!!)utJ,~>
r;V<UJIB1"JcG]KJ,~>
r;V<JJH16$^&\-3J,~>
JcC<$\c73\rVqB~>
r;V<UJIB.!JcG`LJ,~>
r;V<JJH16$^&\-3J,~>
JcC<$\Gq-\rVqB~>
r;V<UJIB*uJcGcMJ,~>
r;V<JJH16$^&\-3J,~>
JcC<$\,V'\rVqB~>
r;V<UJIB'tJc>`MJ,~>
r;V<JJH16$^&\-3J,~>
JcC<$[f;!\rVqB~>
r;V<UJIB$sJcC6~>
r;V<JJH16$^&\-3J,~>
JcC<$[Jtp\rVqB~>
r;V<UJIB!rK)^?~>
r;V<JJH16$^&\-3J,~>
JcC<$[/Yj\rVqB~>
r;V<UJIAsqKE$H~>
r;V<JJH16$^&\-3J,~>
JcC<$Zi>d\rVqB~>
r;V<UJIAppK`?Q~>
r;V<JJH16$^&\-3J,~>
JcC<$ZN#^\rVqB~>
r;V<UJIAmoL&ZZ~>
r;V<JJH16$^&\-3J,~>
JcC<$Z2]X\rVqB~>
r;V<UJIAjnLAuc~>
r;V<JJH16$^&\-3J,~>
JcC<$YlBR\rVqB~>
r;V<UJIAgmL];l~>
r;V<JJH16$^&\-3J,~>
JcC<$YQ'L\rVqB~>
r;V<UJIAdlM#Vu~>
r;V<JJH16$^&\-3J,~>
JcC<$Y5aF\rVqB~>
r;V<UJIAakM>r)~>
r;V<JJH16$^&\-3J,~>
JcC<$XoF@\rVqB~>
r;V<UJIA^jMZ82~>
r;V<JJH16$^&\-3J,~>
JcC<$XT+:\rVqB~>
r;V<UJIA[iMuS;~>
r;V<JJH16$^&\-3J,~>
JcC<$X8e4\rVqB~>
r;V<UJIAXhN;nD~>
r;V<JJH16$^&\-3J,~>
JcC<$WrJ.\rVqB~>
r;V<UJIAUgNW4M~>
r;V<JJH16$^&\-3J,~>
JcC<$WW/(\rVqB~>
r;V<UJIARfNrOV~>
r;V<JJH16$^&\-3J,~>
JcC<$W;i"\rVqB~>
r;V<UJIAOeO8j_~>
r;V<JJH16$^&\-3J,~>
JcC<$VuMq\rVqB~>
r;V<UJIALdOT0h~>
r;V<JJH16$^&\-3J,~>
JcC<$VZ2k\rVqB~>
r;V<UJIAIcOoKq~>
r;V<JJH16$^&\-3J,~>
JcC<$V>le\rVqB~>
r;V<UJIAFbP5g%~>
r;V<JJH16$^&\-3J,~>
JcC<$V#Q_\rVqB~>
r;V<UJIACaPQ-.~>
r;V<JJH16$^&\-3J,~>
JcC<$U]6Y\rVqB~>
r;V<UJIA@`PlH7~>
r;V<JJH16$^&\-3J,~>
JcC<$UApS\rVqB~>
r;V<UJIA=_Q2c@~>
r;V<JJH16$^&\-3J,~>
JcC<$U&UM\rVqB~>
r;V<UJIA:^QN)I~>
r;V<JJH16$^&\-3J,~>
JcC<$T`:G\rVqB~>
r;V<UJIA7]QiDR~>
r;V<JJH16$^&\-3J,~>
JcC<$TDtA\rVqB~>
r;V<UJIA4\R/_[~>
r;V<JJH16$^&\-3J,~>
JcC<$T)Y;\rVqB~>
r;V<UJIA1[RK%d~>
r;V<JJH16$^&\-3J,~>
JcC<$Sc>5\rVqB~>
r;V<UJIA.ZRf@m~>
r;V<JJH16$^&\-3J,~>
JcC<$SH#/\rVqB~>
r;V<UJIA+YS,\!~>
r;V<JJH16$^&\-3J,~>
JcC<$S,])\rVqB~>
r;V<UJIA(XSH"*~>
r;V<JJH16$^&\-3J,~>
JcC<$RfB#\rVqB~>
r;V<UJIA%WSc=3~>
r;V<JJH16$^&\-3J,~>
JcC<$RK&r\rVqB~>
r;V<UJIA"VT)X<~>
r;V<JJH16$^&\-3J,~>
JcC<$R/`l\rVqB~>
r;V<UJI@tUTDsE~>
r;V<JJH16$^&\-3J,~>
JcC<$QiEf\rVqB~>
r;V<UJI@qTT`9N~>
r;V<JJH16$^&\-3J,~>
JcC<$QN*`\rVqB~>
r;V<UJI@nSU&TW~>
r;V<JJH16$^&\-3J,~>
JcC<$Q2dZ\rVqB~>
r;V<UJI@kRUAo`~>
r;V<JJH16$^&\-3J,~>
JcC<$PlIT\rVqB~>
r;V<UJI@hQU]5i~>
r;V<JJH16$^&\-3J,~>
JcC<$PQ.N\rVqB~>
r;V<UJI@ePV#Pr~>
r;V<JJH16$^&\-3J,~>
JcC<$P5hH\rVqB~>
r;V<UJI@bOV>l&~>
r;V<JJH16$^&\-3J,~>
JcC<$OoMB\rVqB~>
r;V<UJI@_NVZ2/~>
r;V<JJH16$^&\-3J,~>
JcC<$OT2<\rVqB~>
r;V<UJI@\MVuM8~>
r;V<JJH16$^&\-3J,~>
JcC<$O8l6\rVqB~>
r;V<UJI@YLW;hA~>
r;V<JJH16$^&\-3J,~>
JcC<$NrQ0\rVqB~>
r;V<UJI@VKWW.J~>
r;V<JJH16$^&\-3J,~>
JcC<$NW6*\rVqB~>
r;V<UJI@SJWrIS~>
r;V<JJH16$^&\-3J,~>
JcC<$N;p$\rVqB~>
r;V<UJI@PIX8d\~>
r;V<JJH16$^&\-3J,~>
JcC<$MuTs\rVqB~>
r;V<UJI@MHXT*e~>
r;V<JJH16$^&\-3J,~>
JcC<$MZ9m\rVqB~>
r;V<UJI@JGXoEn~>
r;V<JJH16$^&\-3J,~>
JcC<$M>sg\rVqB~>
r;V<UJI@GFY5a"~>
r;V<JJH16$^&\-3J,~>
JcC<$M#Xa\rVqB~>
r;V<UJI@DEYQ'+~>
r;V<JJH16$^&\-3J,~>
JcC<$L]=[\rVqB~>
r;V<UJI@ADYlB4~>
r;V<JJH16$^&\-3J,~>
JcC<$LB"U\rVqB~>
r;V<UJI@>CZ2]=~>
r;V<JJH16$^&\-3J,~>
JcC<$L&\O\rVqB~>
r;V<UJI@;BZN#F~>
r;V<JJH16$^&\-3J,~>
JcC<$K`AI\rVqB~>
r;V<UJI@8AZi>O~>
r;V<JJH16$^&\-3J,~>
JcC<$KE&C\rVqB~>
r;V<UJI@5@[/YX~>
r;V<JJH16$^&\-3J,~>
JcC<$K)`=\rVqB~>
r;V<UJI@2?[Jta~>
r;V<JJH16$^&\-3J,~>
JcC<$JcE7\rVqB~>
r;V<UJI@/>[f:j~>
r;V<JJH16$^&\-3J,~>
JcC<$Jc>`M\cD^/J,~>
r;V<UJI@,=\,Us~>
r;V<JJH16$^&\-3J,~>
JcC<$JcGcM])_g0J,~>
r;V<UJI@)<\Gq'~>
r;V<JJH16$^&\-3J,~>
JcC<$JcG`L]E%p1J,~>
r;V<UJI@&;\c70~>
r;V<JJH16$^&\-3J,~>
JcC<$JcG]K]`A$2J,~>
r;V<UJI@#:])R9~>
r;V<JJH16$^&\-3J,~>
JcC<$JcGZJ^&\-3J,~>
r;V<UJI@#:!"6F=J,~>
r;V<JJH16$^&\-3J,~>
JcC<$JcGWI^B"64J,~>
r;V<UJI@#:rsQL>J,~>
r;V<JJH16$^&\-3J,~>
JcC<$JcGTH^]=?5J,~>
r;V<UJI@#:rX6F>J,~>
r;V<JJH16$^&\-3J,~>
JcC<$JcGQG_#XH6J,~>
r;V<UJI@#:r<p@>J,~>
r;V<JJH16$^&\-3J,~>
JcC<$JcGNF_>sQ7J,~>
r;V<UJI@#:r!U:>J,~>
r;V<JJH16$^&\-3J,~>
JcC<$JcGKE_Z9Z8J,~>
r;V<UJI@#:q[:4>J,~>
r;V<JJH16$^&\-3J,~>
JcC<$JcGHD_uTc9J,~>
r;V<UJI@#:q?t.>J,~>
r;V<JJH16$^&\-3J,~>
JcC<$JcGEC`;ol:J,~>
r;V<UJI@#:q$Y(>J,~>
r;V<JJH16$^&\-3J,~>
JcC<$JcGBB`W5u;J,~>
r;V<UJI@#:p^>">J,~>
r;V<JJH16$^&\-3J,~>
JcC<$JcG?A`rQ)<J,~>
r;V<UJI@#:pC"q>J,~>
r;V<JJH16$^&\-3J,~>
JcC<$JcG<@a8l2=J,~>
r;V<UJI@#:p'\k>J,~>
r;V<JJH16$^&\-3J,~>
JcC<$JcG9?aT2;>J,~>
r;V<UJI@#:oaAe>J,~>
r;V<JJH16$^&\-3J,~>
JcC<$JcG6>aoMD?J,~>
r;V<UJI@#:oF&_>J,~>
r;V<JJH16$^&\-3J,~>
JcC<$JcG3=b5hM@J,~>
r;V<UJI@#:o*`Y>J,~>
r;V<JJH16$^&\-3J,~>
JcC<$JcG0<bQ.VAJ,~>
r;V<UJI@#:ndES>J,~>
r;V<JJH16$^&\-3J,~>
JcC<$JcG-;blI_BJ,~>
r;V<UJI@#:nI*M>J,~>
r;V<JJH16$^&\-3J,~>
JcC<$JcG*:c2dhCJ,~>
r;V<UJI@#:n-dG>J,~>
r;V<JJH16$^&\-3J,~>
JcC<$JcG'9cN*qDJ,~>
r;V<UJI@#:mgIA>J,~>
r;V<JJH16$^&\-3J,~>
JcC<$JcG$8ciF%EJ,~>
r;V<UJI@#:mL.;>J,~>
r;V<JJH16$^&\-3J,~>
JcC<$JcG!7d/a.FJ,~>
r;V<UJI@#:m0h5>J,~>
r;V<JJH16$^&\-3J,~>
JcC<$JcFs6dK'7GJ,~>
r;V<UJI@#:ljM/>J,~>
r;V<JJH16$^&\-3J,~>
JcC<$JcFp5dfB@HJ,~>
r;V<UJI@#:lO2)>J,~>
r;V<JJH16$^&\-3J,~>
JcC<$JcFm4e,]IIJ,~>
r;V<UJI@#:l3l#>J,~>
r;V<JJH16$^&\-3J,~>
JcC<$JcFj3eH#RJJ,~>
r;V<UJI@#:kmPr>J,~>
r;V<JJH16$^&\-3J,~>
JcC<$JcFg2ec>[KJ,~>
r;V<UJI@#:kR5l>J,~>
r;V<JJH16$^&\-3J,~>
JcC<$JcFd1f)YdLJ,~>
r;V<UJI@#:k6of>J,~>
r;V<JJH16$^&\-3J,~>
JcC<$JcFa0fDtmMJ,~>
r;V<UJI@#:jpT`>J,~>
r;V<JJH16$^&\-3J,~>
JcC<$JcF^/f`;!NJ,~>
r;V<UJI@#:jU9Z>J,~>
r;V<JJH16$^&\-3J,~>
JcC<$JcF[.g&V*OJ,~>
r;V<UJI@#:j9sT>J,~>
r;V<JJH16$^&\-3J,~>
JcC<$JcFX-gAq3PJ,~>
r;V<UJI@#:isXN>J,~>
r;V<JJH16$^&\-3J,~>
JcC<$JcFU,g]7<QJ,~>
r;V<UJI@#:iX=H>J,~>
r;V<JJH16$^&\-3J,~>
JcC<$JcFR+h#RERJ,~>
r;V<UJI@#:i="B>J,~>
r;V<JJH16$^&\-3J,~>
JcC<$JcFO*h>mNSJ,~>
r;V<UJI@#:i!\<>J,~>
r;V<JJH16$^&\-3J,~>
JcC<$JcFL)hZ3WTJ,~>
r;V<UJI@#:h[A6>J,~>
r;V<JJH16$^&\-3J,~>
JcC<$JcFI(huN`UJ,~>
r;V<UJI@#:h@&0>J,~>
r;V<JJH16$^&\-3J,~>
JcC<$JcFF'i;iiVJ,~>
r;V<UJI@#:h$`*>J,~>
r;V<JJH16$^&\-3J,~>
JcC<$JcFC&iW/rWJ,~>
r;V<UJI@#:g^E$>J,~>
r;V<JJH16$^&\-3J,~>
JcC<$JcF@%irK&XJ,~>
r;V<UJI@#:gC)s>J,~>
r;V<JJH16$^&\-3J,~>
JcC<$JcF=$j8f/YJ,~>
r;V<UJI@#:g'cm>J,~>
r;V<JJH16$^&\-3J,~>
JcC<$JcF:#jT,8ZJ,~>
r;V<UJI@#:faHg>J,~>
r;V<JJH16$^&\-3J,~>
JcC<$JcF7"joGA[J,~>
r;V<UJI@#:fF-a>J,~>
r;V<JJH16$^&\-3J,~>
JcC<$JcF4!k5bJ\J,~>
r;V<UJI@#:f*g[>J,~>
r;V<JJH16$^&\-3J,~>
JcC<$JcF0ukQ(S]J,~>
r;V<UJI@#:edLU>J,~>
r;V<JJH16$^&\-3J,~>
JcC<$JcF-tklC\^J,~>
r;V<UJI@#:eI1O>J,~>
r;V<JJH16$^&\-3J,~>
JcC<$JcF*sl2^e_J,~>
r;V<UJI@#:e-kI>J,~>
r;V<JJH16$^&\-3J,~>
JcC<$JcF'rlN$n`J,~>
r;V<UJI@#:dgPC>J,~>
r;V<JJH16$^&\-3J,~>
JcC<$JcF$qli@"aJ,~>
r;V<UJI@#:dL5=>J,~>
r;V<JJH16$^&\-3J,~>
JcC<$JcF!pm/[+bJ,~>
r;V<UJI@#:d0o7>J,~>
r;V<JJH16$^&\-3J,~>
JcC<$JcEsomK!4cJ,~>
r;V<UJI@#:cjT1>J,~>
r;V<JJH16$^&\-3J,~>
JcC<$JcEpnmf<=dJ,~>
r;V<UJI@#:cO9+>J,~>
r;V<JJH16$^&\-3J,~>
JcC<$JcEmmn,WFeJ,~>
r;V<UJI@#:c3s%>J,~>
r;V<JJH16$^&\-3J,~>
JcC<$JcEjlnGrOfJ,~>
r;V<UJI@#:bmWt>J,~>
r;V<JJH16$^&\-3J,~>
JcC<$JcEgknc8XgJ,~>
r;V<UJI@#:bR<n>J,~>
r;V<JJH16$^&\-3J,~>
JcC<$JcEdjo)SahJ,~>
r;V<UJI@#:b7!h>J,~>
r;V<JJH16$^&\-3J,~>
JcC<$JcEaioDnjiJ,~>
r;V<UJI@#:ap[b>J,~>
r;V<JJH16$^&\-3J,~>
JcC<$JcE^ho`4sjJ,~>
r;V<UJI@#:aU@\>J,~>
r;V<JJH16$^&\-3J,~>
JcC<$JcE[gp&P'kJ,~>
r;V<UJI@#:a:%V>J,~>
r;V<JJH16$^&\-3J,~>
JcC<$JcEXfpAk0lJ,~>
r;V<UJI@#:`s_P>J,~>
r;V<JJH16$^&\-3J,~>
JcC<$JcEUep]19mJ,~>
r;V<UJI@#:`XDJ>J,~>
r;V<JJH16$^&\-3J,~>
JcC<$JcERdq#LBnJ,~>
r;V<UJI@#:`=)D>J,~>
r;V<JJH16$^&\-3J,~>
JcC<$JcEOcq>gKoJ,~>
r;V<UJI@#:`!c>>J,~>
r;V<JJH16$^&\-3J,~>
JcC<$JcELbqZ-TpJ,~>
r;V<UJI@#:_[H8>J,~>
r;V<JJH16$^&\-3J,~>
JcC<$JcEIaquH]qJ,~>
r;V<UJI@#:_@-2>J,~>
r;V<JJH16$^&\-3J,~>
JcC<$JcEF`r;cfrJ,~>
r;V<UJI@#:_$g,>J,~>
r;V<JJH16$^&\-3J,~>
JcC<$JcEC_rW)osJ,~>
r;V<UJI@#:^^L&>J,~>
r;V<JJH16$^&\-3J,~>
JcC<$JcE@^rrE#tJ,~>
r;V<UJI@#:^C0u>J,~>
r;V<JJH16$^&\-3J,~>
JcC<$JcE=]!!)utJ,~>
JcC<$JcE.XJ,~>
JcC<$JcE.XJ,~>
JcC<$JcE.XJ,~>
JcC<$JcE.XJ,~>
JcC<$JcE.XJ,~>
JcC<$JcE.XJ,~>
JcC<$JcE.XJ,~>
JcC<$JcE.XJ,~>
JcC<$JcE.XJ,~>
JcC<$JcE.XJ,~>
JcC<$JcE.XJ,~>
JcC<$JcE.XJ,~>
JcC<$JcE.XJ,~>
JcC<$JcE.XJ,~>
JcC<$JcE.XJ,~>
JcC<$JcE.XJ,~>
JcC<$JcE.XJ,~>
JcC<$JcE.XJ,~>
JcC<$JcE.XJ,~>
JcC<$JcE.XJ,~>
JcC<$JcE.XJ,~>
%%EndData
showpage
%%Trailer
end
%%EOF
