<?xml version="1.0" encoding="UTF-8" standalone="no"?>
<!-- Created with Inkscape (http://www.inkscape.org/) -->
<svg
   xmlns:dc="http://purl.org/dc/elements/1.1/"
   xmlns:cc="http://creativecommons.org/ns#"
   xmlns:rdf="http://www.w3.org/1999/02/22-rdf-syntax-ns#"
   xmlns:svg="http://www.w3.org/2000/svg"
   xmlns="http://www.w3.org/2000/svg"
   xmlns:sodipodi="http://sodipodi.sourceforge.net/DTD/sodipodi-0.dtd"
   xmlns:inkscape="http://www.inkscape.org/namespaces/inkscape"
   width="594.82275"
   height="772.15466"
   id="svg2"
   sodipodi:version="0.32"
   inkscape:version="0.46"
   version="1.0"
   sodipodi:docname="completionII.svg"
   inkscape:output_extension="org.inkscape.output.svg.inkscape">
  <defs
     id="defs4">
    <marker
       inkscape:stockid="Arrow2Lend"
       orient="auto"
       refY="0"
       refX="0"
       id="Arrow2Lend"
       style="overflow:visible">
      <path
         id="path4407"
         style="font-size:12px;fill-rule:evenodd;stroke-width:0.625;stroke-linejoin:round"
         d="M 8.7185878,4.0337352 L -2.2072895,0.016013256 L 8.7185884,-4.0017078 C 6.97309,-1.6296469 6.9831476,1.6157441 8.7185878,4.0337352 z"
         transform="matrix(-1.1,0,0,-1.1,-1.1,0)" />
    </marker>
    <inkscape:perspective
       sodipodi:type="inkscape:persp3d"
       inkscape:vp_x="0 : 526.18109 : 1"
       inkscape:vp_y="0 : 1000 : 0"
       inkscape:vp_z="744.09448 : 526.18109 : 1"
       inkscape:persp3d-origin="372.04724 : 350.78739 : 1"
       id="perspective10" />
  </defs>
  <sodipodi:namedview
     id="base"
     pagecolor="#ffffff"
     bordercolor="#666666"
     borderopacity="1.0"
     gridtolerance="10000"
     guidetolerance="10"
     objecttolerance="10"
     inkscape:pageopacity="0.0"
     inkscape:pageshadow="2"
     inkscape:zoom="1"
     inkscape:cx="547.79059"
     inkscape:cy="372.71959"
     inkscape:document-units="px"
     inkscape:current-layer="layer1"
     showgrid="false"
     inkscape:window-width="1678"
     inkscape:window-height="1019"
     inkscape:window-x="0"
     inkscape:window-y="0" />
  <metadata
     id="metadata7">
    <rdf:RDF>
      <cc:Work
         rdf:about="">
        <dc:format>image/svg+xml</dc:format>
        <dc:type
           rdf:resource="http://purl.org/dc/dcmitype/StillImage" />
      </cc:Work>
    </rdf:RDF>
  </metadata>
  <g
     inkscape:label="Layer 1"
     inkscape:groupmode="layer"
     id="layer1"
     transform="translate(-17.709413,-0.7944184)">
    <path
       style="fill:none;fill-rule:evenodd;stroke:#000000;stroke-width:1;stroke-linecap:butt;stroke-linejoin:miter;stroke-miterlimit:4;stroke-dasharray:8, 8;stroke-dashoffset:0;stroke-opacity:1"
       d="M 255.1208,1.2944184 L 257.70964,424.56924"
       id="path2432" />
    <g
       id="g11843">
      <g
         transform="translate(-7.7094126,0)"
         id="g5795">
        <g
           id="g5710"
           transform="translate(52.786323,0)">
          <g
             transform="translate(687.10871,534.92412)"
             id="g3752">
            <path
               sodipodi:type="arc"
               style="fill:none;fill-opacity:1;fill-rule:nonzero;stroke:#000000;stroke-width:1;stroke-miterlimit:4;stroke-dasharray:none;stroke-dashoffset:0;stroke-opacity:1"
               id="path3754"
               sodipodi:cx="-564.36646"
               sodipodi:cy="311.95483"
               sodipodi:rx="12.944184"
               sodipodi:ry="12.944184"
               d="M -551.42227,311.95483 A 12.944184,12.944184 0 1 1 -577.31064,311.95483 A 12.944184,12.944184 0 1 1 -551.42227,311.95483 z"
               transform="matrix(-1.0944812,-4.3907336e-2,-4.5911575e-2,1.144441,-928.03769,-361.41235)" />
            <text
               xml:space="preserve"
               style="font-size:24px;font-style:normal;font-weight:normal;fill:#000000;fill-opacity:1;stroke:none;stroke-width:1px;stroke-linecap:butt;stroke-linejoin:miter;stroke-opacity:1;font-family:Bitstream Vera Sans"
               x="-332.07669"
               y="27.182787"
               id="text3756"><tspan
                 sodipodi:role="line"
                 id="tspan3758"
                 x="-332.07669"
                 y="27.182787">2</tspan></text>
          </g>
          <g
             id="g5685">
            <path
               sodipodi:type="arc"
               style="fill:none;fill-opacity:1;fill-rule:nonzero;stroke:#000000;stroke-width:1;stroke-miterlimit:4;stroke-dasharray:none;stroke-dashoffset:0;stroke-opacity:1"
               id="path3762"
               sodipodi:cx="-564.36646"
               sodipodi:cy="311.95483"
               sodipodi:rx="12.944184"
               sodipodi:ry="12.944184"
               d="M -551.42227,311.95483 A 12.944184,12.944184 0 1 1 -577.31064,311.95483 A 12.944184,12.944184 0 1 1 -551.42227,311.95483 z"
               transform="matrix(-1.0944812,-4.3907336e-2,-4.5911575e-2,1.144441,-240.92898,318.48664)" />
            <text
               xml:space="preserve"
               style="font-size:24px;font-style:normal;font-variant:normal;font-weight:normal;font-stretch:normal;text-align:start;line-height:125%;writing-mode:lr-tb;text-anchor:start;fill:#000000;fill-opacity:1;stroke:none;stroke-width:1px;stroke-linecap:butt;stroke-linejoin:miter;stroke-opacity:1;font-family:Bitstream Vera Sans;-inkscape-font-specification:Bitstream Vera Sans"
               x="355.03201"
               y="707.08179"
               id="text3764"
               sodipodi:linespacing="125%"><tspan
                 sodipodi:role="line"
                 id="tspan5683"
                 x="355.03201"
                 y="707.08179">4</tspan></text>
          </g>
          <g
             id="g5705">
            <path
               sodipodi:type="arc"
               style="fill:none;fill-opacity:1;fill-rule:nonzero;stroke:#000000;stroke-width:1;stroke-miterlimit:4;stroke-dasharray:none;stroke-dashoffset:0;stroke-opacity:1"
               id="path3770"
               sodipodi:cx="-564.36646"
               sodipodi:cy="311.95483"
               sodipodi:rx="12.944184"
               sodipodi:ry="12.944184"
               d="M -551.42227,311.95483 A 12.944184,12.944184 0 1 1 -577.31064,311.95483 A 12.944184,12.944184 0 1 1 -551.42227,311.95483 z"
               transform="matrix(-1.0944812,-4.3907336e-2,-4.5911575e-2,1.144441,-141.90597,195.75551)" />
            <text
               xml:space="preserve"
               style="font-size:24px;font-style:normal;font-variant:normal;font-weight:normal;font-stretch:normal;text-align:start;line-height:125%;writing-mode:lr-tb;text-anchor:start;fill:#000000;fill-opacity:1;stroke:none;stroke-width:1px;stroke-linecap:butt;stroke-linejoin:miter;stroke-opacity:1;font-family:Bitstream Vera Sans;-inkscape-font-specification:Bitstream Vera Sans"
               x="454.05502"
               y="584.35065"
               id="text3772"
               sodipodi:linespacing="125%"><tspan
                 sodipodi:role="line"
                 id="tspan5703"
                 x="454.05502"
                 y="584.35065">0</tspan></text>
          </g>
          <g
             id="g5695">
            <path
               sodipodi:type="arc"
               style="fill:none;fill-opacity:1;fill-rule:nonzero;stroke:#000000;stroke-width:1;stroke-miterlimit:4;stroke-dasharray:none;stroke-dashoffset:0;stroke-opacity:1"
               id="path3778"
               sodipodi:cx="-564.36646"
               sodipodi:cy="311.95483"
               sodipodi:rx="12.944184"
               sodipodi:ry="12.944184"
               d="M -551.42227,311.95483 A 12.944184,12.944184 0 1 1 -577.31064,311.95483 A 12.944184,12.944184 0 1 1 -551.42227,311.95483 z"
               transform="matrix(-1.0944812,-4.3907336e-2,-4.5911575e-2,1.144441,-141.90597,296.24292)" />
            <text
               xml:space="preserve"
               style="font-size:24px;font-style:normal;font-variant:normal;font-weight:normal;font-stretch:normal;text-align:start;line-height:125%;writing-mode:lr-tb;text-anchor:start;fill:#000000;fill-opacity:1;stroke:none;stroke-width:1px;stroke-linecap:butt;stroke-linejoin:miter;stroke-opacity:1;font-family:Bitstream Vera Sans;-inkscape-font-specification:Bitstream Vera Sans"
               x="454.05502"
               y="684.83807"
               id="text3780"
               sodipodi:linespacing="125%"><tspan
                 sodipodi:role="line"
                 id="tspan5693"
                 x="454.05502"
                 y="684.83807">3</tspan></text>
          </g>
          <g
             transform="translate(-20.710695,126.2058)"
             id="g3865">
            <rect
               style="opacity:1;fill:none;fill-opacity:1;fill-rule:nonzero;stroke:#000000;stroke-width:1;stroke-miterlimit:4;stroke-dasharray:none;stroke-dashoffset:0;stroke-opacity:1"
               id="rect3859"
               width="29.771624"
               height="29.771624"
               x="557.89435"
               y="486.70132" />
            <text
               xml:space="preserve"
               style="font-size:24px;font-style:normal;font-weight:normal;fill:#000000;fill-opacity:1;stroke:none;stroke-width:1px;stroke-linecap:butt;stroke-linejoin:miter;stroke-opacity:1;font-family:Bitstream Vera Sans"
               x="564.36646"
               y="510.00085"
               id="text3861"><tspan
                 sodipodi:role="line"
                 id="tspan3863"
                 x="564.36646"
                 y="510.00085">1</tspan></text>
          </g>
          <path
             id="path3870"
             d="M 375.38134,560.48318 L 534.59481,627.79294"
             style="fill:none;fill-rule:evenodd;stroke:#000000;stroke-width:1px;stroke-linecap:butt;stroke-linejoin:miter;marker-end:url(#Arrow2Lend);stroke-opacity:1" />
          <path
             id="path5161"
             d="M 375.38134,693.80828 L 535.88923,630.38177"
             style="fill:none;fill-rule:evenodd;stroke:#000000;stroke-width:1px;stroke-linecap:butt;stroke-linejoin:miter;marker-end:url(#Arrow2Lend);stroke-opacity:1" />
        </g>
        <text
           xml:space="preserve"
           style="font-size:40px;font-style:normal;font-weight:bold;fill:#000000;fill-opacity:1;stroke:none;stroke-width:1px;stroke-linecap:butt;stroke-linejoin:miter;stroke-opacity:1;font-family:Bitstream Vera Sans;-inkscape-font-specification:Bitstream Vera Sans Bold"
           x="422.08136"
           y="487.64041"
           id="text5734"><tspan
             sodipodi:role="line"
             id="tspan5736"
             x="422.08136"
             y="487.64041">Overlap</tspan></text>
      </g>
      <g
         id="g11793">
        <path
           sodipodi:type="star"
           style="fill:none;fill-opacity:1;fill-rule:nonzero;stroke:#000000;stroke-width:1;stroke-miterlimit:4;stroke-dasharray:none;stroke-dashoffset:0;stroke-opacity:1"
           id="path3333"
           sodipodi:sides="3"
           sodipodi:cx="-481.52365"
           sodipodi:cy="142.38603"
           sodipodi:r1="66.015343"
           sodipodi:r2="33.007671"
           sodipodi:arg1="1.080839"
           sodipodi:arg2="2.1280366"
           inkscape:flatsided="true"
           inkscape:rounded="0"
           inkscape:randomized="0"
           d="M -450.45761,200.63486 L -547.50164,140.1656 L -446.6117,86.357633 L -450.45761,200.63486 z"
           transform="matrix(0.9991963,-4.008479e-2,4.008479e-2,0.9991963,598.51868,472.58258)" />
        <path
           sodipodi:type="star"
           style="fill:none;fill-opacity:1;fill-rule:nonzero;stroke:#000000;stroke-width:1;stroke-miterlimit:4;stroke-dasharray:none;stroke-dashoffset:0;stroke-opacity:1"
           id="path3335"
           sodipodi:sides="3"
           sodipodi:cx="-481.52365"
           sodipodi:cy="142.38603"
           sodipodi:r1="66.015343"
           sodipodi:r2="33.007671"
           sodipodi:arg1="1.080839"
           sodipodi:arg2="2.1280366"
           inkscape:flatsided="true"
           inkscape:rounded="0"
           inkscape:randomized="0"
           d="M -450.45761,200.63486 L -547.50164,140.1656 L -446.6117,86.357633 L -450.45761,200.63486 z"
           transform="matrix(0.5371777,0.8434691,-0.8434691,0.5371777,467.57751,1022.2318)" />
        <path
           sodipodi:type="star"
           style="fill:none;fill-opacity:1;fill-rule:nonzero;stroke:#000000;stroke-width:1;stroke-miterlimit:4;stroke-dasharray:none;stroke-dashoffset:0;stroke-opacity:1"
           id="path3337"
           sodipodi:sides="3"
           sodipodi:cx="-481.52365"
           sodipodi:cy="142.38603"
           sodipodi:r1="66.015343"
           sodipodi:r2="33.007671"
           sodipodi:arg1="1.080839"
           sodipodi:arg2="2.1280366"
           inkscape:flatsided="true"
           inkscape:rounded="0"
           inkscape:randomized="0"
           d="M -450.45761,200.63486 L -547.50164,140.1656 L -446.6117,86.357633 L -450.45761,200.63486 z"
           transform="matrix(0.5350108,0.8448452,-0.8448452,0.5350108,466.40278,906.99487)" />
        <g
           id="g3430"
           transform="matrix(0.9991963,-4.008479e-2,4.008479e-2,0.9991963,595.93192,472.68635)">
          <path
             transform="matrix(1.0953615,0,0,1.1453615,49.93559,-95.18134)"
             d="M -551.42227,311.95483 A 12.944184,12.944184 0 1 1 -577.31064,311.95483 A 12.944184,12.944184 0 1 1 -551.42227,311.95483 z"
             sodipodi:ry="12.944184"
             sodipodi:rx="12.944184"
             sodipodi:cy="311.95483"
             sodipodi:cx="-564.36646"
             id="path3339"
             style="fill:none;fill-opacity:1;fill-rule:nonzero;stroke:#000000;stroke-width:1;stroke-miterlimit:4;stroke-dasharray:none;stroke-dashoffset:0;stroke-opacity:1"
             sodipodi:type="arc" />
          <text
             sodipodi:linespacing="125%"
             id="text3347"
             y="269.23904"
             x="-576.01617"
             style="font-size:24px;font-style:normal;font-variant:normal;font-weight:normal;font-stretch:normal;text-align:start;line-height:125%;writing-mode:lr-tb;text-anchor:start;fill:#000000;fill-opacity:1;stroke:none;stroke-width:1px;stroke-linecap:butt;stroke-linejoin:miter;stroke-opacity:1;font-family:Bitstream Vera Sans;-inkscape-font-specification:Bitstream Vera Sans"
             xml:space="preserve"><tspan
               y="269.23904"
               x="-576.01617"
               id="tspan3428"
               sodipodi:role="line">3</tspan></text>
        </g>
        <g
           id="g3391"
           transform="matrix(0.9991963,-4.008479e-2,4.008479e-2,0.9991963,595.93192,472.68635)">
          <path
             transform="matrix(1.0953615,0,0,1.1453615,55.11327,-339.1792)"
             d="M -551.42227,311.95483 A 12.944184,12.944184 0 1 1 -577.31064,311.95483 A 12.944184,12.944184 0 1 1 -551.42227,311.95483 z"
             sodipodi:ry="12.944184"
             sodipodi:rx="12.944184"
             sodipodi:cy="311.95483"
             sodipodi:cx="-564.36646"
             id="path3358"
             style="fill:none;fill-opacity:1;fill-rule:nonzero;stroke:#000000;stroke-width:1;stroke-miterlimit:4;stroke-dasharray:none;stroke-dashoffset:0;stroke-opacity:1"
             sodipodi:type="arc" />
          <text
             id="text3360"
             y="25.241184"
             x="-570.8385"
             style="font-size:24px;font-style:normal;font-weight:normal;fill:#000000;fill-opacity:1;stroke:none;stroke-width:1px;stroke-linecap:butt;stroke-linejoin:miter;stroke-opacity:1;font-family:Bitstream Vera Sans"
             xml:space="preserve"><tspan
               y="25.241184"
               x="-570.8385"
               id="tspan3362"
               sodipodi:role="line">0</tspan></text>
        </g>
        <g
           id="g3420"
           transform="matrix(0.9991963,-4.008479e-2,4.008479e-2,0.9991963,595.93192,472.68635)"
           style="stroke:#005aff;stroke-opacity:1">
          <path
             transform="matrix(1.0953615,0,0,1.1453615,128.89512,-159.25504)"
             d="M -551.42227,311.95483 A 12.944184,12.944184 0 1 1 -577.31064,311.95483 A 12.944184,12.944184 0 1 1 -551.42227,311.95483 z"
             sodipodi:ry="12.944184"
             sodipodi:rx="12.944184"
             sodipodi:cy="311.95483"
             sodipodi:cx="-564.36646"
             id="path3366"
             style="fill:none;fill-opacity:1;fill-rule:nonzero;stroke:#005aff;stroke-width:1;stroke-miterlimit:4;stroke-dasharray:none;stroke-dashoffset:0;stroke-opacity:1"
             sodipodi:type="arc" />
          <text
             sodipodi:linespacing="125%"
             id="text3368"
             y="205.16534"
             x="-497.05664"
             style="font-size:24px;font-style:normal;font-variant:normal;font-weight:normal;font-stretch:normal;text-align:start;line-height:125%;writing-mode:lr-tb;text-anchor:start;fill:#000000;fill-opacity:1;stroke:#005aff;stroke-width:1px;stroke-linecap:butt;stroke-linejoin:miter;stroke-opacity:1;font-family:Bitstream Vera Sans;-inkscape-font-specification:Bitstream Vera Sans"
             xml:space="preserve"><tspan
               y="205.16534"
               x="-497.05664"
               id="tspan3418"
               sodipodi:role="line">4</tspan></text>
        </g>
        <g
           id="g3410"
           transform="matrix(0.9991963,-4.008479e-2,4.008479e-2,0.9991963,595.93192,472.68635)"
           style="stroke:#005aff;stroke-opacity:1">
          <path
             transform="matrix(1.0953615,0,0,1.1453615,158.66674,-244.68666)"
             d="M -551.42227,311.95483 A 12.944184,12.944184 0 1 1 -577.31064,311.95483 A 12.944184,12.944184 0 1 1 -551.42227,311.95483 z"
             sodipodi:ry="12.944184"
             sodipodi:rx="12.944184"
             sodipodi:cy="311.95483"
             sodipodi:cx="-564.36646"
             id="path3374"
             style="fill:none;fill-opacity:1;fill-rule:nonzero;stroke:#005aff;stroke-width:1;stroke-miterlimit:4;stroke-dasharray:none;stroke-dashoffset:0;stroke-opacity:1"
             sodipodi:type="arc" />
          <text
             sodipodi:linespacing="125%"
             id="text3376"
             y="119.73373"
             x="-467.28503"
             style="font-size:24px;font-style:normal;font-variant:normal;font-weight:normal;font-stretch:normal;text-align:start;line-height:125%;writing-mode:lr-tb;text-anchor:start;fill:#000000;fill-opacity:1;stroke:#005aff;stroke-width:1px;stroke-linecap:butt;stroke-linejoin:miter;stroke-opacity:1;font-family:Bitstream Vera Sans;-inkscape-font-specification:Bitstream Vera Sans"
             xml:space="preserve"><tspan
               y="119.73373"
               x="-467.28503"
               id="tspan3408"
               sodipodi:role="line">2</tspan></text>
        </g>
        <path
           sodipodi:type="arc"
           style="font-size:21.42699242px;font-style:normal;font-variant:normal;font-weight:normal;font-stretch:normal;text-align:start;line-height:125%;writing-mode:lr-tb;text-anchor:start;fill:none;fill-opacity:1;fill-rule:nonzero;stroke:#000000;stroke-width:1;stroke-miterlimit:4;stroke-dasharray:none;stroke-dashoffset:0;stroke-opacity:1;font-family:Bitstream Vera Sans;-inkscape-font-specification:Bitstream Vera Sans"
           id="path3382"
           sodipodi:cx="-564.36646"
           sodipodi:cy="311.95483"
           sodipodi:rx="12.944184"
           sodipodi:ry="12.944184"
           d="M -551.42227,311.95483 A 12.944184,12.944184 0 1 1 -577.31064,311.95483 A 12.944184,12.944184 0 1 1 -551.42227,311.95483 z"
           transform="matrix(1.0944812,-4.3907336e-2,4.5911575e-2,1.144441,635.81541,253.40752)" />
        <g
           id="g3401"
           transform="matrix(0.9991963,-4.008479e-2,4.008479e-2,0.9991963,595.93192,472.68635)">
          <text
             sodipodi:linespacing="125%"
             id="text3384"
             y="146.91652"
             x="-577.31061"
             style="font-size:24px;font-style:normal;font-variant:normal;font-weight:normal;font-stretch:normal;text-align:start;line-height:125%;writing-mode:lr-tb;text-anchor:start;fill:#000000;fill-opacity:1;stroke:none;stroke-width:1px;stroke-linecap:butt;stroke-linejoin:miter;stroke-opacity:1;font-family:Bitstream Vera Sans;-inkscape-font-specification:Bitstream Vera Sans"
             xml:space="preserve"><tspan
               y="146.91652"
               x="-577.31061"
               id="tspan3399"
               sodipodi:role="line">1</tspan></text>
        </g>
        <path
           sodipodi:type="star"
           style="fill:none;fill-opacity:1;fill-rule:nonzero;stroke:#000000;stroke-width:1;stroke-miterlimit:4;stroke-dasharray:none;stroke-dashoffset:0;stroke-opacity:1"
           id="path3462"
           sodipodi:sides="3"
           sodipodi:cx="-481.52365"
           sodipodi:cy="142.38603"
           sodipodi:r1="66.015343"
           sodipodi:r2="33.007671"
           sodipodi:arg1="1.080839"
           sodipodi:arg2="2.1280366"
           inkscape:flatsided="true"
           inkscape:rounded="0"
           inkscape:randomized="0"
           d="M -450.45761,200.63486 L -547.50164,140.1656 L -446.6117,86.357633 L -450.45761,200.63486 z"
           transform="matrix(-0.9991963,-4.008479e-2,-4.008479e-2,0.9991963,-287.18973,472.7731)" />
        <path
           sodipodi:type="star"
           style="fill:none;fill-opacity:1;fill-rule:nonzero;stroke:#000000;stroke-width:1;stroke-miterlimit:4;stroke-dasharray:none;stroke-dashoffset:0;stroke-opacity:1"
           id="path3464"
           sodipodi:sides="3"
           sodipodi:cx="-481.52365"
           sodipodi:cy="142.38603"
           sodipodi:r1="66.015343"
           sodipodi:r2="33.007671"
           sodipodi:arg1="1.080839"
           sodipodi:arg2="2.1280366"
           inkscape:flatsided="true"
           inkscape:rounded="0"
           inkscape:randomized="0"
           d="M -450.45761,200.63486 L -547.50164,140.1656 L -446.6117,86.357633 L -450.45761,200.63486 z"
           transform="matrix(-0.5371777,0.8434691,0.8434691,0.5371777,-156.24856,1022.4223)" />
        <path
           sodipodi:type="star"
           style="fill:none;fill-opacity:1;fill-rule:nonzero;stroke:#000000;stroke-width:1;stroke-miterlimit:4;stroke-dasharray:none;stroke-dashoffset:0;stroke-opacity:1"
           id="path3466"
           sodipodi:sides="3"
           sodipodi:cx="-481.52365"
           sodipodi:cy="142.38603"
           sodipodi:r1="66.015343"
           sodipodi:r2="33.007671"
           sodipodi:arg1="1.080839"
           sodipodi:arg2="2.1280366"
           inkscape:flatsided="true"
           inkscape:rounded="0"
           inkscape:randomized="0"
           d="M -450.45761,200.63486 L -547.50164,140.1656 L -446.6117,86.357633 L -450.45761,200.63486 z"
           transform="matrix(-0.5350108,0.8448452,0.8448452,0.5350108,-155.07383,907.18539)" />
        <path
           sodipodi:type="arc"
           style="fill:none;fill-opacity:1;fill-rule:nonzero;stroke:#000000;stroke-width:1;stroke-miterlimit:4;stroke-dasharray:none;stroke-dashoffset:0;stroke-opacity:1"
           id="path3470"
           sodipodi:cx="-564.36646"
           sodipodi:cy="311.95483"
           sodipodi:rx="12.944184"
           sodipodi:ry="12.944184"
           d="M -551.42227,311.95483 A 12.944184,12.944184 0 1 1 -577.31064,311.95483 A 12.944184,12.944184 0 1 1 -551.42227,311.95483 z"
           transform="matrix(-1.0944812,-4.3907336e-2,-4.5911575e-2,1.144441,-330.6831,375.77038)" />
        <path
           sodipodi:type="arc"
           style="fill:none;fill-opacity:1;fill-rule:nonzero;stroke:#000000;stroke-width:1;stroke-miterlimit:4;stroke-dasharray:none;stroke-dashoffset:0;stroke-opacity:1"
           id="path3486"
           sodipodi:cx="-564.36646"
           sodipodi:cy="311.95483"
           sodipodi:rx="12.944184"
           sodipodi:ry="12.944184"
           d="M -551.42227,311.95483 A 12.944184,12.944184 0 1 1 -577.31064,311.95483 A 12.944184,12.944184 0 1 1 -551.42227,311.95483 z"
           transform="matrix(-1.0944812,-4.3907336e-2,-4.5911575e-2,1.144441,-407.01083,308.5831)" />
        <g
           id="g3558"
           transform="translate(601.96167,493.17342)"
           style="stroke:#005aff;stroke-opacity:1">
          <path
             transform="matrix(1.0944812,-4.3907336e-2,4.5911575e-2,1.144441,171.43667,-271.14667)"
             d="M -551.42227,311.95483 A 12.944184,12.944184 0 1 1 -577.31064,311.95483 A 12.944184,12.944184 0 1 1 -551.42227,311.95483 z"
             sodipodi:ry="12.944184"
             sodipodi:rx="12.944184"
             sodipodi:cy="311.95483"
             sodipodi:cx="-564.36646"
             id="path3494"
             style="fill:none;fill-opacity:1;fill-rule:nonzero;stroke:#005aff;stroke-width:1;stroke-miterlimit:4;stroke-dasharray:none;stroke-dashoffset:0;stroke-opacity:1"
             sodipodi:type="arc" />
          <text
             transform="matrix(0.9991963,-4.0084788e-2,4.0084788e-2,0.9991963,0,0)"
             sodipodi:linespacing="125%"
             id="text3496"
             y="100.36366"
             x="-443.78397"
             style="font-size:24px;font-style:normal;font-variant:normal;font-weight:normal;font-stretch:normal;text-align:start;line-height:125%;writing-mode:lr-tb;text-anchor:start;fill:#000000;fill-opacity:1;stroke:#005aff;stroke-width:1px;stroke-linecap:butt;stroke-linejoin:miter;stroke-opacity:1;font-family:Bitstream Vera Sans;-inkscape-font-specification:Bitstream Vera Sans"
             xml:space="preserve"><tspan
               id="tspan3556"
               sodipodi:role="line"
               x="-443.78397"
               y="100.36366">0</tspan></text>
        </g>
        <g
           id="g3540"
           transform="translate(601.96167,493.17342)">
          <path
             transform="matrix(-1.0944812,-4.3907336e-2,-4.5911575e-2,1.144441,-928.03769,-361.41235)"
             d="M -551.42227,311.95483 A 12.944184,12.944184 0 1 1 -577.31064,311.95483 A 12.944184,12.944184 0 1 1 -551.42227,311.95483 z"
             sodipodi:ry="12.944184"
             sodipodi:rx="12.944184"
             sodipodi:cy="311.95483"
             sodipodi:cx="-564.36646"
             id="path3478"
             style="fill:none;fill-opacity:1;fill-rule:nonzero;stroke:#000000;stroke-width:1;stroke-miterlimit:4;stroke-dasharray:none;stroke-dashoffset:0;stroke-opacity:1"
             sodipodi:type="arc" />
          <text
             id="text3536"
             y="27.182787"
             x="-332.07669"
             style="font-size:24px;font-style:normal;font-weight:normal;fill:#000000;fill-opacity:1;stroke:none;stroke-width:1px;stroke-linecap:butt;stroke-linejoin:miter;stroke-opacity:1;font-family:Bitstream Vera Sans"
             xml:space="preserve"><tspan
               y="27.182787"
               x="-332.07669"
               id="tspan3538"
               sodipodi:role="line">2</tspan></text>
        </g>
        <g
           id="g3575"
           transform="translate(601.96167,493.17342)">
          <path
             transform="matrix(-1.0944812,-4.3907336e-2,-4.5911575e-2,1.144441,-926.44813,-239.57538)"
             d="M -551.42227,311.95483 A 12.944184,12.944184 0 1 1 -577.31064,311.95483 A 12.944184,12.944184 0 1 1 -551.42227,311.95483 z"
             sodipodi:ry="12.944184"
             sodipodi:rx="12.944184"
             sodipodi:cy="311.95483"
             sodipodi:cx="-564.36646"
             id="path3500"
             style="font-size:21.42699242px;font-style:normal;font-variant:normal;font-weight:normal;font-stretch:normal;text-align:start;line-height:125%;writing-mode:lr-tb;text-anchor:start;fill:none;fill-opacity:1;fill-rule:nonzero;stroke:#000000;stroke-width:1;stroke-miterlimit:4;stroke-dasharray:none;stroke-dashoffset:0;stroke-opacity:1;font-family:Bitstream Vera Sans;-inkscape-font-specification:Bitstream Vera Sans"
             sodipodi:type="arc" />
          <text
             id="text3563"
             y="150.15254"
             x="-330.07669"
             style="font-size:24px;font-style:normal;font-weight:normal;fill:#000000;fill-opacity:1;stroke:none;stroke-width:1px;stroke-linecap:butt;stroke-linejoin:miter;stroke-opacity:1;font-family:Bitstream Vera Sans"
             xml:space="preserve"><tspan
               y="150.15254"
               x="-330.07669"
               id="tspan3565"
               sodipodi:role="line">1</tspan></text>
        </g>
        <g
           id="g3580"
           transform="translate(601.96167,493.17342)"
           style="stroke:#005aff;stroke-opacity:1">
          <text
             id="text3567"
             y="204.51811"
             x="-412.91949"
             style="font-size:24px;font-style:normal;font-weight:normal;fill:#000000;fill-opacity:1;stroke:#005aff;stroke-width:1px;stroke-linecap:butt;stroke-linejoin:miter;stroke-opacity:1;font-family:Bitstream Vera Sans"
             xml:space="preserve"><tspan
               y="204.51811"
               x="-412.91949"
               id="tspan3569"
               sodipodi:role="line">3</tspan></text>
        </g>
        <g
           id="g3584"
           transform="translate(601.96167,493.17342)">
          <text
             id="text3571"
             y="273.12228"
             x="-336.5488"
             style="font-size:24px;font-style:normal;font-weight:normal;fill:#000000;fill-opacity:1;stroke:none;stroke-width:1px;stroke-linecap:butt;stroke-linejoin:miter;stroke-opacity:1;font-family:Bitstream Vera Sans"
             xml:space="preserve"><tspan
               y="273.12228"
               x="-336.5488"
               id="tspan3573"
               sodipodi:role="line">4</tspan></text>
        </g>
        <text
           xml:space="preserve"
           style="font-size:40px;font-style:normal;font-weight:bold;fill:#000000;fill-opacity:1;stroke:none;stroke-width:1px;stroke-linecap:butt;stroke-linejoin:miter;stroke-opacity:1;font-family:Bitstream Vera Sans;-inkscape-font-specification:Bitstream Vera Sans Bold"
           x="95.762138"
           y="491.51736"
           id="text5738"><tspan
             sodipodi:role="line"
             id="tspan5740"
             x="95.762138"
             y="491.51736">Mesh</tspan></text>
      </g>
    </g>
    <g
       id="g11732">
      <g
         transform="translate(9.6207999,0)"
         id="g3226">
        <g
           id="g2397">
          <rect
             ry="0"
             y="51.862183"
             x="10.5"
             height="300"
             width="60"
             id="rect2383"
             style="opacity:1;fill:none;fill-opacity:1;fill-rule:nonzero;stroke:#000000;stroke-width:1;stroke-miterlimit:4;stroke-dasharray:none;stroke-dashoffset:0;stroke-opacity:1" />
          <path
             id="path2387"
             d="M 10.5,111.86218 L 70.043248,111.86218"
             style="fill:none;fill-rule:evenodd;stroke:#000000;stroke-width:1px;stroke-linecap:butt;stroke-linejoin:miter;stroke-opacity:1" />
          <path
             id="path2389"
             d="M 10.5,171.86218 L 70.04325,171.86218"
             style="fill:none;fill-rule:evenodd;stroke:#000000;stroke-width:1px;stroke-linecap:butt;stroke-linejoin:miter;stroke-opacity:1" />
          <path
             id="path2391"
             d="M 10.5,231.86218 L 70.04325,231.86218"
             style="fill:none;fill-rule:evenodd;stroke:#000000;stroke-width:1px;stroke-linecap:butt;stroke-linejoin:miter;stroke-opacity:1" />
          <path
             id="path2393"
             d="M 10.5,291.86218 L 70.04325,291.86218"
             style="fill:none;fill-rule:evenodd;stroke:#000000;stroke-width:1px;stroke-linecap:butt;stroke-linejoin:miter;stroke-opacity:1" />
        </g>
        <text
           xml:space="preserve"
           style="font-size:40px;font-style:normal;font-weight:normal;fill:#000000;fill-opacity:1;stroke:none;stroke-width:1px;stroke-linecap:butt;stroke-linejoin:miter;stroke-opacity:1;font-family:Bitstream Vera Sans"
           x="28.960766"
           y="95.786964"
           id="text3206"><tspan
             sodipodi:role="line"
             id="tspan3208"
             x="28.960766"
             y="95.786964">5</tspan></text>
        <text
           xml:space="preserve"
           style="font-size:40px;font-style:normal;font-weight:normal;fill:#000000;fill-opacity:1;stroke:none;stroke-width:1px;stroke-linecap:butt;stroke-linejoin:miter;stroke-opacity:1;font-family:Bitstream Vera Sans"
           x="15.533031"
           y="156.18988"
           id="text3210"><tspan
             sodipodi:role="line"
             id="tspan3212"
             x="15.533031"
             y="156.18988">17</tspan></text>
        <text
           xml:space="preserve"
           style="font-size:40px;font-style:normal;font-weight:normal;fill:#000000;fill-opacity:1;stroke:none;stroke-width:1px;stroke-linecap:butt;stroke-linejoin:miter;stroke-opacity:1;font-family:Bitstream Vera Sans"
           x="29.292797"
           y="216.57318"
           id="text3214"><tspan
             sodipodi:role="line"
             id="tspan3216"
             x="29.292797"
             y="216.57318">2</tspan></text>
        <text
           xml:space="preserve"
           style="font-size:40px;font-style:normal;font-weight:normal;fill:#000000;fill-opacity:1;stroke:none;stroke-width:1px;stroke-linecap:butt;stroke-linejoin:miter;stroke-opacity:1;font-family:Bitstream Vera Sans"
           x="15.152172"
           y="276.40967"
           id="text3218"><tspan
             sodipodi:role="line"
             id="tspan3220"
             x="15.152172"
             y="276.40967">10</tspan></text>
        <text
           xml:space="preserve"
           style="font-size:40px;font-style:normal;font-weight:normal;fill:#000000;fill-opacity:1;stroke:none;stroke-width:1px;stroke-linecap:butt;stroke-linejoin:miter;stroke-opacity:1;font-family:Bitstream Vera Sans"
           x="28.824047"
           y="336.5488"
           id="text3222"><tspan
             sodipodi:role="line"
             id="tspan3224"
             x="28.824047"
             y="336.5488">7</tspan></text>
      </g>
      <g
         transform="translate(9.6207999,0)"
         id="g3264">
        <g
           id="g2414"
           transform="translate(530,0)">
          <rect
             ry="0"
             y="51.862183"
             x="10.5"
             height="300"
             width="60"
             id="rect2416"
             style="opacity:1;fill:none;fill-opacity:1;fill-rule:nonzero;stroke:#000000;stroke-width:1;stroke-miterlimit:4;stroke-dasharray:none;stroke-dashoffset:0;stroke-opacity:1" />
          <path
             id="path2418"
             d="M 10.5,111.86218 L 70.043248,111.86218"
             style="fill:none;fill-rule:evenodd;stroke:#000000;stroke-width:1px;stroke-linecap:butt;stroke-linejoin:miter;stroke-opacity:1" />
          <path
             id="path2420"
             d="M 10.5,171.86218 L 70.04325,171.86218"
             style="fill:none;fill-rule:evenodd;stroke:#000000;stroke-width:1px;stroke-linecap:butt;stroke-linejoin:miter;stroke-opacity:1" />
          <path
             id="path2422"
             d="M 10.5,231.86218 L 70.04325,231.86218"
             style="fill:none;fill-rule:evenodd;stroke:#000000;stroke-width:1px;stroke-linecap:butt;stroke-linejoin:miter;stroke-opacity:1" />
          <path
             id="path2424"
             d="M 10.5,291.86218 L 70.04325,291.86218"
             style="fill:none;fill-rule:evenodd;stroke:#000000;stroke-width:1px;stroke-linecap:butt;stroke-linejoin:miter;stroke-opacity:1" />
        </g>
        <text
           xml:space="preserve"
           style="font-size:40px;font-style:normal;font-weight:normal;fill:#000000;fill-opacity:1;stroke:none;stroke-width:1px;stroke-linecap:butt;stroke-linejoin:miter;stroke-opacity:1;font-family:Bitstream Vera Sans"
           x="544.95013"
           y="95.786964"
           id="text3244"><tspan
             sodipodi:role="line"
             id="tspan3246"
             x="544.95013"
             y="95.786964">16</tspan></text>
        <text
           xml:space="preserve"
           style="font-size:40px;font-style:normal;font-weight:normal;fill:#000000;fill-opacity:1;stroke:none;stroke-width:1px;stroke-linecap:butt;stroke-linejoin:miter;stroke-opacity:1;font-family:Bitstream Vera Sans"
           x="559.15912"
           y="155.54265"
           id="text3248"><tspan
             sodipodi:role="line"
             id="tspan3250"
             x="559.15912"
             y="155.54265">2</tspan></text>
        <text
           xml:space="preserve"
           style="font-size:40px;font-style:normal;font-weight:normal;fill:#000000;fill-opacity:1;stroke:none;stroke-width:1px;stroke-linecap:butt;stroke-linejoin:miter;stroke-opacity:1;font-family:Bitstream Vera Sans"
           x="558.70013"
           y="214.7319"
           id="text3252"><tspan
             sodipodi:role="line"
             id="tspan3254"
             x="558.70013"
             y="214.7319">3</tspan></text>
        <text
           xml:space="preserve"
           style="font-size:40px;font-style:normal;font-weight:normal;fill:#000000;fill-opacity:1;stroke:none;stroke-width:1px;stroke-linecap:butt;stroke-linejoin:miter;stroke-opacity:1;font-family:Bitstream Vera Sans"
           x="545.09662"
           y="274.20428"
           id="text3256"><tspan
             sodipodi:role="line"
             id="tspan3258"
             x="545.09662"
             y="274.20428">19</tspan></text>
        <text
           xml:space="preserve"
           style="font-size:40px;font-style:normal;font-weight:normal;fill:#000000;fill-opacity:1;stroke:none;stroke-width:1px;stroke-linecap:butt;stroke-linejoin:miter;stroke-opacity:1;font-family:Bitstream Vera Sans"
           x="545.69232"
           y="333.95996"
           id="text3260"><tspan
             sodipodi:role="line"
             id="tspan3262"
             x="545.69232"
             y="333.95996">12</tspan></text>
      </g>
      <g
         transform="translate(9.6207999,0)"
         id="g3290">
        <g
           id="g2404">
          <rect
             y="51.862183"
             x="130.5"
             height="120"
             width="60"
             id="rect2385"
             style="opacity:1;fill:none;fill-opacity:1;fill-rule:nonzero;stroke:#000000;stroke-width:1;stroke-miterlimit:4;stroke-dasharray:none;stroke-dashoffset:0;stroke-opacity:1" />
          <path
             id="path2395"
             d="M 130.5,111.86218 L 190.04324,111.86218"
             style="fill:none;fill-rule:evenodd;stroke:#000000;stroke-width:1px;stroke-linecap:butt;stroke-linejoin:miter;stroke-opacity:1" />
        </g>
        <text
           xml:space="preserve"
           style="font-size:40px;font-style:normal;font-weight:normal;fill:#000000;fill-opacity:1;stroke:none;stroke-width:1px;stroke-linecap:butt;stroke-linejoin:miter;stroke-opacity:1;font-family:Bitstream Vera Sans"
           x="147.85667"
           y="97.081383"
           id="text3282"><tspan
             sodipodi:role="line"
             id="tspan3284"
             x="147.85667"
             y="97.081383">2</tspan></text>
        <text
           xml:space="preserve"
           style="font-size:40px;font-style:normal;font-weight:normal;fill:#000000;fill-opacity:1;stroke:none;stroke-width:1px;stroke-linecap:butt;stroke-linejoin:miter;stroke-opacity:1;font-family:Bitstream Vera Sans"
           x="147.38792"
           y="154.0358"
           id="text3286"><tspan
             sodipodi:role="line"
             id="tspan3288"
             x="147.38792"
             y="154.0358">7</tspan></text>
      </g>
      <g
         transform="translate(9.6207999,0)"
         id="g3672">
        <g
           id="g2426"
           transform="translate(290,0)">
          <rect
             y="51.862183"
             x="130.5"
             height="120"
             width="60"
             id="rect2428"
             style="opacity:1;fill:none;fill-opacity:1;fill-rule:nonzero;stroke:#000000;stroke-width:1;stroke-miterlimit:4;stroke-dasharray:none;stroke-dashoffset:0;stroke-opacity:1" />
          <path
             id="path2430"
             d="M 130.5,111.86218 L 190.04324,111.86218"
             style="fill:none;fill-rule:evenodd;stroke:#000000;stroke-width:1px;stroke-linecap:butt;stroke-linejoin:miter;stroke-opacity:1" />
        </g>
        <text
           xml:space="preserve"
           style="font-size:40px;font-style:normal;font-weight:normal;fill:#000000;fill-opacity:1;stroke:none;stroke-width:1px;stroke-linecap:butt;stroke-linejoin:miter;stroke-opacity:1;font-family:Bitstream Vera Sans"
           x="426.59216"
           y="95.786964"
           id="text3299"><tspan
             sodipodi:role="line"
             id="tspan3301"
             x="426.59216"
             y="95.786964">16</tspan></text>
        <text
           xml:space="preserve"
           style="font-size:40px;font-style:normal;font-variant:normal;font-weight:normal;font-stretch:normal;text-align:start;line-height:125%;writing-mode:lr-tb;text-anchor:start;fill:#000000;fill-opacity:1;stroke:none;stroke-width:1px;stroke-linecap:butt;stroke-linejoin:miter;stroke-opacity:1;font-family:Bitstream Vera Sans;-inkscape-font-specification:Bitstream Vera Sans"
           x="426.73865"
           y="154.0358"
           id="text3303"
           sodipodi:linespacing="125%"><tspan
             sodipodi:role="line"
             id="tspan3670"
             x="426.73865"
             y="154.0358">19</tspan></text>
      </g>
      <g
         transform="translate(1.3789063e-6,-1.9352264)"
         id="g6484">
        <text
           xml:space="preserve"
           style="font-size:40px;font-style:normal;font-weight:normal;fill:#000000;fill-opacity:1;stroke:none;stroke-width:1px;stroke-linecap:butt;stroke-linejoin:miter;stroke-opacity:1;font-family:Bitstream Vera Sans"
           x="44.176208"
           y="403.12552"
           id="text6456"><tspan
             sodipodi:role="line"
             id="tspan6458"
             x="44.176208"
             y="403.12552"
             style="font-size:36px">Process 0</tspan></text>
        <text
           xml:space="preserve"
           style="font-size:40px;font-style:normal;font-variant:normal;font-weight:normal;font-stretch:normal;text-align:start;line-height:125%;writing-mode:lr-tb;text-anchor:start;fill:#000000;fill-opacity:1;stroke:none;stroke-width:1px;stroke-linecap:butt;stroke-linejoin:miter;stroke-opacity:1;font-family:Bitstream Vera Sans;-inkscape-font-specification:Bitstream Vera Sans"
           x="343.27908"
           y="404.3179"
           id="text6468"
           sodipodi:linespacing="125%"><tspan
             sodipodi:role="line"
             id="tspan6472"
             x="343.27908"
             y="404.3179">Process 1</tspan></text>
      </g>
      <text
         id="text7327"
         y="268.28564"
         x="223.50092"
         style="font-size:40px;font-style:normal;font-weight:normal;fill:#000000;fill-opacity:1;stroke:none;stroke-width:1px;stroke-linecap:butt;stroke-linejoin:miter;stroke-opacity:1;font-family:Bitstream Vera Sans"
         xml:space="preserve"><tspan
           style="font-weight:bold;fill:#00ffff;-inkscape-font-specification:Bitstream Vera Sans Bold"
           y="268.28564"
           x="223.50092"
           id="tspan7329"
           sodipodi:role="line">Restrict</tspan></text>
      <path
         id="path8375"
         d="M 92.709413,325.50876 C 179.70941,290.50876 167.70941,184.50876 167.70941,184.50876"
         style="fill:none;fill-rule:evenodd;stroke:#000000;stroke-width:4;stroke-linecap:butt;stroke-linejoin:miter;marker-end:url(#Arrow2Lend);stroke-miterlimit:4;stroke-dasharray:none;stroke-opacity:1" />
      <path
         id="path8892"
         d="M 534.36243,325.51669 C 447.36243,290.51669 459.36243,184.51669 459.36243,184.51669"
         style="fill:none;fill-rule:evenodd;stroke:#000000;stroke-width:4;stroke-linecap:butt;stroke-linejoin:miter;marker-end:url(#Arrow2Lend);stroke-miterlimit:4;stroke-dasharray:none;stroke-opacity:1" />
    </g>
    <g
       id="g11698">
      <flowRoot
         style="fill:black;stroke:none;stroke-opacity:1;stroke-width:1px;stroke-linejoin:miter;stroke-linecap:butt;fill-opacity:1;font-family:Bitstream Vera Sans;font-style:normal;font-weight:normal;font-size:40"
         id="flowRoot11690"
         xml:space="preserve"><flowRegion
           id="flowRegion11692"><rect
             y="26.154663"
             x="-25"
             height="385"
             width="674"
             id="rect11694" /></flowRegion><flowPara
           id="flowPara11696"></flowPara></flowRoot>    </g>
    <g
       id="g11712">
      <flowRoot
         style="fill:black;stroke:none;stroke-opacity:1;stroke-width:1px;stroke-linejoin:miter;stroke-linecap:butt;fill-opacity:1;font-family:Bitstream Vera Sans;font-style:normal;font-weight:normal;font-size:40"
         id="flowRoot11704"
         xml:space="preserve"><flowRegion
           id="flowRegion11706"><rect
             y="447.15466"
             x="-25"
             height="369"
             width="337"
             id="rect11708" /></flowRegion><flowPara
           id="flowPara11710"></flowPara></flowRoot>    </g>
    <g
       id="g11726">
      <flowRoot
         style="fill:black;stroke:none;stroke-opacity:1;stroke-width:1px;stroke-linejoin:miter;stroke-linecap:butt;fill-opacity:1;font-family:Bitstream Vera Sans;font-style:normal;font-weight:normal;font-size:40"
         id="flowRoot11718"
         xml:space="preserve"><flowRegion
           id="flowRegion11720"><rect
             y="432.15466"
             x="-51"
             height="355"
             width="714"
             id="rect11722" /></flowRegion><flowPara
           id="flowPara11724"></flowPara></flowRoot>    </g>
  </g>
</svg>
