<?xml version="1.0" encoding="UTF-8" standalone="no"?>
<!-- Created with Inkscape (http://www.inkscape.org/) -->
<svg
   xmlns:dc="http://purl.org/dc/elements/1.1/"
   xmlns:cc="http://creativecommons.org/ns#"
   xmlns:rdf="http://www.w3.org/1999/02/22-rdf-syntax-ns#"
   xmlns:svg="http://www.w3.org/2000/svg"
   xmlns="http://www.w3.org/2000/svg"
   xmlns:sodipodi="http://sodipodi.sourceforge.net/DTD/sodipodi-0.dtd"
   xmlns:inkscape="http://www.inkscape.org/namespaces/inkscape"
   width="603.64587"
   height="614.05042"
   id="svg2"
   sodipodi:version="0.32"
   inkscape:version="0.46"
   sodipodi:docname="quadtreeInteractionListComplete.svg"
   inkscape:output_extension="org.inkscape.output.svg.inkscape"
   version="1.0">
  <defs
     id="defs4">
    <inkscape:perspective
       sodipodi:type="inkscape:persp3d"
       inkscape:vp_x="0 : 526.18109 : 1"
       inkscape:vp_y="0 : 1000 : 0"
       inkscape:vp_z="744.09448 : 526.18109 : 1"
       inkscape:persp3d-origin="372.04724 : 350.78739 : 1"
       id="perspective10" />
  </defs>
  <sodipodi:namedview
     id="base"
     pagecolor="#ffffff"
     bordercolor="#666666"
     borderopacity="1.0"
     gridtolerance="10000"
     guidetolerance="10"
     objecttolerance="10"
     inkscape:pageopacity="0.0"
     inkscape:pageshadow="2"
     inkscape:zoom="0.93620621"
     inkscape:cx="301.82294"
     inkscape:cy="361.12038"
     inkscape:document-units="px"
     inkscape:current-layer="layer1"
     showgrid="false"
     showguides="true"
     inkscape:guide-bbox="true"
     inkscape:window-width="1678"
     inkscape:window-height="1019"
     inkscape:window-x="0"
     inkscape:window-y="0" />
  <metadata
     id="metadata7">
    <rdf:RDF>
      <cc:Work
         rdf:about="">
        <dc:format>image/svg+xml</dc:format>
        <dc:type
           rdf:resource="http://purl.org/dc/dcmitype/StillImage" />
      </cc:Work>
    </rdf:RDF>
  </metadata>
  <g
     inkscape:label="Layer 1"
     inkscape:groupmode="layer"
     id="layer1"
     transform="translate(1,-440.1347)">
    <rect
       style="fill:#ffffff;stroke:#000000;stroke-width:2.10922575;stroke-miterlimit:4;stroke-dasharray:none;stroke-opacity:1"
       id="rect2385"
       width="597.89075"
       height="597.89075"
       x="1.0546129"
       y="453.41681" />
    <rect
       style="opacity:0;fill:#000000;fill-opacity:1;stroke:#000000;stroke-width:1.9824878;stroke-miterlimit:4;stroke-dasharray:none;stroke-opacity:1"
       id="rect2395"
       width="139.7498"
       height="564.94666"
       x="441.12595"
       y="-585.66162"
       transform="matrix(0,1,-1,0,0,0)" />
    <path
       style="fill:none;fill-rule:evenodd;stroke:#000000;stroke-width:4;stroke-linecap:butt;stroke-linejoin:miter;stroke-miterlimit:4;stroke-dasharray:none;stroke-opacity:1"
       d="M 302,452.5392 L 302.64594,1052.1851"
       id="path4617" />
    <path
       style="fill:none;fill-rule:evenodd;stroke:#000000;stroke-width:2;stroke-linecap:butt;stroke-linejoin:miter;stroke-miterlimit:4;stroke-dasharray:none;stroke-opacity:1"
       d="M 151.00187,453.15747 L 151.41127,1051.5669"
       id="path4619" />
    <path
       style="fill:none;fill-rule:evenodd;stroke:#000000;stroke-width:2;stroke-linecap:butt;stroke-linejoin:miter;stroke-miterlimit:4;stroke-dasharray:none;stroke-opacity:1"
       d="M 450.60079,453.36166 L 451.24781,1051.3627"
       id="path4621" />
    <path
       style="fill:none;fill-rule:evenodd;stroke:#000000;stroke-width:1;stroke-linecap:butt;stroke-linejoin:miter;stroke-miterlimit:4;stroke-dasharray:none;stroke-opacity:1"
       d="M 76.206567,451.71624 L 76.852507,1051.3622"
       id="path4623" />
    <path
       style="fill:none;fill-rule:evenodd;stroke:#000000;stroke-width:1;stroke-linecap:butt;stroke-linejoin:miter;stroke-miterlimit:4;stroke-dasharray:none;stroke-opacity:1"
       d="M 226,451.71626 L 226.64594,1051.3622"
       id="path4625" />
    <path
       style="fill:none;fill-rule:evenodd;stroke:#000000;stroke-width:1;stroke-linecap:butt;stroke-linejoin:miter;stroke-miterlimit:4;stroke-dasharray:none;stroke-opacity:1"
       d="M 377.4243,451.71624 L 378.07024,1051.3622"
       id="path4627" />
    <path
       style="fill:none;fill-rule:evenodd;stroke:#000000;stroke-width:1;stroke-linecap:butt;stroke-linejoin:miter;stroke-miterlimit:4;stroke-dasharray:none;stroke-opacity:1"
       d="M 526,451.71626 L 526.64594,1051.3622"
       id="path4629" />
    <path
       style="fill:none;fill-rule:evenodd;stroke:#000000;stroke-width:4;stroke-linecap:butt;stroke-linejoin:miter;stroke-miterlimit:4;stroke-dasharray:none;stroke-opacity:1"
       d="M 600.6459,750.53918 L 1,751.18512"
       id="path4631" />
    <path
       style="fill:none;fill-rule:evenodd;stroke:#000000;stroke-width:2;stroke-linecap:butt;stroke-linejoin:miter;stroke-miterlimit:4;stroke-dasharray:none;stroke-opacity:1"
       d="M 600.6459,900.0768 L 1,900.72274"
       id="path4633" />
    <path
       style="fill:none;fill-rule:evenodd;stroke:#000000;stroke-width:2;stroke-linecap:butt;stroke-linejoin:miter;stroke-miterlimit:4;stroke-dasharray:none;stroke-opacity:1"
       d="M 600.6459,601.1149 L 1,601.76084"
       id="path4635" />
    <path
       style="fill:none;fill-rule:evenodd;stroke:#000000;stroke-width:1;stroke-linecap:butt;stroke-linejoin:miter;stroke-miterlimit:4;stroke-dasharray:none;stroke-opacity:1"
       d="M 600.6459,975.52943 L 1,976.17537"
       id="path4637" />
    <path
       style="fill:none;fill-rule:evenodd;stroke:#000000;stroke-width:1;stroke-linecap:butt;stroke-linejoin:miter;stroke-miterlimit:4;stroke-dasharray:none;stroke-opacity:1"
       d="M 600.6459,825.28336 L 1,825.9293"
       id="path4639" />
    <path
       style="fill:none;fill-rule:evenodd;stroke:#000000;stroke-width:1;stroke-linecap:butt;stroke-linejoin:miter;stroke-miterlimit:4;stroke-dasharray:none;stroke-opacity:1"
       d="M 600.6459,675.93784 L 1,676.58378"
       id="path4641" />
    <path
       style="fill:none;fill-rule:evenodd;stroke:#000000;stroke-width:1;stroke-linecap:butt;stroke-linejoin:miter;stroke-miterlimit:4;stroke-dasharray:none;stroke-opacity:1"
       d="M 600.6459,525.71624 L 1,526.36218"
       id="path4643" />
    <rect
       style="opacity:1;fill:#0f00ff;fill-opacity:1;fill-rule:nonzero;stroke:#000000;stroke-width:2.41208029;stroke-miterlimit:4;stroke-dasharray:none;stroke-opacity:1"
       id="rect5602"
       width="72.587921"
       height="72.587921"
       x="226.20604"
       y="754.39117" />
    <rect
       style="opacity:1;fill:#00ff20;fill-opacity:1;fill-rule:nonzero;stroke:#000000;stroke-width:2.41208029;stroke-miterlimit:4;stroke-dasharray:none;stroke-opacity:1"
       id="rect6113"
       width="72.587921"
       height="72.587921"
       x="226.20604"
       y="678.39117" />
    <rect
       style="opacity:1;fill:#00ff20;fill-opacity:1;fill-rule:nonzero;stroke:#000000;stroke-width:2.41208029;stroke-miterlimit:4;stroke-dasharray:none;stroke-opacity:1"
       id="rect6115"
       width="72.587921"
       height="72.587921"
       x="302.20605"
       y="678.39117" />
    <rect
       style="opacity:1;fill:#00ff20;fill-opacity:1;fill-rule:nonzero;stroke:#000000;stroke-width:2.41208029;stroke-miterlimit:4;stroke-dasharray:none;stroke-opacity:1"
       id="rect6119"
       width="72.587921"
       height="72.587921"
       x="226.20604"
       y="829.39117" />
    <rect
       style="opacity:1;fill:#00ff20;fill-opacity:1;fill-rule:nonzero;stroke:#000000;stroke-width:2.41208029;stroke-miterlimit:4;stroke-dasharray:none;stroke-opacity:1"
       id="rect6121"
       width="72.587921"
       height="72.587921"
       x="151.20602"
       y="829.39117" />
    <rect
       style="opacity:1;fill:#00ff20;fill-opacity:1;fill-rule:nonzero;stroke:#000000;stroke-width:2.41208029;stroke-miterlimit:4;stroke-dasharray:none;stroke-opacity:1"
       id="rect6123"
       width="72.587921"
       height="72.587921"
       x="151.20602"
       y="754.39117" />
    <rect
       style="opacity:1;fill:#00ff20;fill-opacity:1;fill-rule:nonzero;stroke:#000000;stroke-width:2.41208029;stroke-miterlimit:4;stroke-dasharray:none;stroke-opacity:1"
       id="rect6125"
       width="72.587921"
       height="72.587921"
       x="151.20604"
       y="678.39117" />
    <rect
       style="opacity:1;fill:#00ff20;fill-opacity:1;fill-rule:nonzero;stroke:#000000;stroke-width:2.41208029;stroke-miterlimit:4;stroke-dasharray:none;stroke-opacity:1"
       id="rect6127"
       width="72.587921"
       height="72.587921"
       x="302.20605"
       y="829.39117" />
    <rect
       style="opacity:1;fill:#00ff20;fill-opacity:1;fill-rule:nonzero;stroke:#000000;stroke-width:2.41208029;stroke-miterlimit:4;stroke-dasharray:none;stroke-opacity:1"
       id="rect6129"
       width="72.587921"
       height="72.587921"
       x="302.20605"
       y="754.39117" />
    <rect
       style="opacity:1;fill:#00e0ff;fill-opacity:1;fill-rule:nonzero;stroke:#000000;stroke-width:2.41208029000000002;stroke-miterlimit:4;stroke-dasharray:none;stroke-opacity:1"
       id="rect6153"
       width="72.587921"
       height="72.587921"
       x="1.2060401"
       y="603.39117" />
    <rect
       style="opacity:1;fill:#00e0ff;fill-opacity:1;fill-rule:nonzero;stroke:#000000;stroke-width:2.41208029000000002;stroke-miterlimit:4;stroke-dasharray:none;stroke-opacity:1"
       id="rect6155"
       width="72.587921"
       height="72.587921"
       x="377.20605"
       y="829.39117" />
    <rect
       style="opacity:1;fill:#fffd00;fill-opacity:1;fill-rule:nonzero;stroke:#000000;stroke-width:2.41208029;stroke-miterlimit:4;stroke-dasharray:none;stroke-opacity:1"
       id="rect6157"
       width="72.587921"
       height="72.587921"
       x="76.206039"
       y="979.39117" />
    <rect
       style="opacity:1;fill:#fffd00;fill-opacity:1;fill-rule:nonzero;stroke:#000000;stroke-width:2.41208029;stroke-miterlimit:4;stroke-dasharray:none;stroke-opacity:1"
       id="rect6159"
       width="72.587921"
       height="72.587921"
       x="76.206039"
       y="904.39117" />
    <rect
       style="opacity:1;fill:#fffd00;fill-opacity:1;fill-rule:nonzero;stroke:#000000;stroke-width:2.41208029;stroke-miterlimit:4;stroke-dasharray:none;stroke-opacity:1"
       id="rect6161"
       width="72.587921"
       height="72.587921"
       x="76.206039"
       y="829.39117" />
    <rect
       style="opacity:1;fill:#fffd00;fill-opacity:1;fill-rule:nonzero;stroke:#000000;stroke-width:2.41208029000000002;stroke-miterlimit:4;stroke-dasharray:none;stroke-opacity:1"
       id="rect6163"
       width="72.587921"
       height="72.587921"
       x="76.206039"
       y="754.39117" />
    <rect
       style="opacity:1;fill:#00e0ff;fill-opacity:1;fill-rule:nonzero;stroke:#000000;stroke-width:2.41208029000000002;stroke-miterlimit:4;stroke-dasharray:none;stroke-opacity:1"
       id="rect6165"
       width="72.587921"
       height="72.587921"
       x="76.206039"
       y="678.39117" />
    <rect
       style="opacity:1;fill:#00e0ff;fill-opacity:1;fill-rule:nonzero;stroke:#000000;stroke-width:2.41208029000000002;stroke-miterlimit:4;stroke-dasharray:none;stroke-opacity:1"
       id="rect6167"
       width="72.587921"
       height="72.587921"
       x="76.206039"
       y="603.39117" />
    <rect
       style="opacity:1;fill:#fffd00;fill-opacity:1;fill-rule:nonzero;stroke:#000000;stroke-width:2.41208029;stroke-miterlimit:4;stroke-dasharray:none;stroke-opacity:1"
       id="rect6169"
       width="72.587921"
       height="72.587921"
       x="1.2060401"
       y="979.39117" />
    <rect
       style="opacity:1;fill:#fffd00;fill-opacity:1;fill-rule:nonzero;stroke:#000000;stroke-width:2.41208029;stroke-miterlimit:4;stroke-dasharray:none;stroke-opacity:1"
       id="rect6171"
       width="72.587921"
       height="72.587921"
       x="1.2060401"
       y="904.39117" />
    <rect
       style="opacity:1;fill:#fffd00;fill-opacity:1;fill-rule:nonzero;stroke:#000000;stroke-width:2.41208029;stroke-miterlimit:4;stroke-dasharray:none;stroke-opacity:1"
       id="rect6173"
       width="72.587921"
       height="72.587921"
       x="1.2060401"
       y="829.39117" />
    <rect
       style="opacity:1;fill:#fffd00;fill-opacity:1;fill-rule:nonzero;stroke:#000000;stroke-width:2.41208029000000002;stroke-miterlimit:4;stroke-dasharray:none;stroke-opacity:1"
       id="rect6175"
       width="72.587921"
       height="72.587921"
       x="1.2060401"
       y="754.39117" />
    <rect
       style="opacity:1;fill:#00e0ff;fill-opacity:1;fill-rule:nonzero;stroke:#000000;stroke-width:2.41208029000000002;stroke-miterlimit:4;stroke-dasharray:none;stroke-opacity:1"
       id="rect6177"
       width="72.587921"
       height="72.587921"
       x="1.2060401"
       y="678.39117" />
    <rect
       style="opacity:1;fill:#00e0ff;fill-opacity:1;fill-rule:nonzero;stroke:#000000;stroke-width:2.41208029000000002;stroke-miterlimit:4;stroke-dasharray:none;stroke-opacity:1"
       id="rect6179"
       width="72.587921"
       height="72.587921"
       x="377.20605"
       y="754.39117" />
    <rect
       style="opacity:1;fill:#00e0ff;fill-opacity:1;fill-rule:nonzero;stroke:#000000;stroke-width:2.41208029000000002;stroke-miterlimit:4;stroke-dasharray:none;stroke-opacity:1"
       id="rect6181"
       width="72.587921"
       height="72.587921"
       x="377.20605"
       y="678.39117" />
    <rect
       style="opacity:1;fill:#00e0ff;fill-opacity:1;fill-rule:nonzero;stroke:#000000;stroke-width:2.41208029000000002;stroke-miterlimit:4;stroke-dasharray:none;stroke-opacity:1"
       id="rect6183"
       width="72.587921"
       height="72.587921"
       x="377.20605"
       y="603.39117" />
    <rect
       style="opacity:1;fill:#00e0ff;fill-opacity:1;fill-rule:nonzero;stroke:#000000;stroke-width:2.41208029000000002;stroke-miterlimit:4;stroke-dasharray:none;stroke-opacity:1"
       id="rect6185"
       width="72.587921"
       height="72.587921"
       x="302.20605"
       y="603.39117" />
    <rect
       style="opacity:1;fill:#00e0ff;fill-opacity:1;fill-rule:nonzero;stroke:#000000;stroke-width:2.41208029000000002;stroke-miterlimit:4;stroke-dasharray:none;stroke-opacity:1"
       id="rect6187"
       width="72.587921"
       height="72.587921"
       x="226.20604"
       y="603.39117" />
    <rect
       style="opacity:1;fill:#00e0ff;fill-opacity:1;fill-rule:nonzero;stroke:#000000;stroke-width:2.41208029000000002;stroke-miterlimit:4;stroke-dasharray:none;stroke-opacity:1"
       id="rect6189"
       width="72.587921"
       height="72.587921"
       x="151.20604"
       y="603.39117" />
    <rect
       style="opacity:1;fill:#fffd00;fill-opacity:1;fill-rule:nonzero;stroke:#000000;stroke-width:2.41208029;stroke-miterlimit:4;stroke-dasharray:none;stroke-opacity:1"
       id="rect6191"
       width="72.587921"
       height="72.587921"
       x="226.20604"
       y="979.39117" />
    <rect
       style="opacity:1;fill:#00e0ff;fill-opacity:1;fill-rule:nonzero;stroke:#000000;stroke-width:2.41208029000000002;stroke-miterlimit:4;stroke-dasharray:none;stroke-opacity:1"
       id="rect6193"
       width="72.587921"
       height="72.587921"
       x="302.20605"
       y="979.39117" />
    <rect
       style="opacity:1;fill:#00e0ff;fill-opacity:1;fill-rule:nonzero;stroke:#000000;stroke-width:2.41208029000000002;stroke-miterlimit:4;stroke-dasharray:none;stroke-opacity:1"
       id="rect6195"
       width="72.587921"
       height="72.587921"
       x="377.20605"
       y="979.39117" />
    <rect
       style="opacity:1;fill:#00e0ff;fill-opacity:1;fill-rule:nonzero;stroke:#000000;stroke-width:2.41208029000000002;stroke-miterlimit:4;stroke-dasharray:none;stroke-opacity:1"
       id="rect6197"
       width="72.587921"
       height="72.587921"
       x="377.20605"
       y="904.39117" />
    <rect
       style="opacity:1;fill:#00e0ff;fill-opacity:1;fill-rule:nonzero;stroke:#000000;stroke-width:2.41208029000000002;stroke-miterlimit:4;stroke-dasharray:none;stroke-opacity:1"
       id="rect6199"
       width="72.587921"
       height="72.587921"
       x="302.20605"
       y="904.39117" />
    <rect
       style="opacity:1;fill:#fffd00;fill-opacity:1;fill-rule:nonzero;stroke:#000000;stroke-width:2.41208029;stroke-miterlimit:4;stroke-dasharray:none;stroke-opacity:1"
       id="rect6201"
       width="72.587921"
       height="72.587921"
       x="226.20604"
       y="904.39117" />
    <rect
       style="opacity:1;fill:#fffd00;fill-opacity:1;fill-rule:nonzero;stroke:#000000;stroke-width:2.41208029;stroke-miterlimit:4;stroke-dasharray:none;stroke-opacity:1"
       id="rect6203"
       width="72.587921"
       height="72.587921"
       x="151.20604"
       y="979.39117" />
    <rect
       style="opacity:1;fill:#fffd00;fill-opacity:1;fill-rule:nonzero;stroke:#000000;stroke-width:2.41208029;stroke-miterlimit:4;stroke-dasharray:none;stroke-opacity:1"
       id="rect6205"
       width="72.587921"
       height="72.587921"
       x="151.20604"
       y="904.39117" />
  </g>
</svg>
