<?xml version="1.0" encoding="UTF-8" standalone="no"?>
<!-- Created with Inkscape (http://www.inkscape.org/) -->
<svg
   xmlns:dc="http://purl.org/dc/elements/1.1/"
   xmlns:cc="http://web.resource.org/cc/"
   xmlns:rdf="http://www.w3.org/1999/02/22-rdf-syntax-ns#"
   xmlns:svg="http://www.w3.org/2000/svg"
   xmlns="http://www.w3.org/2000/svg"
   xmlns:sodipodi="http://sodipodi.sourceforge.net/DTD/sodipodi-0.dtd"
   xmlns:inkscape="http://www.inkscape.org/namespaces/inkscape"
   width="792pt"
   height="612pt"
   id="svg17843"
   sodipodi:version="0.32"
   inkscape:version="0.45.1"
   sodipodi:docbase="/dynamics/Presentations/figures/Design"
   sodipodi:docname="DoubletNumbered.svg"
   inkscape:output_extension="org.inkscape.output.svg.inkscape">
  <defs
     id="defs17845" />
  <sodipodi:namedview
     inkscape:document-units="in"
     pagecolor="#ffffff"
     bordercolor="#666666"
     borderopacity="1.0"
     inkscape:pageopacity="0.0"
     inkscape:pageshadow="2"
     inkscape:zoom="1.3195079"
     inkscape:cx="521.26951"
     inkscape:cy="500.43389"
     inkscape:current-layer="layer1"
     id="namedview17847"
     inkscape:window-width="1595"
     inkscape:window-height="1145"
     inkscape:window-x="0"
     inkscape:window-y="0" />
  <metadata
     id="metadata17849">
    <rdf:RDF>
      <cc:Work
         rdf:about="">
        <dc:format>image/svg+xml</dc:format>
        <dc:type
           rdf:resource="http://purl.org/dc/dcmitype/StillImage" />
      </cc:Work>
    </rdf:RDF>
  </metadata>
  <g
     inkscape:label="Layer 1"
     inkscape:groupmode="layer"
     id="layer1">
    <g
       id="g19046">
      <path
         d="M 430.11179,89.926444 C 428.10462,91.51141 426.27393,93.284356 424.50302,95.12294 C 423.17859,96.382897 421.98429,97.756388 420.77739,99.123398 C 419.00312,101.20979 417.3107,103.36321 415.58826,105.49212 C 413.83675,107.58913 412.14299,109.73158 410.44995,111.87569 C 409.14419,113.48502 407.98186,115.2028 406.77748,116.88754 C 405.69681,118.43164 404.50459,119.89176 403.33249,121.36584 C 401.61647,123.71158 399.85883,126.02703 398.10513,128.34481 C 396.21079,130.82305 394.37758,133.3424 392.58141,135.89225 C 390.73502,138.69043 388.7604,141.40015 386.8468,144.15235 C 385.33414,146.54337 383.72681,148.86512 382.0722,151.15889 C 380.42967,153.67451 378.70272,156.13281 376.95162,158.57333 C 375.51874,160.5741 374.09417,162.58037 372.64929,164.57251 C 370.91142,166.94538 368.87621,169.08288 366.93606,171.28921 C 365.27883,173.26087 363.72982,175.32034 362.18737,177.38205 C 360.88092,179.19712 359.48782,180.94174 358.08973,182.68552 C 356.82252,184.35682 355.5011,185.98554 354.19778,187.62859 C 352.18996,190.04686 350.33042,192.57073 348.51728,195.13653 C 346.98779,197.30181 345.35227,199.39113 343.73969,201.49453 C 342.97222,202.66453 342.12872,203.77495 341.31381,204.91076 C 336.1508,211.53985 329.10729,215.29529 321.59928,215.0185 C 320.11288,214.79743 318.67206,214.45943 317.22423,214.0617 C 315.79905,213.66575 314.37489,213.39419 312.91041,213.16849 C 311.21218,213.03453 309.50729,213.05346 307.80531,213.03844 C 304.60277,213.48844 301.48713,214.29133 298.36895,215.12753 C 295.08815,215.97043 291.87099,217.01762 288.64587,218.04184 C 286.2226,218.7165 283.90983,219.73067 281.62066,220.75434 C 278.22563,222.21008 256.03741,235.06318 292.13559,214.48205 C 290.17563,215.90168 288.72135,217.84201 287.18822,219.68004 C 285.94971,221.15506 285.52121,222.94082 284.98552,224.73347 C 284.38328,226.12946 284.63333,227.50056 284.68705,228.92796 C 284.79862,229.98763 285.52853,230.73261 285.99209,231.61625 C 286.93021,233.16325 288.17971,234.48199 289.34983,235.84319 C 291.1467,237.55301 293.45261,238.59377 295.62784,239.74369 C 298.30051,241.07805 301.14626,242.00924 303.90558,243.14462 C 305.71922,243.92574 307.5443,244.67053 309.38268,245.38514 C 311.07863,246.2216 312.874,246.8741 314.63716,247.56995 C 316.1226,248.01402 317.6434,248.2966 319.14346,248.68787 C 321.41859,248.30327 323.6834,248.00325 325.92458,247.44365 C 327.83178,247.09956 329.63287,246.37491 331.42912,245.7108 C 291.64047,273.16061 318.37007,253.34539 320.91684,250.73241 C 322.73025,248.36691 323.208,245.40477 323.91267,242.58023 C 324.58417,239.6242 325.30597,236.68058 326.06005,233.74481 C 326.51514,232.0493 326.97672,230.35641 327.40504,228.65677 C 327.52751,227.24368 326.72411,226.21446 326.06484,225.03641 C 325.33979,223.68398 324.65647,222.31066 323.95253,220.94765 C 323.42744,219.8521 322.67029,218.92148 321.96347,217.94827 C 321.42819,217.17933 320.59847,216.67835 319.94494,216.07687 C 318.90256,215.92727 317.95574,215.45569 316.9981,215.05845 L 332.59874,204.70072 C 333.65636,205.08747 334.77838,205.35284 335.7256,205.98338 C 336.52599,206.76456 337.39299,207.48853 338.06329,208.40042 C 338.79748,209.46517 339.58669,210.4893 340.16483,211.65557 C 340.83356,212.99955 341.49172,214.34909 342.1855,215.6798 C 343.03478,217.14964 344.05315,218.53461 344.09341,220.29632 C 343.80605,222.16058 343.48757,223.9957 342.78051,225.78992 C 341.9145,228.70753 341.19578,231.65976 340.45394,234.61128 C 339.75196,237.57161 339.38971,240.7109 337.94556,243.41528 C 332.7942,250.29491 324.95479,253.937 316.7855,257.21182 C 314.91543,257.75324 313.05544,258.3378 311.13626,258.68806 C 308.7161,259.09717 306.24941,259.60204 303.7914,259.30858 C 302.23527,258.90811 300.65827,258.55481 299.1739,257.92616 C 297.40618,257.21141 295.62688,256.52225 293.88526,255.74552 C 292.09339,254.98756 290.30173,254.22857 288.51826,253.4492 C 285.72484,252.2524 282.87625,251.18409 280.14363,249.84936 C 277.82851,248.56222 275.33432,247.44798 273.46854,245.52796 C 272.25074,244.08941 270.98607,242.68323 269.89874,241.13772 C 269.26365,240.07241 268.46965,239.11958 268.24737,237.84395 C 267.97369,236.12793 267.6378,234.48068 268.17569,232.74129 C 268.6852,230.80654 269.06291,228.80602 270.13103,227.08394 C 271.59597,225.05917 273.15734,223.10952 274.92857,221.33539 C 281.78002,217.27268 288.64156,212.39581 296.15277,209.23173 C 298.48427,208.31965 300.81519,207.40539 303.22865,206.72606 C 306.44351,205.75435 309.6657,204.81287 312.9201,203.98025 C 316.19254,203.15113 319.4751,202.26302 322.86659,202.11267 C 324.63041,202.15254 326.40332,202.1263 328.15024,202.41755 C 329.63127,202.76018 331.10971,203.10821 332.59198,203.4514 C 333.97125,203.71387 335.33392,204.13726 336.75978,204.09343 C 341.46983,202.38945 328.81141,210.55082 324.05259,212.11342 C 324.97637,211.09585 325.92646,210.08 326.70814,208.91632 C 328.27531,206.71401 330.02937,204.65566 331.59538,202.44629 C 333.42406,199.91846 335.16746,197.30941 337.20104,194.94061 C 338.46522,193.29326 339.69032,191.62477 341.00227,190.01379 C 342.41283,188.26649 343.8824,186.55642 345.15156,184.69701 C 346.74749,182.62606 348.31563,180.53606 349.93448,178.48217 C 351.8151,176.28015 353.82062,174.18976 355.6357,171.93391 C 357.07553,169.92599 358.55268,167.94597 359.98008,165.9293 C 361.76834,163.50181 363.5343,161.05672 365.21643,158.55357 C 366.80558,156.23492 368.41256,153.90601 369.9355,151.52701 C 371.87235,148.75325 373.87374,146.02347 375.76731,143.22286 C 377.51925,140.67379 379.18394,138.06376 381.13944,135.66248 C 382.86822,133.39222 384.58606,131.11269 386.27808,128.81451 C 387.3998,127.29799 388.4774,125.7072 389.75164,124.28923 C 390.97314,122.5773 392.14199,120.83038 393.38896,119.13621 C 395.12949,117.04109 396.79551,114.88843 398.54955,112.80451 C 400.25461,110.67922 401.95741,108.54649 403.69133,106.44313 C 404.84514,104.96359 405.94543,103.46824 407.34821,102.21058 C 409.13451,100.41422 410.88945,98.583893 412.82056,96.933674 L 430.11179,89.926444 z "
         id="path17852"
         style="fill:#000000;fill-opacity:1;fill-rule:nonzero" />
      <path
         d="M 302.2995,244.27645 C 300.828,246.12697 299.27848,247.91166 297.72863,249.69733 C 296.20169,251.30536 294.76557,252.9937 293.32643,254.67861 C 291.74538,256.6077 290.31963,258.65626 288.88403,260.69374 C 287.45378,262.93134 285.98335,265.13682 284.46758,267.3177 C 282.40671,270.14391 280.63547,273.15397 278.87684,276.1717 C 277.46846,279.00771 275.70483,281.63325 273.98633,284.2857 C 271.68847,287.82138 269.21279,291.2466 266.69532,294.62897 C 263.81258,298.3831 261.07224,302.24101 258.39373,306.14211 C 256.90721,308.21202 255.33934,310.22177 253.78069,312.23727 C 252.38557,314.12112 251.0018,316.01375 249.62099,317.90827 C 248.21815,319.79493 246.80711,321.6753 245.41501,323.56996 C 244.16843,325.3213 242.92181,327.07259 241.68822,328.83277 C 240.49464,330.38203 239.43619,332.03026 238.33584,333.64638 C 236.97474,335.59854 235.39874,337.39558 233.91448,339.25622 C 232.68217,340.7438 231.50575,342.2754 230.30487,343.78789 C 229.51533,345.03111 228.56161,346.15093 227.61714,347.27794 C 226.66506,348.34321 225.87163,349.53688 225.01573,350.67267 C 224.11769,351.80921 223.34717,353.03527 222.5361,354.23049 C 221.69832,355.19305 221.24041,356.34603 220.66698,357.44962 C 220.33123,358.59479 219.52656,359.41879 218.81987,360.33203 C 217.95394,361.09358 217.22338,361.98884 216.41977,362.81899 C 215.34939,363.82091 214.42444,364.92927 213.48997,366.0519 C 212.60442,367.11063 211.65362,368.10625 210.69686,369.10122 C 209.69755,370.4468 208.57072,371.68981 207.45618,372.93734 C 206.5873,373.9141 205.78849,374.95172 204.99325,375.98505 C 204.06351,376.99153 203.21721,378.06339 202.34537,379.11832 C 201.41691,380.39845 200.53297,381.71234 199.6445,383.02088 C 198.4947,384.79367 197.17728,386.44427 195.8697,388.10157 C 194.66346,389.64943 193.4834,391.21675 192.312,392.79039 C 191.37385,393.8404 190.59223,395.01321 189.7502,396.13994 C 188.94189,397.34962 188.10858,398.54088 187.31477,399.76188 C 183.10146,406.80853 175.62406,410.25719 168.35383,409.61327 C 166.86039,409.53787 165.36497,409.53018 163.87016,409.50903 C 161.38977,409.63938 158.91983,410.22537 156.48604,410.72612 C 154.70015,411.15685 152.90405,411.50159 151.11206,411.87984 C 148.59891,412.76125 146.05501,413.55145 143.51259,414.34626 C 136.80182,416.70836 126.2417,423.58697 154.3491,407.52173 C 152.51054,408.38979 151.2993,409.89237 149.98805,411.38557 C 148.23991,413.41319 146.81244,415.67418 145.35704,417.91189 C 143.77945,420.23818 142.69108,422.83009 141.55678,425.38763 C 140.53992,427.00331 140.36745,428.82331 140.00411,430.59548 C 141.61279,432.86305 144.36875,434.09972 146.79319,435.37835 C 149.96773,437.03563 153.3083,438.3281 156.59465,439.7368 C 157.97335,440.39015 159.40826,440.81661 160.84615,441.29854 C 162.38588,441.78333 164.00091,441.78023 165.59427,441.87693 C 167.27844,442.00751 168.95824,441.85554 170.62375,441.75218 C 172.56954,441.33308 174.35955,440.53289 176.18685,439.79412 C 178.29852,439.0316 180.3256,438.05352 182.35231,437.09469 C 185.30401,438.61179 163.26712,451.23676 170.37711,443.22961 C 170.91835,442.19451 171.13055,441.02348 171.45828,439.92936 C 171.56098,438.70943 171.12742,437.5934 170.83592,436.43873 C 170.28977,434.88885 169.73214,433.34197 169.16452,431.80169 C 168.8037,430.27782 168.42212,428.75988 168.02526,427.2449 C 167.83672,425.95763 167.56385,424.6886 167.29879,423.4155 C 167.04252,421.93295 167.02327,420.42865 166.96337,418.93031 C 166.78602,417.73617 166.60233,416.53747 166.40825,415.34464 C 166.24476,414.29022 165.89126,413.28053 165.60769,412.25869 C 165.44381,411.68723 165.21129,411.13941 165.01314,410.57992 L 181.35573,401.49826 C 181.56548,402.06209 181.83353,402.60366 181.98417,403.18763 C 182.32295,404.35202 182.72695,405.49402 182.97832,406.68841 C 183.15572,407.93811 183.27086,409.19551 183.58547,410.42464 C 183.61401,411.8391 183.6038,413.25854 183.79642,414.66366 C 184.07527,415.90751 184.3586,417.15487 184.49836,418.42193 C 184.85602,419.89275 185.19114,421.36943 185.49383,422.85259 C 186.05735,424.36612 186.5955,425.89338 187.19255,427.39695 C 187.57996,428.70977 188.09389,429.99557 188.12556,431.38843 C 187.95794,432.7875 188.02756,434.15203 187.34711,435.48635 C 183.62603,442.73308 176.16528,445.62933 167.87844,448.65087 C 165.77973,449.56227 163.68686,450.48882 161.55777,451.32559 C 159.62818,451.95242 157.7066,452.68434 155.66075,452.84077 C 153.92352,452.83879 152.18316,452.87283 150.44888,452.73929 C 148.74999,452.53655 147.03628,452.4131 145.41449,451.80911 C 143.97158,451.25911 142.54027,450.69688 141.15496,449.99517 C 137.94716,448.47094 134.71239,447.00275 131.56534,445.35321 C 128.58503,443.79075 125.14235,442.36087 123.47358,439.2924 C 123.46222,437.07289 123.54944,435.09619 124.76813,433.06046 C 125.93498,430.49373 126.95706,427.83403 128.37374,425.402 C 129.86248,423.11458 131.27589,420.76387 133.00358,418.6426 C 134.21135,417.08694 135.27871,415.32258 136.95063,414.23904 C 144.56483,409.86719 150.2759,405.33703 158.15011,403.03594 C 160.74109,402.20128 163.3199,401.29371 165.95081,400.60444 C 167.71863,400.26488 169.48646,399.91351 171.24519,399.52102 C 173.79558,399.10304 176.35352,398.54064 178.9482,398.57566 C 180.46493,398.5941 181.98179,398.61606 183.49857,398.62779 C 179.02793,401.43306 175.04129,405.1807 170.12885,407.11047 C 170.95291,405.96079 171.84109,404.8302 172.66366,403.66709 C 173.45082,402.43554 174.26631,401.24433 175.12003,400.05894 C 176.40915,398.56232 177.63652,397.01144 178.82964,395.42441 C 180.10543,393.78937 181.46029,392.18553 182.56228,390.43487 C 183.44673,389.13569 184.38894,387.88176 185.1853,386.53222 C 186.00974,385.42603 186.74311,384.21307 187.80341,383.30691 C 188.65566,382.29085 189.4829,381.28199 190.25115,380.19332 C 191.35761,378.95416 192.50287,377.75373 193.57127,376.47583 C 194.4086,375.32877 195.26019,374.27529 196.28424,373.30082 C 197.17469,372.17016 198.06032,370.94912 199.20725,370.05365 C 199.95244,369.15796 200.73231,368.30293 201.5047,367.46422 C 202.2468,366.76533 203.0661,366.12589 203.64594,365.27251 C 204.15479,364.02195 204.60157,362.76697 205.44472,361.67659 C 206.21111,360.45286 207.03635,359.26488 207.85077,358.0649 C 208.69316,356.88546 209.56903,355.71451 210.4503,354.55792 C 211.36371,353.43762 212.31837,352.38283 213.2081,351.25712 C 214.3648,349.62003 215.56138,348.01728 216.89928,346.51224 C 218.35941,344.70677 219.78281,342.87134 221.27844,341.0982 C 222.41873,339.47848 223.52174,337.83489 224.59763,336.17129 C 225.8946,334.44825 227.16861,332.71379 228.41761,330.95391 C 229.7851,329.0332 231.18298,327.13824 232.58068,325.23912 C 234.0006,323.37136 235.40281,321.48948 236.74138,319.56199 C 238.29807,317.49326 239.91976,315.47554 241.5272,313.44596 C 244.3408,309.52826 247.19425,305.63632 250.10418,301.78724 C 252.5522,298.48867 254.82519,295.05644 257.13655,291.66367 C 258.85201,289.05272 260.68674,286.50545 262.01627,283.66877 C 263.82662,280.62738 265.57131,277.54297 267.65071,274.67169 C 269.08137,272.47069 270.55431,270.31248 271.91759,268.0696 C 273.33111,266.02221 274.8033,264.01308 276.20108,261.95912 C 277.65264,260.20983 279.13534,258.48849 280.68474,256.8189 C 282.22585,255.14174 283.80153,253.46053 285.09726,251.58526 L 302.2995,244.27645 z "
         id="path17854"
         style="fill:#000000;fill-opacity:1;fill-rule:nonzero" />
      <path
         d="M 184.39903,434.67344 C 185.8943,436.55 187.65686,438.1589 189.46606,439.72088 C 191.6035,441.57486 193.97612,443.14825 196.31411,444.73586 C 198.52319,446.36189 200.58902,448.17049 202.7297,449.89055 C 205.96464,452.2686 209.08548,454.79453 212.24323,457.27278 C 215.81904,460.23871 219.36462,463.2438 223.09591,466.01363 C 225.64663,467.78143 228.08041,469.6946 230.4393,471.70697 C 231.77627,472.89375 233.17224,474.00646 234.51895,475.18319 C 236.1363,476.54019 237.67844,477.96778 239.20688,479.42616 C 241.38328,481.2984 243.34155,483.39653 245.41538,485.37818 C 246.85019,486.85491 248.18832,488.42132 249.52673,489.98312 C 250.71849,491.21881 251.86589,492.4902 253.02347,493.756 C 254.06316,494.85702 255.12504,495.92275 256.22882,496.96106 C 258.42927,499.23994 260.78611,501.34994 263.09724,503.51342 C 265.15101,505.34952 267.17299,507.22248 269.23627,509.04871 C 271.67055,511.21051 274.12918,513.34451 276.56404,515.5079 C 278.71201,517.17538 280.82009,518.8866 282.87479,520.66686 C 284.20523,521.91493 285.59341,523.0954 286.93963,524.32286 C 288.03927,525.22924 289.03633,526.24817 290.08068,527.21432 C 291.19213,528.27336 292.34181,529.28344 293.48912,530.29956 C 294.63094,531.29442 295.79745,532.26809 296.9625,533.23513 C 298.18435,534.16829 299.28158,535.23472 300.40768,536.27834 C 301.65282,537.36129 302.94306,538.38903 304.21213,539.4451 C 305.24763,540.42302 306.36144,541.30785 307.45792,542.21215 C 309.37305,544.19674 311.46056,546.018 313.54019,547.83088 C 315.14562,549.2528 316.77017,550.64539 318.33906,552.10533 C 319.21332,552.84578 319.97427,553.70184 320.78322,554.50655 C 320.89062,554.59609 320.99803,554.68563 321.10544,554.77517 L 305.16795,564.62527 C 305.03399,564.49115 304.90004,564.35702 304.76608,564.2229 C 303.98717,563.42682 303.21073,562.62821 302.41989,561.84405 C 300.92335,560.3872 299.38556,558.97852 297.86288,557.54842 C 295.77902,555.70621 293.67649,553.88498 291.57973,552.05675 C 290.51128,551.17792 289.41984,550.32635 288.41816,549.36907 C 287.13603,548.2744 285.83686,547.19861 284.56301,546.09381 C 283.45466,545.10693 282.36285,544.1023 281.20053,543.17741 C 279.99727,542.17508 278.78694,541.18142 277.63016,540.12477 C 276.47393,539.09513 275.31088,538.07328 274.17151,537.02466 C 273.15718,536.06562 272.17286,535.07222 271.09764,534.17917 C 269.77387,532.92955 268.43846,531.69342 267.10266,530.45641 C 265.08864,528.67085 263.03046,526.9388 260.97332,525.20303 C 258.48684,523.08629 256.03473,520.93061 253.5429,518.82013 C 251.47932,516.94042 249.40105,515.0749 247.34361,513.18978 C 245.10573,510.97271 242.83356,508.79006 240.44852,506.72992 C 239.25926,505.65909 238.04806,504.63033 237.03827,503.37418 C 235.89912,502.13013 234.78498,500.86256 233.62431,499.63773 C 232.32421,498.09555 231.02051,496.55388 229.65891,495.06368 C 227.65412,493.03856 225.64544,491.02626 223.49318,489.1554 C 221.92201,487.74494 220.29138,486.42437 218.6836,485.0569 C 217.35473,483.8623 215.99015,482.7096 214.68075,481.49344 C 212.41645,479.49354 210.0965,477.56186 207.68195,475.74343 C 204.00985,472.85631 200.40826,469.87958 196.68644,467.056 C 193.61029,464.49217 190.48435,462.0025 187.21167,459.69081 C 185.01825,458.02229 182.86007,456.3078 180.64361,454.66741 C 178.30829,452.962 175.95493,451.27726 173.68138,449.48942 C 171.86275,447.80641 170.10518,446.067 168.37486,444.29433 L 184.39903,434.67344 z "
         id="path17858"
         style="fill:#000000;fill-opacity:1;fill-rule:nonzero" />
      <path
         d="M 302.80632,563.66957 C 296.14757,566.27373 285.97867,572.92979 313.69941,556.93327 C 312.45394,557.55188 311.62852,558.59621 310.66783,559.53826 C 309.75065,560.41146 309.51077,561.61517 309.01509,562.70331 C 308.40187,563.9639 308.31756,565.31982 308.14839,566.67796 C 308.281,568.28883 308.45666,569.89637 308.6075,571.506 C 308.61276,572.88366 309.00537,574.20337 309.31193,575.5309 C 309.69639,576.76986 310.50964,577.77159 311.18944,578.84338 C 312.07837,580.07317 313.38839,580.76149 314.61479,581.57471 C 315.96424,582.41356 317.48889,582.88002 318.97403,583.41165 C 320.15031,583.68451 321.27781,584.10527 322.41031,584.5307 C 324.07867,585.02114 325.69445,585.70608 327.31529,586.33629 C 328.85009,586.99927 330.50231,587.29078 332.11021,587.69819 C 334.23052,587.84515 336.22262,587.31751 338.24259,586.84778 C 339.83845,586.46754 341.24708,585.65494 342.68637,584.94772 C 349.43237,581.21569 323.23645,596.22919 328.07735,593.37183 C 333.58779,590.11926 339.16983,586.98952 344.70723,583.78305 C 349.79926,580.83448 324.25416,595.42741 329.41344,592.59815 C 329.67148,592.45665 370.84939,568.80188 331.08639,591.64235 C 332.8153,590.47438 334.49252,589.23687 336.20109,588.04064 C 337.67184,587.05536 338.93231,585.80548 340.21671,584.59947 C 341.39004,583.34937 342.20014,581.84953 343.0457,580.37543 C 343.7481,579.11263 344.03042,577.76142 344.35916,576.38341 C 344.60792,574.91709 344.88339,573.45953 345.11659,571.98867 C 345.5976,570.36976 345.4011,568.71681 345.33787,567.06536 C 345.17329,565.42724 344.69126,563.86121 344.24794,562.28423 C 343.86076,560.5518 343.22488,558.91576 342.59156,557.26635 C 342.04093,555.97398 341.30686,554.77086 340.63152,553.54174 C 340.23182,552.70585 339.399,552.23065 338.80292,551.62895 C 337.99533,550.84486 336.92965,550.52231 335.95251,550.02965 C 334.76173,549.28546 333.42412,548.84004 332.12028,548.34048 C 330.92691,547.93899 329.68638,547.7173 328.4755,547.38989 C 327.13527,547.21072 325.78157,547.25098 324.43369,547.22572 C 323.0967,547.01156 321.93356,547.45274 320.66176,547.71077 C 314.35617,550.50267 304.96808,556.5338 332.45466,540.66248 C 331.36783,541.47309 330.27743,542.27032 329.17093,543.05418 C 328.10151,543.61914 327.19211,544.41548 326.22119,545.11961 C 325.47098,545.86127 324.72489,546.59727 323.966,547.32512 C 323.31538,548.07584 322.58614,548.74614 321.8739,549.43463 C 321.17629,550.13646 320.63752,551.00385 320.06615,551.81914 C 319.47509,552.60086 318.71584,553.21135 318.04375,553.91401 C 317.53362,554.79653 316.85117,555.55072 316.23498,556.34809 C 315.50693,557.2151 314.82251,558.11971 314.15245,559.02824 C 313.58937,559.86633 312.94628,560.66147 312.36986,561.49213 C 311.72379,562.52526 311.12093,563.58896 310.50125,564.64044 C 309.85764,565.85409 309.37768,567.12997 308.8459,568.3904 C 308.45801,569.60935 308.09741,570.83796 307.74372,572.06911 C 307.36435,573.28742 307.67525,574.52025 307.79411,575.75393 C 307.90196,576.81043 308.50321,577.6913 308.91008,578.64534 C 309.51737,579.93264 310.66558,580.70469 311.7106,581.59422 C 313.10126,582.71955 314.79702,583.27846 316.41133,583.96827 C 317.85938,584.47074 319.33053,584.86932 320.80324,585.29032 C 322.48402,585.64035 324.16929,585.93427 325.84676,586.31218 C 327.36098,586.42328 328.82407,586.67427 330.31163,586.92784 C 332.03712,587.28544 333.76203,586.96145 335.48924,586.78015 C 336.94846,586.76671 338.42492,586.53981 339.84032,586.4044 C 341.13193,585.95207 342.50112,585.99056 343.84907,585.93125 C 345.53911,585.90892 347.22926,585.90382 348.9194,585.89714 C 350.46888,585.72435 351.90825,586.24507 353.36634,586.62135 C 354.70957,587.25003 356.07292,587.83867 357.43792,588.4287 C 359.49401,589.04821 361.14802,590.3958 362.93352,591.53384 C 364.60738,592.52125 366.26623,593.53042 367.94087,594.51799 C 369.28205,595.27878 370.59091,596.10057 371.90771,596.90587 C 373.08268,597.95417 374.42695,598.77342 375.73014,599.63045 C 377.40724,600.53281 378.95417,601.64365 380.54234,602.68563 C 382.42915,603.94881 384.15357,605.43399 385.97537,606.80016 C 388.58036,608.53004 391.25919,610.11211 393.79982,611.92209 C 397.24039,614.52252 400.67322,617.12967 404.17887,619.64252 C 406.8563,621.55487 409.5148,623.49286 412.18158,625.41992 C 414.40404,627.09029 416.56236,628.84036 418.74315,630.56581 C 420.31411,631.73156 421.93448,632.83199 423.51839,633.97967 C 424.93909,634.95554 426.32837,635.96503 427.71594,636.98602 C 429.05458,637.841 430.3321,638.75718 431.59343,639.71837 C 433.11744,640.87559 434.80251,641.77852 436.45846,642.73772 C 438.25944,643.82862 440.02729,644.97081 441.81096,646.08702 C 443.20731,647.01588 444.55848,648.00398 445.9513,648.9408 C 447.54823,650.066 449.09663,651.25478 450.68337,652.39418 C 452.27471,653.38613 453.75456,654.54146 455.26739,655.64536 C 456.8392,656.77519 458.45858,657.81146 460.09394,658.84249 C 461.97267,660.0895 463.80936,661.3892 465.62695,662.72496 C 468.64198,664.90208 471.6286,667.12469 474.59407,669.37209 C 477.44493,671.51317 480.39895,673.50973 483.29941,675.583 C 485.23923,676.89033 487.14664,678.23583 489.03487,679.60511 C 490.12002,680.37642 491.1813,681.16829 492.23833,681.97456 C 493.56738,683.10278 494.75056,684.3842 495.96394,685.63777 C 497.2106,686.88782 498.45351,688.13947 499.71537,689.37238 L 483.82216,699.12817 C 482.61582,697.83586 481.43422,696.519 480.17852,695.27378 C 478.95202,694.12874 477.70512,693.02491 476.40436,691.96417 C 475.34964,691.14136 474.28622,690.32681 473.25581,689.47406 C 471.405,688.13958 469.54775,686.80547 467.69795,685.46504 C 464.8577,683.34186 461.98543,681.26619 459.12621,679.16872 C 456.13849,676.95637 453.1882,674.68555 450.08781,672.62942 C 448.20013,671.41791 446.33487,670.175 444.46995,668.92884 C 442.81256,667.84378 441.14328,666.77776 439.56063,665.58166 C 438.02633,664.50147 436.49357,663.41829 434.9549,662.34399 C 433.40877,661.20936 431.88725,660.03734 430.28079,658.9887 C 428.90893,658.04803 427.55096,657.08465 426.14432,656.19653 C 424.4347,655.03487 422.73847,653.85118 420.94811,652.81465 C 419.18989,651.85937 417.3899,650.96342 415.8198,649.70762 C 414.54625,648.76015 413.26025,647.8365 411.96102,646.92332 C 410.57319,645.94905 409.19058,644.96624 407.8055,643.98719 C 406.21578,642.8138 404.59741,641.67556 403.07394,640.41626 C 400.94869,638.65017 398.76461,636.9686 396.54707,635.32002 C 393.95077,633.3616 391.37753,631.37297 388.79594,629.39519 C 385.32109,626.78756 381.74018,624.33955 378.2264,621.78755 C 375.64071,620.07708 373.02215,618.4182 370.46012,616.67153 C 368.58762,615.34516 366.73159,614.002 364.82307,612.72662 C 363.29057,611.68443 361.7787,610.60774 360.12411,609.75897 C 358.81106,608.87466 357.48787,608.00705 356.23192,607.04007 C 354.92437,606.23359 353.62979,605.40508 352.3042,604.62834 C 350.65216,603.62264 348.9993,602.62018 347.36462,601.58521 C 345.64235,600.49026 343.92336,599.40769 341.96427,598.77675 C 340.62731,598.21599 339.30638,597.59999 337.92603,597.15638 C 336.56052,597.00396 335.22009,596.71463 333.8308,596.86404 C 332.16123,596.87521 330.48875,596.85539 328.82313,596.99175 C 327.50423,597.17562 326.19236,597.35879 324.88672,597.62751 C 323.42484,597.67203 321.96142,597.69981 320.50531,597.86708 C 318.65527,597.94698 316.82336,598.07177 314.99883,597.61061 C 313.51164,597.43655 312.01326,597.28826 310.54853,596.95702 C 308.83308,596.60334 307.10725,596.28874 305.41344,595.84168 C 303.92216,595.38019 302.43298,594.9189 300.97767,594.3404 C 299.22149,593.54516 297.43531,592.78409 295.93656,591.53879 C 294.7156,590.42897 293.41439,589.41001 292.65071,587.89864 C 292.10244,586.7656 291.47156,585.66444 291.24101,584.41014 C 291.06545,583.01039 290.77844,581.58052 290.89402,580.17748 C 291.27929,578.89255 291.59321,577.58933 291.91163,576.28664 C 292.38164,574.97353 292.76697,573.6013 293.54734,572.41866 C 294.02927,571.27146 294.42282,570.06732 295.26952,569.13163 C 295.8331,568.22098 296.41189,567.34154 296.94671,566.40689 C 297.67328,565.52623 298.3801,564.65537 298.99677,563.68563 C 299.62053,562.91682 300.29944,562.23348 300.88291,561.42535 C 301.51903,560.66056 301.97302,559.70749 302.78478,559.05605 C 303.43556,558.30711 304.25266,557.66639 304.59506,556.67805 C 305.27071,555.94953 305.91387,555.1985 306.69268,554.57429 C 307.41728,553.78792 308.11349,552.97907 308.93873,552.28341 C 309.83831,551.40769 310.6488,550.46775 311.73513,549.79313 C 312.86002,549.03824 314.06434,548.3981 315.12872,547.54476 C 322.08497,543.43598 327.96476,538.41104 335.57151,536.41205 C 336.89417,536.33157 338.22095,536.12513 339.56351,536.27409 C 340.9884,536.35064 342.42415,536.36843 343.8164,536.72746 C 345.10838,537.11283 346.42896,537.42746 347.67109,537.96079 C 348.97287,538.51817 350.29723,539.01532 351.53457,539.71493 C 352.57769,540.29344 353.69616,540.7517 354.60215,541.56235 C 355.3941,542.40738 356.29009,543.16527 356.84948,544.21359 C 357.52525,545.51098 358.25793,546.78396 358.81482,548.13936 C 359.49388,549.84309 360.20936,551.52862 360.59753,553.33131 C 361.0778,555.00322 361.61564,556.66275 361.81361,558.40107 C 361.96381,560.20215 362.30149,562.05636 361.90282,563.84626 C 361.6805,565.26812 361.5192,566.72634 361.07516,568.10604 C 360.89364,569.65558 360.84739,571.19524 359.9845,572.56083 C 359.19538,574.17801 358.55274,575.92015 357.34217,577.32332 C 356.12711,578.67831 354.99047,580.0809 353.53024,581.21481 C 351.77493,582.391 350.06858,583.6192 348.36047,584.86373 C 342.748,588.1538 336.9245,591.10783 331.52304,594.73395 C 326.63306,598.01669 351.9268,582.95682 346.82289,585.89595 C 291.93993,617.50073 384.61173,564.15686 328.15241,596.62737 C 326.61681,597.20784 325.0889,597.80935 323.47766,598.15449 C 321.26883,598.46376 319.03895,598.76051 316.82275,598.31538 C 315.13971,597.85233 313.43876,597.44031 311.85029,596.69241 C 310.22239,596.10398 308.60656,595.47704 306.94013,595.00408 C 305.77309,594.62044 304.60635,594.24036 303.45293,593.81821 C 301.91688,593.21035 300.37286,592.62207 298.98772,591.69941 C 297.59281,590.70093 296.13157,589.80799 295.12134,588.3696 C 294.29403,587.11736 293.41257,585.89721 292.92229,584.45909 C 292.55148,583.01889 292.05889,581.58561 292.03427,580.08378 C 291.91968,578.45258 291.81622,576.82111 291.57036,575.20201 C 291.59861,573.661 291.45885,572.08753 292.07402,570.60958 C 292.46358,569.34127 292.77694,568.054 293.48832,566.9227 C 294.35723,565.7937 295.08382,564.50957 296.34953,563.7587 C 303.76515,559.40953 309.73567,554.60278 317.64542,552.32274 L 302.80632,563.66957 z "
         id="path17870"
         style="fill:#000000;fill-opacity:1;fill-rule:nonzero" />
      <path
         d="M 442.55641,100.69405 C 440.22453,100.81206 437.9387,101.29431 435.63042,101.62051 C 433.54228,101.94642 431.46774,101.61644 429.3894,101.39565 C 427.38825,101.30956 425.41464,100.96296 423.43169,100.69037 C 421.47471,100.28723 419.55845,99.722094 417.62829,99.213909 C 415.84209,98.852248 414.30533,97.925093 412.72922,97.074462 C 411.2915,96.316127 410.49719,95.134191 409.56373,93.893729 C 408.69768,92.340681 408.34143,90.634479 407.89077,88.945181 C 407.44119,87.117678 407.7965,85.364164 408.06423,83.55947 C 408.35209,81.839901 408.95801,80.218658 409.52082,78.582191 C 410.07857,77.186606 410.93609,75.954577 411.7352,74.692921 C 413.17403,72.485315 415.14052,70.743669 417.07535,68.989838 C 423.51916,63.730184 430.89321,59.558005 438.72715,56.818397 C 440.39166,56.051544 442.07461,55.719402 443.86574,55.42378 C 445.558,55.27154 447.25737,55.282938 448.95437,55.267654 C 450.2458,55.379476 451.55047,55.650136 452.83758,55.883401 C 454.35558,56.078378 455.86421,56.454785 457.36577,56.747596 C 458.78763,56.967387 460.0742,57.592245 461.3784,58.131949 C 462.45897,58.467845 463.31568,59.1507 464.24318,59.760883 C 465.08811,60.596276 465.80979,61.552773 466.54403,62.482844 C 467.46316,63.488654 467.97985,64.726455 468.56075,65.935235 C 469.23763,67.318601 469.25382,68.793117 469.35824,70.275179 C 469.2363,71.593249 468.91942,72.87192 468.64407,74.160575 C 468.19878,75.239681 467.77752,76.322831 467.36253,77.411821 C 466.90807,78.731404 466.2992,79.988603 465.71415,81.253061 C 465.14608,82.525703 464.37949,83.699383 463.67456,84.899713 C 463.14377,86.0893 462.30275,87.075817 461.56493,88.133899 C 460.62203,89.332454 459.7013,90.550456 458.77809,91.765375 C 457.99438,92.7064 457.31332,93.715161 456.57571,94.684709 C 455.82759,95.669506 455.48666,96.868046 455.00581,97.98814 C 454.48687,99.218811 454.34262,100.5497 454.09763,101.84844 C 453.66338,103.06874 453.6417,104.35736 453.48573,105.62375 C 453.52379,107.36574 453.31814,109.08305 453.14396,110.80948 C 452.89719,112.45357 452.84683,114.11406 452.76975,115.77128 C 452.68927,117.55326 452.71388,119.33696 452.71971,121.11998 C 452.66325,122.83473 452.77122,124.54037 452.85292,126.24915 C 453.13878,128.38451 453.24174,130.53472 453.3363,132.68454 C 453.30469,134.67836 453.48436,136.6483 453.67145,138.62854 C 453.9128,140.78028 454.00974,142.94422 454.1455,145.10402 C 454.52601,148.025 455.1438,150.90713 455.6634,153.80476 C 456.03627,156.18701 456.38819,158.56705 456.64806,160.96364 C 456.80491,163.15703 457.12575,165.33367 457.37281,167.51816 C 457.44152,169.40457 457.71806,171.26766 457.98099,173.13391 C 458.19745,174.92478 458.2531,176.73081 458.34195,178.53113 C 458.59666,180.27317 458.78057,182.02259 458.95748,183.77338 C 459.2173,185.56858 459.48984,187.36201 459.75464,189.15568 C 460.02971,190.9592 460.3014,192.75914 460.6121,194.5573 C 460.83644,196.32371 461.07898,198.08394 461.34154,199.8448 C 461.53056,201.65651 461.77216,203.45644 462.03848,205.25801 C 462.35366,207.07435 462.39001,208.91828 462.47705,210.75379 C 462.65683,212.50115 462.87298,214.2445 463.05469,215.99281 C 463.10198,217.78437 463.22826,219.56965 463.34974,221.35448 C 463.65033,223.16428 463.7289,224.99617 463.84474,226.82268 C 463.78244,228.73034 464.04718,230.61341 464.27711,232.50072 C 464.50114,234.50102 464.54276,236.50941 464.71288,238.51407 C 464.93634,241.28532 465.27783,244.02642 465.73351,246.76833 C 466.12065,249.15363 466.47675,251.5402 466.89286,253.92071 C 467.24241,255.76412 467.28618,257.63909 467.38166,259.50629 C 467.54918,261.26016 467.76386,263.00967 467.94737,264.76282 C 468.00166,266.54223 468.12019,268.31431 468.24331,270.08782 C 468.54092,271.8958 468.62481,273.72467 468.74335,275.54953 C 468.80319,277.33226 468.7983,279.11566 468.80312,280.89898 C 468.94024,282.67419 469.15573,284.44438 469.33938,286.21564 C 469.44596,288.07708 469.47081,289.94135 469.50743,291.80496 C 469.63651,293.25144 469.86703,294.68975 470.05614,296.13059 C 470.11311,297.50832 470.25093,298.88242 470.34892,300.25352 C 470.65213,301.66833 470.73892,303.10874 470.8571,304.54553 C 471.04993,305.93112 471.26569,307.31408 471.45694,308.70089 C 471.5033,310.13267 471.74505,311.53876 471.97383,312.94919 C 472.12219,314.51786 472.27055,316.08604 472.4295,317.65134 C 472.74381,319.09352 472.83442,320.56253 472.95597,322.02793 C 473.14835,323.41243 473.36375,324.79429 473.55464,326.17998 C 473.58826,327.57997 473.83824,328.9487 474.07444,330.32422 C 474.23996,331.8767 474.4951,333.41435 474.75299,334.95366 C 475.00577,336.46276 475.03558,337.99153 475.09983,339.5157 C 475.42821,340.65529 475.31236,341.8404 475.37207,342.96855 C 467.85665,350.2634 439.24394,364.67055 473.314,345.18056 C 421.11057,376.26637 485.46824,336.93705 469.86651,347.31845 C 468.69791,347.86394 467.77587,348.73947 466.75519,349.49494 C 465.42006,350.70339 464.37164,352.17166 463.28254,353.59398 C 462.12965,355.14418 461.21506,356.84551 460.26135,358.51952 C 458.85058,360.80399 457.87382,363.31873 456.90313,365.81226 C 456.05975,367.79186 455.44804,369.84879 454.84233,371.90904 C 454.36698,373.47034 454.2838,375.09021 454.15019,376.70241 C 453.84279,378.16752 454.35336,379.48197 454.63561,380.84581 C 455.28915,382.07364 456.51804,382.6057 457.56584,383.3941 C 459.55448,384.69238 461.73879,385.61104 463.91845,386.53196 C 466.18475,387.29744 468.45068,388.06305 470.71358,388.83574 C 472.37085,389.33511 474.03563,389.80609 475.71139,390.22698 C 477.1737,390.81287 478.67515,390.6914 480.18513,390.68806 C 481.91256,390.68432 483.35558,389.96847 484.88927,389.3268 C 489.35866,387.07284 476.2294,394.34991 471.88038,396.8282 C 473.47396,395.7382 474.7253,394.21016 476.028,392.7955 C 477.63201,390.87784 479.32338,389.03868 481.03338,387.21607 C 482.36028,385.98416 483.43469,384.5267 484.56115,383.11979 C 485.65747,381.84114 486.58732,380.4404 487.53383,379.05075 C 488.55818,377.53697 489.11161,375.80309 489.73484,374.10519 C 490.3119,372.37705 490.82169,370.62726 491.34991,368.8841 C 491.73887,367.36638 492.11345,365.85053 492.46648,364.32551 C 492.82316,362.86939 492.54336,361.46007 492.34429,360.01826 C 491.9505,358.5508 491.16949,357.26157 490.46052,355.93924 C 489.75384,354.72465 488.94327,353.57745 488.16458,352.40989 C 487.34138,351.21218 486.57361,349.981 485.76544,348.77454 C 485.09231,347.41462 484.27936,346.13366 483.50896,344.82943 C 482.30615,342.88989 480.55249,341.41615 478.89361,339.8844 C 477.87274,338.54853 476.44596,338.27495 475.14064,337.75178 C 470.72189,340.11753 483.85166,332.79126 488.20304,330.30375 C 487.27233,330.83721 486.58869,331.67572 485.82278,332.39941 C 485.07872,333.06002 484.41254,333.7962 483.7284,334.51667 C 483.00347,335.20202 482.29239,335.89419 481.58805,336.60639 C 480.754,337.54152 479.96713,338.51845 479.18888,339.49678 C 478.47723,340.46201 477.63624,341.30742 476.81255,342.17078 C 476.26447,342.77776 475.58054,343.20366 474.96067,343.72333 L 457.55772,350.59314 C 458.20772,350.14179 458.83551,349.71109 459.48392,349.25561 C 460.31489,348.4561 461.2413,347.74321 461.97843,346.84061 C 462.79768,345.87927 463.58759,344.90808 464.34484,343.89011 C 465.05716,343.13957 465.66159,342.33752 466.39119,341.61913 C 467.1181,340.94026 467.87267,340.29415 468.49054,339.50337 C 469.25374,338.72519 470.10101,338.02762 470.80598,337.17616 C 477.11831,333.46036 482.96754,326.07333 490.48134,327.06791 C 491.9969,327.94766 493.47212,328.79861 494.68124,330.13161 C 496.44508,331.81262 498.21704,333.49233 499.66449,335.46565 C 500.4197,336.77057 501.23281,338.04452 501.89621,339.39988 C 502.69092,340.56598 503.46621,341.7446 504.24298,342.9238 C 505.06825,344.13757 505.90392,345.34277 506.64056,346.61334 C 507.40757,348.09391 508.22343,349.54879 508.76023,351.13794 C 509.05556,352.78066 509.516,354.41742 509.22006,356.10546 C 508.94386,357.72331 508.64711,359.30951 508.14406,360.87025 C 507.63107,362.64928 507.13765,364.43481 506.60681,366.20938 C 505.98991,368.00435 505.40793,369.81616 504.56927,371.52458 C 503.62656,372.95029 502.82393,374.47852 501.70556,375.78042 C 500.57409,377.2687 499.41884,378.7339 498.17228,380.12566 C 496.41706,381.89638 494.66472,383.65968 493.06455,385.5767 C 491.81168,387.03991 490.5583,388.5168 489.28002,389.94073 C 483.01483,393.63908 477.09247,398.33069 470.21918,400.88387 C 468.55639,401.30034 466.90266,401.74571 465.15713,401.68291 C 463.52039,401.48499 461.88061,401.37108 460.31936,400.76721 C 458.64319,400.30191 456.96803,399.83825 455.32455,399.25999 C 453.06457,398.44124 450.78867,397.66193 448.55853,396.76484 C 446.28875,395.79365 443.99699,394.86456 441.92475,393.50144 C 440.59,392.48569 439.21518,391.61733 438.39494,390.07007 C 437.86752,388.43315 437.23527,386.90874 437.50874,385.11003 C 437.58779,383.36394 437.60793,381.60951 438.07361,379.90676 C 438.66539,377.77978 439.21833,375.63864 440.05768,373.59408 C 441.07012,371.05546 442.17109,368.55659 443.25965,366.04894 C 444.21493,364.36095 445.20194,362.68924 446.18199,361.01354 C 447.24563,359.50957 448.34516,358.04105 449.48981,356.60276 C 450.42183,355.67627 451.31574,354.72679 452.44101,354.01931 C 462.67253,347.21031 489.1436,333.26244 455.82934,351.90324 C 461.33038,348.75267 466.59929,345.1568 472.33245,342.45155 C 477.24653,340.13278 453.32808,352.91499 458.33738,350.80984 C 458.37477,350.06393 459.31076,349.09977 458.47702,348.02353 C 458.4476,346.56712 458.4512,345.10681 458.26448,343.6589 C 458.01236,342.12667 457.70883,340.60281 457.56688,339.05703 C 457.32318,337.64917 457.00592,336.24811 456.99391,334.81508 C 456.81376,333.39991 456.71275,331.97364 456.35437,330.58419 C 456.26013,329.18755 456.25494,327.78033 455.94929,326.40501 C 455.74497,324.81936 455.53032,323.24954 455.47292,321.64432 C 455.23061,320.21419 454.91577,318.79006 454.89648,317.33609 C 454.71598,315.91998 454.61509,314.49266 454.25527,313.1025 C 454.162,311.73582 454.15879,310.35806 453.85554,309.01289 C 453.67205,307.59608 453.45297,306.20362 453.49509,304.76202 C 453.31603,303.26469 453.18712,301.76134 452.9005,300.27714 C 452.90021,298.44715 452.92554,296.61533 452.81136,294.78768 C 452.65308,292.97118 452.50188,291.15593 452.21088,289.35363 C 452.20806,287.59287 452.2188,285.83165 452.17437,284.07133 C 452.09843,282.29543 452.06151,280.51508 451.76751,278.75652 C 451.59107,276.95076 451.38422,275.16101 451.41655,273.33661 C 451.25827,271.55397 451.11401,269.77136 450.79972,268.00599 C 450.75145,266.20879 450.74644,264.40622 450.46792,262.62429 C 450.07651,260.22298 449.76371,257.81955 449.46283,255.40529 C 448.99001,252.64765 448.44259,249.91391 448.28343,247.11534 C 448.0433,245.12408 447.90681,243.1354 447.79173,241.13325 C 447.55373,239.20592 447.25004,237.28243 447.28562,235.33538 C 447.20552,233.56074 447.16568,231.781 446.87377,230.02373 C 446.69459,228.20676 446.49212,226.4081 446.52051,224.57288 C 446.36349,222.79102 446.21592,221.011 445.90717,219.24573 C 445.85402,217.48154 445.84555,215.71148 445.58155,213.96166 C 445.28246,212.16616 445.02409,210.37778 444.8822,208.56236 C 444.58516,206.80699 444.32454,205.0575 444.16846,203.28368 C 443.83853,201.49523 443.55818,199.7083 443.32352,197.90533 C 443.0327,196.09589 442.74866,194.29144 442.48948,192.47549 C 442.29379,190.70484 442.10372,188.92606 441.84384,187.1597 C 441.73043,185.37374 441.61994,183.57804 441.4982,181.78685 C 441.23808,179.89926 440.92442,178.01704 440.88606,176.1086 C 440.66706,173.91177 440.38909,171.72039 440.20287,169.52265 C 439.97961,167.152 439.63788,164.80457 439.3114,162.44747 C 438.86425,159.53057 438.29543,156.63877 437.78664,153.73191 C 437.51119,151.58032 437.36208,149.42267 437.21526,147.24636 C 436.96761,145.222 436.71693,143.21265 436.81691,141.16614 C 436.74896,139.06466 436.68022,136.96056 436.38934,134.87497 C 436.22185,133.10995 435.97925,131.36436 436.11674,129.58076 C 436.12447,127.78561 436.13292,125.99055 436.11994,124.19542 C 436.18718,122.47724 436.23059,120.75662 436.45431,119.04883 C 436.69063,117.37547 436.91275,115.72028 436.83035,114.02402 C 436.88176,112.6444 436.85128,111.25148 437.21789,109.90582 C 437.49566,108.56662 437.83763,107.23816 438.07646,105.8778 C 438.50722,104.64638 438.93543,103.42305 439.43823,102.22193 C 440.12283,101.13861 440.77782,100.07195 441.62928,99.102594 C 442.54842,97.899907 443.50875,96.707175 444.38302,95.476908 C 445.17602,94.518559 445.91857,93.557762 446.64485,92.557404 C 447.28568,91.342109 447.90971,90.110881 448.73574,89.006662 C 449.29393,87.781145 449.88143,86.574457 450.40772,85.336297 C 450.8203,84.212862 451.22606,83.116061 451.6702,82.0013 C 452.02213,80.880168 452.58452,79.800966 452.58158,78.555572 C 452.60614,77.3776 452.92084,76.251823 452.28235,75.098818 C 451.7502,74.075142 451.36151,72.985817 450.51757,72.153662 C 449.87538,71.350728 449.29792,70.460818 448.45901,69.849701 C 447.57121,69.380747 446.73891,68.787589 445.77225,68.457842 C 444.53634,68.053152 443.32907,67.574592 442.03492,67.367924 C 440.54507,67.107272 439.05912,66.824364 437.55556,66.660096 C 436.3294,66.442276 435.12594,66.117306 433.86739,66.248368 C 432.23408,66.29846 430.59066,66.292796 428.98032,66.615492 C 427.33896,67.138871 425.69584,67.652031 424.07473,68.249977 C 412.67109,73.433493 444.03485,56.231689 434.2553,62.045157 C 432.36003,63.664016 430.34251,65.169232 428.83787,67.188673 C 428.052,68.40665 427.15977,69.566883 426.50427,70.85737 C 425.78634,72.344238 425.08749,73.811022 424.85622,75.475707 C 424.51336,77.0411 424.02297,78.586017 424.3125,80.207823 C 424.68327,81.68381 424.98329,83.169117 425.71282,84.532799 C 426.54122,85.384713 427.17975,86.405227 428.36433,86.899271 C 429.85272,87.605483 431.31061,88.382864 432.95631,88.694889 C 434.83229,89.175353 436.70355,89.707943 438.63017,89.945939 C 440.59886,90.228427 442.56273,90.508357 444.55248,90.600491 C 446.54211,90.751297 448.51104,90.935626 450.49235,90.513814 C 452.83579,90.149038 455.18128,89.816083 457.53479,89.524421 L 442.55641,100.69405 z "
         id="path17874"
         style="fill:#000000;fill-opacity:1;fill-rule:nonzero" />
      <path
         d="M 480.71133,392.76448 C 480.57769,394.88578 480.91371,396.99928 481.14316,399.1035 C 481.30779,400.77719 481.60197,402.43564 481.84658,404.09978 C 481.95477,405.60078 482.1064,407.10057 482.22989,408.59722 C 482.51786,410.81617 482.6132,413.04906 482.84191,415.27439 C 483.12726,418.18108 483.46714,421.07236 483.89446,423.96212 C 484.41342,427.29458 484.8434,430.62858 485.15275,433.98584 C 485.53316,437.56318 485.93036,441.13662 486.37985,444.70593 C 486.6401,447.59594 486.97775,450.47746 487.27964,453.36326 C 487.51295,456.16216 487.84581,458.94965 488.08422,461.74836 C 488.35144,464.60692 488.75567,467.44917 489.13242,470.29459 C 489.57691,472.98755 489.95828,475.68924 490.41003,478.38088 C 490.75033,480.70894 491.02822,483.04358 491.35991,485.37314 C 491.67575,487.66949 491.74835,489.99006 491.86208,492.30238 C 492.17061,494.67462 492.32327,497.05831 492.43671,499.44602 C 492.43628,501.68017 492.69688,503.89508 492.92602,506.11369 C 493.04165,508.422 493.34183,510.71193 493.60404,513.00673 C 493.73285,515.30753 494.03013,517.59059 494.30786,519.87675 C 494.65441,523.09827 494.82172,526.33557 495.01821,529.56965 C 495.32134,532.51013 495.64263,535.44596 495.86503,538.3935 C 496.15361,540.80546 496.41408,543.21852 496.6232,545.63849 C 496.97544,548.40983 497.18822,551.19571 497.44553,553.97529 C 497.64079,557.351 497.93034,560.7138 498.32492,564.07131 C 498.53004,566.56157 498.86881,569.03656 499.18293,571.51437 C 499.58036,573.75774 499.86316,576.01584 500.11576,578.27908 C 500.49055,580.76059 500.6817,583.2637 500.97973,585.75509 C 501.25842,588.11959 501.51255,590.48186 501.84749,592.83965 C 502.12387,595.11942 502.22947,597.41244 502.45462,599.69658 C 502.69276,602.02973 502.9302,604.35712 503.24182,606.68202 C 503.44146,608.67935 503.76515,610.65772 504.09319,612.63687 C 504.22575,614.3056 504.52388,615.94756 504.81979,617.59276 C 505.14011,619.35389 505.61252,621.08443 506.05123,622.81879 C 506.50456,624.75863 507.02159,626.67778 507.44562,628.62395 C 507.96725,630.44 508.21052,632.30394 508.4838,634.166 C 508.55429,635.76073 509.07258,637.25506 509.45207,638.78374 C 509.82067,640.27603 509.96541,641.81814 510.16284,643.34054 C 510.42779,644.95392 510.6212,646.57982 510.83648,648.19956 C 511.14822,649.6152 511.26839,651.05961 511.44003,652.49485 C 511.9831,653.88607 511.54105,654.95331 511.21697,656.27686 C 510.50535,657.54992 509.56751,658.66413 508.68403,659.81741 C 507.73306,660.91627 506.86863,662.08281 505.99811,663.24352 C 505.03214,664.77503 504.24514,666.40444 503.41923,668.01201 C 502.00155,670.6367 500.81869,673.3695 499.65534,676.11299 C 498.65078,678.60501 497.84893,681.16465 497.08943,683.73827 C 496.46565,685.71048 496.1657,687.70484 495.89952,689.73206 C 495.83685,691.32125 496.67404,692.28002 497.4912,693.50782 C 498.88949,694.78875 500.56199,695.67788 502.17703,696.63965 C 503.88104,697.60643 505.77017,698.14421 507.59249,698.81221 C 509.24824,699.5146 511.00998,699.62318 512.76667,699.8135 C 514.52698,700.03442 516.21784,699.7472 517.94366,699.45055 C 519.70219,699.25439 521.43439,698.93049 523.18821,698.66874 C 524.92634,698.24733 526.66529,697.87322 528.39214,697.40113 C 530.06196,697.10541 531.67976,696.5699 533.28943,696.04647 C 537.48874,694.11235 525.35848,700.802 521.33986,703.08799 C 523.34323,701.80352 524.75703,699.84617 526.20474,697.99984 C 527.36735,696.46599 528.30696,694.79971 529.25417,693.13674 C 530.06385,691.30353 530.43671,689.32192 530.83661,687.37029 C 531.16144,685.49189 531.13018,683.58783 531.15347,681.6948 C 531.0258,679.917 530.52078,678.20517 530.10145,676.48221 C 529.74863,674.51516 529.1167,672.63838 528.46103,670.75919 C 528.11508,669.49072 527.17583,668.61386 526.41527,667.60933 C 525.60953,666.80809 524.73999,666.07028 523.88433,665.33743 C 522.89466,664.4867 521.76704,663.82319 520.68521,663.10113 C 519.47576,662.51477 518.38396,661.71 517.23515,661.00004 C 515.7255,660.24716 514.20076,659.5219 512.70316,658.75502 C 511.32003,657.9729 509.92482,657.20592 508.54247,656.42358 C 506.99904,655.58388 505.41062,654.84139 503.81339,654.11186 C 502.54786,653.75005 501.30377,653.37335 500.0373,653.01313 C 498.8298,652.78024 497.59651,652.82958 496.37439,652.7929 C 496.35024,652.78978 495.03084,652.79123 495.0124,652.7912 L 510.13341,641.82343 C 510.1335,641.82343 511.52023,641.84283 511.52211,641.85491 C 512.85059,641.98905 514.20502,641.97315 515.47772,642.45146 C 516.79219,642.86202 518.13097,643.22461 519.37064,643.83525 C 520.9644,644.60302 522.56143,645.36519 524.11497,646.21312 C 525.4925,646.9752 526.85384,647.77293 528.27511,648.45116 C 529.79204,649.27292 531.31893,650.07227 532.85695,650.85453 C 534.03712,651.59176 535.22648,652.31037 536.42723,653.01272 C 537.53286,653.77431 538.66854,654.49659 539.693,655.36881 C 540.62666,656.21418 541.60459,657.01247 542.43274,657.96857 C 543.35474,659.16114 544.33674,660.29863 544.79847,661.77314 C 545.4257,663.7065 546.04482,665.64108 546.42853,667.64171 C 546.91976,669.44219 547.50638,671.224 547.68748,673.09129 C 547.72689,675.12195 547.81557,677.1625 547.49354,679.18947 C 547.19133,681.28237 546.77681,683.34093 546.18928,685.37667 C 545.3416,687.22909 544.51012,689.04994 543.14511,690.61118 C 541.78804,692.59536 540.37681,694.51122 538.73547,696.27642 C 532.10879,700.1229 525.97242,705.33388 518.52112,707.42323 C 516.88378,707.89657 515.25704,708.39576 513.57763,708.71142 C 511.82181,709.11956 510.07349,709.58368 508.2825,709.82 C 506.53219,710.123 504.78283,710.40896 503.01842,710.61781 C 501.20924,710.73063 499.4062,710.91014 497.59418,710.60736 C 495.76365,710.26917 493.93099,709.97975 492.18512,709.28382 C 490.30322,708.51214 488.39295,707.79173 486.61184,706.79563 C 484.84762,705.67068 483.00719,704.62927 481.53305,703.10957 C 480.48433,701.53003 479.34542,700.17153 479.30964,698.15064 C 479.40149,695.89054 479.60006,693.82398 480.43181,691.68028 C 481.15507,689.03757 481.83829,686.38028 482.88183,683.83964 C 484.06534,681.11766 485.1691,678.35196 486.50555,675.70452 C 487.26882,674.0499 488.0142,672.38696 488.96017,670.82712 C 489.73874,669.51823 490.46716,668.22172 491.51129,667.09505 C 492.41246,666.02485 493.35455,664.97816 494.11794,663.81459 C 494.62721,662.82376 495.44633,662.59745 494.94206,661.29016 C 494.7735,659.85466 494.61783,658.40274 494.38036,656.96983 C 494.139,655.35006 493.90435,653.73713 493.69761,652.11047 C 493.47874,650.64457 493.27772,649.1818 493.04561,647.71818 C 492.59012,646.08935 492.18409,644.46539 491.96378,642.78362 C 491.76012,640.9589 491.59406,639.13306 491.04345,637.36666 C 490.61343,635.43944 490.18398,633.51736 489.6362,631.61632 C 489.21802,629.84573 488.78037,628.08357 488.32686,626.32063 C 488.04726,624.65537 487.7185,622.99752 487.62777,621.30867 C 487.32364,619.31509 486.97852,617.32706 486.82757,615.31448 C 486.52146,612.98452 486.22806,610.65825 486.02774,608.31645 C 485.75148,606.04273 485.64717,603.76649 485.42874,601.48697 C 485.10612,599.11858 484.81389,596.75306 484.59665,594.37244 C 484.26191,591.89153 484.09335,589.39805 483.71343,586.92294 C 483.43481,584.64748 483.1917,582.36412 482.75259,580.11036 C 482.4759,577.61631 482.0943,575.1363 481.95975,572.62872 C 481.62888,569.25154 481.38348,565.87406 481.13578,562.49047 C 480.77307,559.74115 480.5811,556.98257 480.23485,554.23103 C 479.97446,551.78342 479.73855,549.33173 479.42091,546.88916 C 479.25497,543.91358 479.01971,540.94556 478.72197,537.97983 C 478.5418,534.79739 478.29307,531.63183 477.86239,528.4745 C 477.61206,526.18258 477.26737,523.90207 477.16342,521.59701 C 476.91944,519.29725 476.57215,517.00985 476.46931,514.69772 C 476.2457,512.44209 475.90663,510.19372 475.95976,507.92135 C 475.85704,505.56318 475.74728,503.20491 475.41905,500.86412 C 475.26102,498.58146 475.1923,496.28948 474.94857,494.01081 C 474.61716,491.69674 474.318,489.3845 474.04887,487.0627 C 473.59553,484.33741 473.28333,481.59441 472.80526,478.87238 C 472.41092,476.00092 471.98703,473.13579 471.67843,470.25287 C 471.46897,467.46173 471.14031,464.68644 470.89279,461.90016 C 470.61855,459.01739 470.24971,456.14619 470.05643,453.25631 C 469.65832,449.66761 469.30955,446.07695 468.93867,442.48563 C 468.51667,439.17016 468.03512,435.86412 467.65779,432.54356 C 467.18505,429.65912 466.629,426.7992 466.43992,423.87833 C 466.17208,421.70427 466.04094,419.52213 465.74127,417.35288 C 465.5472,415.81845 465.3353,414.30386 465.33566,412.7463 C 465.11334,411.06059 464.81868,409.38406 464.64338,407.69667 C 464.45046,405.54694 464.2122,403.39942 464.06196,401.24776 L 480.71133,392.76448 z "
         id="path17876"
         style="fill:#000000;fill-opacity:1;fill-rule:nonzero" />
      <path
         d="M 466.12377,79.082872 C 468.22868,80.482598 470.43054,81.708853 472.61908,82.967577 C 474.52229,84.054546 476.55305,84.888741 478.56219,85.747783 C 480.24739,86.579101 481.90071,87.467042 483.56701,88.334483 C 485.20069,88.948156 486.70192,89.821049 488.21992,90.664429 C 490.41947,91.836735 492.65438,92.932086 494.84527,94.120562 C 497.28049,95.46723 499.77348,96.708576 502.29262,97.890691 C 504.41249,98.74788 506.1786,100.07593 507.97056,101.43363 C 509.75859,102.92671 511.70713,104.20185 513.64113,105.4939 C 515.69145,106.84544 517.79815,108.10872 519.91491,109.34478 C 522.62056,110.67455 525.08485,112.41005 527.61601,114.03464 C 530.6085,116.25791 533.95436,117.92879 537.23543,119.67342 C 541.09125,122.29742 545.19517,124.49049 549.07292,127.08339 C 552.12545,129.18705 555.27828,131.13715 558.47144,133.01403 C 560.74624,134.13237 562.90092,135.45303 565.02233,136.8335 C 567.4864,138.36274 569.96308,139.88019 572.4453,141.3891 C 575.06639,142.95028 577.75607,144.3891 580.39242,145.92478 C 582.59919,146.95375 584.6944,148.18667 586.7826,149.4313 C 588.89609,150.4252 590.86968,151.67502 592.84165,152.91786 C 595.00581,154.05879 597.13482,155.26448 599.2671,156.46114 C 601.82781,157.70846 604.35109,159.02204 606.86846,160.35381 C 608.47723,161.07626 609.91075,162.10276 611.38868,163.0456 C 613.00355,164.62532 612.32906,165.27346 611.56753,166.9461 C 610.07916,168.49279 608.57214,170.01771 607.09968,171.57715 C 606.05597,172.57362 605.30405,173.75309 604.53132,174.95114 C 603.77604,176.61756 603.89673,178.38566 603.89053,180.14777 C 604.43501,182.75662 606.31813,184.49341 608.12611,186.30622 C 610.68353,188.8228 613.63337,190.78758 616.71414,192.57177 C 619.9378,194.36547 623.43143,195.53257 626.93081,196.64517 C 629.07802,197.45107 631.32042,197.68217 633.57318,197.91428 C 635.11866,198.23235 635.92679,197.48776 637.15674,196.85287 C 611.35224,213.36746 620.1149,207.85752 625.21275,202.41369 C 626.49345,201.04306 627.45133,199.46625 628.44306,197.89029 C 629.2755,196.33937 630.16758,194.82141 631.03462,193.28983 C 631.91273,191.75887 632.59818,190.13708 633.30173,188.5224 C 633.85106,187.1096 634.35793,185.68069 634.86889,184.25336 C 635.39882,182.93913 635.04805,181.84729 634.81261,180.53444 C 634.23717,178.72245 633.70606,176.89421 633.16084,175.07552 C 632.71057,173.5927 631.76216,172.39797 630.91246,171.13923 C 629.70314,169.63676 628.24348,168.37801 626.84633,167.06142 C 625.14407,165.58309 623.11726,164.70347 621.11473,163.74426 C 619.45811,162.94455 617.72459,162.52985 615.95036,162.13426 C 614.42195,161.78802 613.10456,162.21585 611.67514,162.60987 C 607.3231,165.02903 620.31958,157.66577 624.64082,155.19202 C 623.75876,155.89808 623.00801,156.72825 622.20166,157.50795 C 621.30157,158.16674 620.76214,159.11806 620.06655,159.94742 C 619.05551,161.41021 618.10066,162.91094 617.1433,164.409 C 616.76104,165.06488 616.31029,165.67374 615.89315,166.30708 L 598.70267,173.62792 C 599.16925,173.06125 599.66716,172.52564 600.10476,171.92509 C 601.06464,170.43732 602.00359,168.9366 602.94049,167.43346 C 603.53709,166.43304 604.05714,165.44175 604.89566,164.64135 C 605.65882,163.82659 606.43106,162.99536 607.31463,162.29693 C 613.31051,158.6697 619.29017,153.0282 626.48101,151.25176 C 628.09191,151.17918 629.67873,150.99564 631.26276,151.48326 C 633.06593,152.07088 634.87019,152.64613 636.58482,153.48051 C 638.70851,154.54149 640.76792,155.68288 642.55444,157.27815 C 644.1227,158.63878 645.68327,159.99172 646.95391,161.64873 C 647.90164,163.05277 648.96622,164.3877 649.45391,166.0466 C 650.01766,167.88498 650.53203,169.73991 651.12017,171.57222 C 651.56547,173.14402 652.1838,174.55272 651.74058,176.22066 C 651.26688,177.74178 650.744,179.22323 650.2138,180.73025 C 649.51371,182.37808 648.92224,184.08145 648.00567,185.62641 C 647.17446,187.19231 646.38552,188.77511 645.4179,190.26639 C 644.50738,191.94813 643.69964,193.72456 642.32175,195.09096 C 636.7765,201.87621 633.60311,203.67499 622.58399,208.5519 C 621.18007,208.70961 619.82955,209.12511 618.38275,208.71791 C 616.12365,208.2785 613.87048,207.83732 611.72098,206.96634 C 608.174,205.73257 604.616,204.46666 601.34016,202.60178 C 598.16595,200.66798 595.18721,198.52547 592.45485,195.98008 C 590.40311,193.84596 588.24181,191.71053 587.36861,188.80204 C 587.28845,186.79249 587.12306,184.79292 587.61606,182.79814 C 588.23994,181.33303 588.68062,179.88445 589.92112,178.77626 C 591.36645,177.18697 592.81571,175.61038 594.41219,174.16556 C 594.87805,173.77398 596.37514,173.2059 595.66154,173.1154 C 594.24249,172.1885 592.8331,171.24832 591.31517,170.48287 C 588.8644,169.11354 586.39229,167.78976 583.85898,166.57713 C 581.64669,165.40108 579.41998,164.24326 577.26283,162.96466 C 575.27793,161.75272 573.27243,160.58091 571.21672,159.49198 C 569.11663,158.2808 566.98689,157.12906 564.85422,155.97605 C 562.25033,154.44586 559.6226,152.95575 557.05601,151.36279 C 554.5028,149.87562 551.88275,148.49475 549.42558,146.85139 C 547.32037,145.51123 545.17058,144.25552 542.97929,143.05982 C 539.8605,141.06667 536.77085,139.02788 533.74721,136.89139 C 529.89618,134.30642 525.79633,132.14343 521.84723,129.7151 C 518.56414,127.90747 515.21263,126.17634 512.18285,123.95711 C 509.62956,122.38424 507.05968,120.84693 504.39825,119.46024 C 502.25698,118.1549 500.10742,116.85952 498.00637,115.48889 C 496.04185,114.15999 494.10904,112.79145 492.2637,111.29868 C 490.52735,110.10852 488.79612,108.9372 486.86716,108.06418 C 484.34174,106.81478 481.80491,105.58016 479.31156,104.27291 C 477.0975,103.0456 474.84795,101.89097 472.56235,100.80104 C 471.05068,100.01311 469.53095,99.248103 467.99129,98.515932 C 466.34959,97.67098 464.71235,96.816615 463.05239,96.007793 C 461.02011,95.100054 458.96757,94.227866 457.05697,93.074425 C 454.88665,91.756793 452.73157,90.399887 450.45812,89.266184 L 466.12377,79.082872 z "
         id="path17878"
         style="fill:#000000;fill-opacity:1;fill-rule:nonzero" />
      <path
         d="M 647.89845,183.92356 C 649.27513,186.47664 651.17845,188.6679 653.01171,190.89163 C 654.33129,192.37741 655.60031,193.90725 656.8782,195.42934 C 658.30531,196.98898 659.8411,198.43548 661.42098,199.83518 C 663.39887,201.59795 665.3491,203.39022 667.2808,205.20323 C 669.38103,207.35494 671.75546,209.20149 674.08582,211.09158 C 677.62556,213.6134 681.03122,216.31266 684.47689,218.96088 C 687.01791,220.87374 689.28014,223.10491 691.64983,225.2171 C 693.64464,226.89776 695.6802,228.51146 697.6184,230.25828 C 700.07174,232.14935 702.21176,234.39998 704.36385,236.61554 C 706.30969,238.62611 708.24083,240.64474 710.24406,242.59816 C 711.21341,243.68403 712.26244,244.69428 713.27073,245.73817 C 714.0902,246.63024 714.96811,247.46607 715.81712,248.33354 C 717.27992,249.85998 718.78358,251.32132 720.37935,252.7056 C 721.60237,253.80696 722.85913,254.86174 724.10157,255.93847 C 725.90044,257.54952 727.81371,259.02399 729.70379,260.52513 C 731.55717,262.00177 733.3133,263.5921 735.10598,265.13584 C 736.47544,266.35124 737.89628,267.49902 739.33245,268.63281 C 740.76637,269.78905 742.07757,271.08463 743.41636,272.34498 C 745.59037,274.46279 747.87671,276.46187 750.20476,278.40894 C 751.64182,279.51367 752.93789,280.78365 754.29941,281.97448 C 755.1544,282.88298 756.03375,283.76311 756.92224,284.63484 C 758.05768,285.82048 759.28397,286.91086 760.49039,288.02521 C 762.57264,289.82401 764.60633,291.67282 766.69008,293.46976 C 768.42775,294.99708 770.23306,296.43731 772.06109,297.85086 C 773.55825,299.0855 774.88835,300.49753 776.31275,301.81692 C 778.00114,303.34595 779.75026,304.80214 781.45408,306.3134 C 783.68303,308.23035 785.86612,310.19627 788.12391,312.08023 C 789.71747,313.34998 791.26131,314.67718 792.76861,316.04572 C 794.17429,317.26617 795.56655,318.50042 796.96947,319.72135 C 797.9,320.4542 798.50278,321.43657 799.20049,322.36919 C 800.00984,323.54491 799.884,324.88606 800.04694,326.20098 C 800.04232,327.47726 799.22139,328.27094 798.60251,329.27108 C 798.06781,330.40519 797.0852,331.18078 796.28217,332.07732 C 795.09003,333.0142 794.08964,334.15643 793.05007,335.24729 C 791.84302,336.29037 791.20282,337.67411 790.44814,339.02385 C 789.53881,340.68287 789.17586,342.52873 788.70361,344.33364 C 788.20619,346.45992 788.47794,348.54744 788.78954,350.66815 C 789.02172,352.60083 790.03686,354.11754 791.02394,355.70856 C 792.03743,357.0202 793.28525,358.05534 794.53117,359.11988 C 795.8525,360.1409 797.3224,360.87169 798.82011,361.58991 C 800.54846,361.87618 802.23977,361.50986 803.94452,361.30903 C 805.63661,361.13296 807.27886,360.81981 808.93693,360.49304 C 810.6008,360.33313 812.2064,360.01027 813.83644,359.70119 C 815.71736,359.18451 817.53606,358.47205 819.33959,357.73494 C 820.24766,357.25705 821.1771,356.79582 822.11761,356.3658 C 817.04339,359.27032 811.96919,362.17485 806.89497,365.07938 C 807.13121,364.93466 807.36745,364.78994 807.6037,364.64522 C 808.85322,364.0933 809.69453,363.04323 810.668,362.16658 C 811.75147,360.77653 812.58555,359.22199 813.46145,357.70028 C 814.32954,356.17137 814.85028,354.51195 815.40815,352.86286 C 815.99812,351.41514 816.1417,349.89001 816.34409,348.36141 C 816.479,346.20029 816.48335,344.03495 816.48279,341.87073 C 816.48698,339.9696 816.09931,338.11628 815.75472,336.26407 C 815.69092,335.01536 814.79076,334.26965 814.20761,333.29098 C 813.35573,332.684 812.5547,331.99844 811.74773,331.32194 C 811.00552,330.56028 810.06756,330.0964 809.22167,329.47782 C 808.27425,328.80503 807.253,328.26637 806.2735,327.65377 C 805.3375,327.14884 804.36472,326.74503 803.4163,326.26254 C 802.26932,325.70547 801.00635,325.76178 799.77582,325.63402 C 798.49292,325.79942 797.2101,326.05414 795.89527,326.20505 C 794.52144,326.49544 793.26216,327.00549 791.94194,327.44896 C 785.99612,330.67076 778.10124,335.36482 805.15576,319.74809 C 804.59778,320.09422 804.10808,320.4938 803.57503,320.87321 L 786.26599,328.04453 C 786.75138,327.57556 787.10971,326.95131 787.73208,326.62804 C 794.0714,322.92591 799.88785,318.43 806.71873,315.99178 C 808.08518,315.62892 809.4319,315.12776 810.86824,315.05832 C 812.24343,314.82648 813.58967,314.52376 814.98626,314.78916 C 816.37223,315.05217 817.76602,315.23313 819.02191,315.94453 C 820.02841,316.44445 821.06109,316.90422 822.00929,317.51636 C 823.00159,318.12503 824.00653,318.71507 824.97965,319.35729 C 825.8775,320.03595 826.81787,320.65224 827.63387,321.43685 C 828.54994,322.15937 829.51915,322.84248 830.29167,323.72056 C 831.0443,324.8902 831.99237,325.92487 832.17032,327.37865 C 832.53777,329.39029 832.91608,331.39505 833.00179,333.45308 C 832.99923,335.63822 833.0463,337.8236 832.99366,340.00826 C 832.8757,341.66246 832.88606,343.34383 832.2714,344.91541 C 831.75978,346.66344 831.24309,348.39772 830.41992,350.04007 C 829.58393,351.6289 828.79978,353.24062 827.81094,354.7453 C 826.94816,355.91856 826.28451,357.13901 824.98864,357.92473 C 818.27671,361.79804 811.90943,366.45335 804.65108,369.21119 C 802.81173,369.87636 800.99062,370.60798 799.05507,370.96584 C 797.38758,371.19006 795.71272,371.39223 794.07004,371.77111 C 792.39878,371.98659 790.72487,372.21251 789.05216,372.43323 C 787.06737,372.54571 785.097,372.74713 783.24986,371.84635 C 781.70564,370.99736 780.1415,370.18808 778.78126,369.04712 C 777.43652,367.83183 776.05962,366.66571 774.98816,365.18085 C 773.88757,363.3387 772.75574,361.57 772.41983,359.37799 C 772.00636,357.08902 771.58465,354.80446 771.99836,352.47724 C 772.3346,350.52424 772.71251,348.56679 773.49602,346.73625 C 774.15252,345.22938 774.69986,343.6835 775.83852,342.44531 C 776.85518,341.32063 777.86466,340.18296 778.95159,339.11376 C 779.86042,338.40076 780.80184,337.76267 781.47418,336.79484 C 782.06201,335.99533 782.54843,335.16433 783.24836,334.46364 C 783.23228,333.58293 783.70172,332.68122 783.0341,331.83311 C 782.39946,331.07089 781.91844,330.18335 781.09562,329.57988 C 779.76805,328.3239 778.45217,327.05599 777.06224,325.86764 C 775.47318,324.56814 773.90615,323.25065 772.4135,321.84025 C 770.22522,319.91316 768.01241,318.01665 765.80522,316.1111 C 763.99613,314.65296 762.20785,313.17151 760.5167,311.57641 C 759.1389,310.26785 757.75322,308.9833 756.28986,307.77221 C 754.51276,306.26569 752.74448,304.74934 751.00161,303.20297 C 748.93946,301.40271 746.83715,299.64928 744.78194,297.84034 C 743.48701,296.76035 742.18957,295.68451 741.0207,294.46518 C 740.15377,293.59213 739.29268,292.71322 738.42719,291.83866 C 737.13209,290.60174 735.86877,289.32988 734.51416,288.15712 C 732.22536,286.13191 729.90401,284.14375 727.64708,282.08309 C 726.28344,280.90267 724.94381,279.69371 723.56181,278.53688 C 722.10713,277.34753 720.64592,276.16496 719.25311,274.90247 C 717.5491,273.35931 715.87074,271.78404 714.08287,270.33526 C 712.14384,268.81134 710.13476,267.37924 708.24206,265.80203 C 707.02552,264.72886 705.81432,263.65058 704.62449,262.54719 C 703.02762,261.0631 701.4833,259.52536 699.87924,258.05068 C 699.01569,257.22424 698.11517,256.43456 697.32335,255.53537 C 696.35125,254.45927 695.36201,253.39845 694.40707,252.30649 C 692.47644,250.29058 690.66116,248.17065 688.66981,246.21238 C 686.5049,244.05442 684.36736,241.86816 681.9205,240.02213 C 679.91419,238.36921 677.93743,236.68186 676.01494,234.93077 C 673.66995,232.84993 671.35,230.73973 668.95644,228.71482 C 665.58105,225.99924 662.17073,223.329 658.6178,220.84614 C 656.13553,219.01308 653.6642,217.1215 651.48977,214.92677 C 649.60295,213.11122 647.71474,211.29403 645.70209,209.61631 C 644.0377,208.18364 642.42802,206.69891 640.99598,205.02385 C 639.69467,203.49736 638.30746,202.04661 637.11615,200.4298 C 635.30922,198.04369 633.52234,195.64174 631.713,193.25863 L 647.89845,183.92356 z "
         id="path17884"
         style="fill:#000000;fill-opacity:1;fill-rule:nonzero" />
      <path
         d="M 788.13037,352.66127 C 785.85123,357.0038 783.41794,361.26672 780.94455,365.50158 C 779.6504,367.70615 778.13292,369.76032 776.6278,371.82094 C 775.1396,374.12478 773.3329,376.20203 771.62142,378.34026 C 769.7528,380.67228 767.91059,383.02462 766.078,385.3849 C 764.77366,387.3031 763.28681,389.06715 761.75133,390.79817 C 759.22195,393.62578 756.61818,396.38458 754.04217,399.16947 C 751.75214,401.71015 749.32456,404.12061 746.90469,406.53581 C 744.71294,408.97825 742.54413,411.44115 740.37385,413.90279 C 738.65162,415.78601 737.07044,417.78989 735.44145,419.75253 C 733.56824,421.93469 731.9843,424.34508 730.35742,426.71072 C 728.88971,428.98385 727.40853,431.23482 726.02025,433.55413 C 724.66723,436.14387 723.18055,438.65493 721.62383,441.12517 C 720.51686,442.88078 719.27286,444.53877 718.0441,446.20804 C 716.84415,447.91835 715.52772,449.54128 714.23722,451.18297 C 712.84298,452.92269 711.46792,454.67593 710.111,456.44465 C 709.31252,457.55028 708.50308,458.65203 707.71845,459.7622 C 706.9525,460.7217 706.26744,461.73395 705.57183,462.746 C 704.73228,463.71417 703.84241,464.63238 702.94399,465.54522 C 701.93896,466.3668 701.23199,467.44889 700.43319,468.44911 C 695.75987,474.56154 693.1103,473.63594 682.37307,479.6157 C 681.0437,479.45982 679.7017,479.47109 678.36561,479.43627 C 676.53626,479.40739 674.70679,479.41339 672.87731,479.41527 C 671.31251,479.27735 669.81445,479.51759 668.28093,479.71846 C 666.84584,480.36071 665.48274,481.11129 664.13347,481.91544 C 663.87481,482.0215 663.61615,482.12756 663.35749,482.23362 C 668.33137,479.39097 673.29598,476.53204 678.27914,473.70568 C 679.73647,472.8791 675.44937,475.50027 674.03902,476.40468 C 667.98447,480.35815 649.00787,490.89748 655.27181,487.28492 C 660.27607,484.39886 675.24611,475.668 670.2869,478.63079 C 668.96596,479.41995 629.38789,502.26219 668.75936,479.53305 C 666.75204,480.59864 665.52561,482.3132 664.25784,484.1214 C 662.97282,486.06737 662.73941,488.15451 662.64302,490.4065 C 662.43458,492.16842 663.30624,493.48276 663.92387,494.96462 C 664.65397,496.07007 665.76719,496.75929 666.74865,497.59971 C 667.79959,498.44904 668.91577,499.21804 670.03504,499.98201 C 671.35865,501.07951 672.9954,501.5316 674.55249,502.14887 C 676.22521,502.71896 677.92551,503.03531 679.66214,503.32089 C 681.10748,503.23226 682.47871,503.57645 683.8789,503.75829 C 685.34829,503.72184 686.72771,503.39472 688.13817,503.01285 C 690.25657,502.40529 692.24596,501.45084 694.26326,500.58757 C 703.20653,497.39343 673.55147,514.83416 683.49555,506.15125 C 684.99034,504.9102 686.19887,503.39023 687.44047,501.9096 C 688.36396,500.88221 689.14324,499.74157 689.94959,498.62763 C 690.5722,497.32941 690.5079,495.88528 690.58632,494.48248 C 690.68823,493.05972 690.65595,491.63792 690.68109,490.21436 C 690.78139,488.91114 690.31472,487.70799 690.01592,486.47696 C 689.5461,485.29544 688.72341,484.32207 688.01911,483.28022 C 687.26818,482.18813 686.41215,481.18531 685.57099,480.16558 C 684.83519,479.35134 683.84322,478.93627 682.90107,478.4194 C 682.35337,478.29393 681.91539,477.94151 681.41631,477.69953 L 697.06968,467.42895 C 697.57228,467.68669 698.07311,467.94328 698.57591,468.20135 C 699.65284,468.92053 700.84507,469.47392 701.62795,470.56251 C 702.46488,471.6264 703.31383,472.67903 704.10632,473.77724 C 704.90188,474.96802 705.80439,476.09894 706.37855,477.42362 C 706.78533,478.81968 707.30498,480.20259 707.29499,481.68389 C 707.34038,483.14559 707.39873,484.59271 707.23067,486.04014 C 707.19245,487.6342 707.20078,489.2347 706.9378,490.81346 C 706.30489,492.20277 705.69194,493.50463 704.58617,494.63221 C 703.29522,496.15528 702.07673,497.73734 700.67637,499.16669 C 694.57422,504.75647 687.32662,508.89627 679.66282,512.14772 C 677.56096,512.94577 675.47645,513.83007 673.2692,514.30879 C 671.69304,514.50941 670.11451,514.84642 668.52736,514.4455 C 667.15498,514.34406 665.76822,514.27851 664.40619,514.04735 C 662.64598,513.61235 660.88759,513.18408 659.17687,512.56549 C 657.46597,511.85916 655.73891,511.17996 654.27015,510.01748 C 653.1376,509.21764 651.98868,508.43564 650.93372,507.53394 C 649.81869,506.589 648.65208,505.71203 647.85501,504.45339 C 646.94617,502.64675 646.04181,501.01012 646.1561,498.86818 C 646.07977,496.34054 646.10397,493.94203 647.33282,491.64167 C 648.46078,489.68693 649.48929,487.62534 651.40694,486.32574 C 656.94505,483.08538 662.48317,479.84504 668.02127,476.60469 C 662.99819,479.5137 647.94292,488.2648 652.952,485.33171 C 658.83096,481.88927 676.53221,471.67251 670.64262,475.09673 C 665.68178,477.98096 660.71424,480.85367 655.75005,483.73214 C 656.08478,483.52928 656.4195,483.32642 656.75423,483.12356 C 663.96204,478.67251 670.90617,473.7841 678.65803,470.22479 C 680.12259,469.51188 681.52982,468.65129 683.20696,468.55314 C 684.78745,468.4879 686.37058,468.39255 687.95755,468.46479 C 689.7852,468.47993 691.61284,468.49444 693.44053,468.50293 C 694.70092,468.48384 696.05252,468.65698 697.22679,468.14287 C 676.62558,479.85579 677.86438,480.81841 683.19375,475.71665 C 684.00408,474.70009 684.88952,473.72799 685.66913,472.6641 C 686.55584,471.77058 687.45493,470.88795 688.33322,469.99169 C 689.10782,469.08694 689.92051,468.20962 690.52612,467.15713 C 691.39089,466.07273 692.24056,464.9882 693.00507,463.8163 C 694.37576,462.01399 695.746,460.20391 697.24184,458.49793 C 698.49214,456.86649 699.70909,455.21726 700.9718,453.59504 C 702.22876,451.94466 703.47422,450.28408 704.63533,448.5618 C 706.32315,446.16872 707.85365,443.68067 709.23071,441.0926 C 710.44936,438.63264 711.83991,436.35818 713.45975,434.13765 C 715.04556,431.72617 716.69668,429.35799 718.33172,426.98063 C 720.05275,425.02351 721.6707,422.98126 723.41624,421.04687 C 725.59116,418.56944 727.80076,416.1246 729.94035,413.61861 C 732.32465,411.11424 734.79625,408.69891 737.2201,406.23091 C 739.70088,403.45681 742.31181,400.79929 744.68943,397.93309 C 746.24704,396.26236 747.79931,394.58412 749.10306,392.70026 C 750.944,390.32836 752.80108,387.96571 754.62263,385.57821 C 756.3202,383.51149 758.07567,381.4716 759.60456,379.28028 C 761.06597,377.09316 762.71895,375.04633 764.24126,372.89547 C 766.76969,368.87267 769.29231,364.786 771.18073,360.42277 L 788.13037,352.66127 z "
         id="path17892"
         style="fill:#000000;fill-opacity:1;fill-rule:nonzero" />
      <path
         d="M 667.22898,498.74836 C 665.735,500.43235 664.08797,501.97514 662.49074,503.56045 C 661.23038,504.73023 660.264,506.1227 659.25818,507.49419 C 658.28666,508.82551 657.50154,510.27676 656.682,511.70155 C 655.85443,513.13402 654.97095,514.52705 654.10779,515.93681 C 652.6413,518.07788 651.23503,520.24388 649.88947,522.45924 C 648.11248,525.72917 646.078,528.84369 644.04706,531.95804 C 642.24814,534.78088 640.3515,537.53852 638.41631,540.26878 C 636.98568,542.28217 635.55484,544.29491 634.10442,546.29407 C 632.72026,548.17066 631.32859,550.04169 629.9308,551.9081 C 628.50159,553.76183 627.14299,555.6672 625.78756,557.57419 C 623.92061,559.82165 622.1168,562.11742 620.34637,564.44121 C 618.70821,566.49745 617.34402,568.74872 615.90648,570.94485 C 614.56871,572.97433 613.13852,574.94108 611.73882,576.92799 C 610.36954,578.85479 608.96851,580.75857 607.56082,582.65736 C 606.1757,584.5951 604.77215,586.51942 603.37335,588.44733 C 601.96955,590.33986 600.55443,592.22375 599.15889,594.12241 C 597.57257,596.53745 595.60736,598.65893 593.69375,600.81185 C 591.92523,602.78689 590.29617,604.87231 588.7022,606.98765 C 587.2907,608.8961 585.89144,610.81338 584.47911,612.72117 C 582.5643,615.09049 580.63806,617.44923 578.76841,619.85423 C 576.87511,622.40577 574.82956,624.83508 572.77234,627.25419 C 569.60219,630.9796 566.14564,634.44857 562.75821,637.97409 C 560.68857,640.09968 558.69731,642.30026 556.67354,644.46847 C 555.65347,645.55446 554.69354,646.69174 553.73925,647.83228 C 552.91323,648.82282 552.10589,649.82753 551.27125,650.81432 C 550.32497,651.83082 549.54981,652.98968 548.70714,654.08427 C 548.02223,654.96153 547.39562,655.86402 546.74694,656.76239 C 546.18733,657.62095 545.74225,658.54959 545.2691,659.45827 C 545.2315,659.84481 544.91622,660.06738 544.73978,660.37194 L 527.5737,667.8726 C 527.77827,667.62837 527.83811,667.26023 528.1874,667.13991 C 528.65716,666.18918 529.21015,665.29396 529.61082,664.3162 C 530.2128,663.32521 530.79386,662.3615 531.53795,661.46911 C 532.3594,660.32696 533.21082,659.19216 534.07744,658.07956 C 534.89094,657.07997 535.77635,656.14281 536.53945,655.11895 C 537.4944,653.9565 538.40478,652.71498 539.53984,651.70693 C 541.57807,649.34194 543.8509,647.19751 546.00683,644.93903 C 549.36029,641.53861 552.70832,638.12273 555.78868,634.46937 C 557.84633,632.08746 559.94561,629.73931 561.762,627.16521 C 563.60306,624.75552 565.53263,622.41781 567.45651,620.07389 C 568.85252,618.14677 570.28759,616.24865 571.70079,614.33465 C 573.27803,612.14616 574.89382,609.9878 576.71072,607.98896 C 578.58194,605.87717 580.54965,603.83007 582.16143,601.506 C 583.53266,599.58104 584.93461,597.68207 586.33625,595.77886 C 587.77511,593.88381 589.19862,591.97541 590.53766,590.00775 C 591.92484,588.0986 593.35448,586.22173 594.74119,584.31256 C 596.12297,582.31802 597.54113,580.35039 598.95175,578.37643 C 600.43188,576.16957 601.80175,573.89183 603.3457,571.72963 C 605.14381,569.42695 606.88778,567.08024 608.79584,564.86591 C 610.18675,563.01153 611.46736,561.07862 612.90391,559.25465 C 614.27745,557.37188 615.69202,555.51985 617.08952,553.65544 C 618.53733,551.63805 620.02296,549.64895 621.45894,547.62319 C 623.46688,544.89227 625.4444,542.13762 627.31605,539.31035 C 629.27756,536.22344 631.26059,533.15109 633.12537,530.00397 C 634.26545,527.68286 635.50568,525.48468 637.09735,523.43504 C 637.99488,522.07213 638.80286,520.68124 639.61444,519.27311 C 640.46404,517.83128 641.31609,516.39281 642.16982,514.94865 C 643.1182,513.46409 644.01819,511.91989 645.36523,510.74093 C 646.87068,509.13502 648.41737,507.56556 650.02675,506.05716 L 667.22898,498.74836 z "
         id="path17894"
         style="fill:#000000;fill-opacity:1;fill-rule:nonzero" />
      <path
         d="M 325.41772,369.69004 C 368.93377,344.60288 293.63481,387.74483 336.39241,363.41073 C 335.41176,364.03081 334.61262,364.86365 333.78396,365.63556 C 333.02419,366.57003 332.46459,367.62189 331.83153,368.6409 C 331.37895,369.78898 331.17307,371.02172 330.91696,372.22576 C 330.81483,373.8512 330.93535,375.4842 330.99827,377.11013 C 330.98461,378.81375 331.10963,380.50882 331.21838,382.20393 C 331.38078,383.93715 332.09699,385.48218 332.74808,387.05926 C 333.33925,388.23403 334.32545,389.06798 335.18654,390.01974 C 336.28614,391.18941 337.55278,392.1359 338.83853,393.08939 C 340.42696,394.29732 342.23036,395.14995 343.96836,396.10778 C 346.31917,397.15523 348.77023,397.96275 351.20576,398.7876 C 353.117,399.70978 354.98538,399.66578 357.00439,399.63968 C 358.7732,399.27633 360.37984,398.47224 362.00092,397.71114 C 366.04613,395.2999 353.75314,402.25948 349.64785,404.56695 C 351.12524,403.58858 352.38536,402.34439 353.65858,401.12462 C 355.3403,399.33335 356.82208,397.37579 358.31751,395.43111 C 359.73713,393.69262 360.97038,391.81306 362.22157,389.9531 C 363.50726,388.01915 364.58499,385.97743 365.60163,383.89509 C 366.50287,382.09969 367.19369,380.22513 367.88004,378.34073 C 368.85306,375.51461 369.44853,372.60058 369.98153,369.66829 C 370.4493,367.51057 370.22581,365.36308 370.05054,363.19616 C 369.89038,361.36694 369.53343,359.56064 369.23049,357.75087 C 369.19514,355.88784 368.11476,355.28128 367.06731,354.06937 C 365.15596,353.01462 362.93819,352.62481 360.82762,352.11326 C 358.59295,351.62197 356.31228,351.56437 354.03912,351.46525 C 352.05802,351.32032 350.11551,351.61697 348.15431,351.84272 C 345.35684,352.10488 342.72976,353.21826 340.07845,354.08735 C 336.69185,355.14909 306.50008,373.08248 350.74116,347.55636 C 349.3848,348.28503 348.52236,349.56132 347.57411,350.72867 C 346.47979,352.05586 345.74583,353.60986 344.94131,355.11561 C 344.04593,356.57577 343.34238,358.13747 342.59717,359.67569 C 341.99753,360.88864 341.29004,362.04635 340.63741,363.22247 C 340.34095,363.86876 339.7648,364.32183 339.33665,364.86124 L 322.0764,372.14501 C 322.54775,371.66415 322.93054,371.11528 323.48319,370.70984 C 324.25796,369.60725 325.06352,368.55161 325.58306,367.2789 C 326.35512,365.74808 327.1548,364.20575 327.94684,362.67403 C 328.75354,361.14147 329.55705,359.59245 330.44311,358.0964 C 331.42413,356.84502 332.29695,355.52938 333.35079,354.33664 C 340.31211,350.28048 346.89383,345.11974 354.69295,342.76828 C 357.42637,341.89357 360.16115,340.94734 363.05131,340.77083 C 365.08342,340.57012 367.11486,340.41782 369.15773,340.5891 C 371.4588,340.82092 373.76641,341.02279 376.01488,341.60822 C 378.39447,342.22646 380.87741,342.61809 382.85375,344.18232 C 384.20651,345.67259 385.454,346.80383 385.63913,348.98253 C 385.96102,350.84812 386.37013,352.71179 386.54343,354.59863 C 386.74094,356.91688 387.0421,359.23398 386.56553,361.54558 C 386.04019,364.53231 385.46045,367.50855 384.65691,370.43705 C 384.02638,372.38233 383.53653,374.40194 382.45961,376.1624 C 381.50606,378.32444 380.53821,380.48151 379.19872,382.44279 C 378.01776,384.39854 376.71886,386.27219 375.39793,388.13773 C 373.83274,390.07238 372.36429,392.08067 370.71761,393.94865 C 369.55695,395.31463 368.4069,396.60629 367.0048,397.72668 C 360.52889,401.61483 354.35172,406.26777 347.36452,409.24642 C 345.61043,409.93035 343.91718,410.69236 341.97626,410.63912 C 339.88874,410.33529 337.82341,410.08438 335.87885,409.13811 C 333.36612,408.25455 330.80054,407.45169 328.40239,406.29067 C 326.6041,405.25786 324.76246,404.28464 323.09346,403.0425 C 321.77447,402.01791 320.44792,401.01874 319.29282,399.80232 C 318.25841,398.69209 317.17768,397.63736 316.50581,396.24914 C 315.80416,394.49469 315.04608,392.76876 314.73776,390.88242 C 314.55888,389.12682 314.344,387.3929 314.43282,385.61631 C 314.367,383.93045 314.30379,382.24489 314.19212,380.56126 C 314.40601,379.21972 314.56758,377.85098 314.87294,376.49214 C 315.36589,375.32513 315.65974,374.02448 316.65002,373.15371 C 317.40267,372.11039 317.80992,370.95129 319.06827,370.32547 C 373.54527,337.75349 285.8893,389.60546 339.94358,357.93793 L 325.41772,369.69004 z "
         id="path17896"
         style="fill:#000000;fill-opacity:1;fill-rule:nonzero" />
      <path
         d="M 611.28231,328.24121 C 609.05973,329.89477 606.90686,331.63023 604.78584,333.41153 C 603.1324,334.75469 601.76895,336.3687 600.39154,337.97677 C 599.54596,339.13157 598.92102,340.42806 598.24167,341.68373 C 597.39796,343.31548 597.72346,345.05744 597.80745,346.81553 C 597.96018,348.56145 598.05366,350.31168 598.152,352.06104 C 598.20318,354.12222 598.98348,355.99005 599.65047,357.89341 C 600.31992,359.65806 601.55988,360.81478 602.87201,362.05657 C 605.18952,363.19657 607.64494,364.02562 610.05977,364.92751 C 612.23247,365.5467 614.45056,365.95383 616.67188,366.34714 C 619.87044,367.08438 623.01434,367.99829 626.23128,368.67136 C 628.89788,369.1658 631.55894,369.56013 634.26103,369.79577 C 636.37365,369.92819 638.49105,369.90584 640.6065,369.90989 C 644.03177,369.19876 668.86857,354.79617 630.81067,375.59005 C 633.85072,373.15454 636.18747,370.06886 638.45502,366.94334 C 639.67912,365.25232 640.69487,363.42985 641.7323,361.62321 C 642.5916,360.12773 643.23185,358.53135 643.90439,356.95554 C 644.55644,354.88214 644.32808,352.81205 644.14095,350.6965 C 643.55073,347.27311 642.51638,343.94756 641.58943,340.6051 C 640.60222,337.07297 639.38302,333.61615 638.22989,330.13658 C 637.50842,327.74667 636.32393,325.58193 635.13768,323.41182 C 633.78913,321.98896 632.17429,322.10074 630.38981,321.8846 C 628.2381,321.87916 626.11236,322.0288 623.98161,322.30597 C 621.53092,322.47037 619.12355,322.95835 616.713,323.38555 C 613.88896,323.96548 611.08545,324.67376 608.29941,325.3936 C 604.36494,327.29835 615.81012,320.91817 619.60355,318.74607 C 618.39438,319.56162 617.33249,320.56171 616.25566,321.53843 C 615.29151,322.42898 614.63235,323.5565 613.8673,324.59945 C 613.19057,325.72966 612.64295,326.94113 612.06562,328.12684 C 611.4692,329.18 610.88077,330.23812 610.27653,331.2861 L 593.21098,338.82462 C 593.80074,337.8037 594.43446,336.79528 594.99586,335.75008 C 595.64582,334.59624 596.34433,333.44221 596.75382,332.16787 C 597.47065,330.98051 598.16037,329.80503 599.04326,328.72512 C 600.08995,327.64994 601.06015,326.5323 602.2468,325.60646 C 608.99271,321.64219 615.29538,316.10691 622.99919,314.11031 C 625.83758,313.49372 628.65452,312.78358 631.50099,312.20791 C 633.94317,311.8355 636.3836,311.46771 638.84519,311.24407 C 641.06115,311.0717 643.28751,310.86337 645.50901,311.10249 C 647.79636,311.59675 649.74428,312.1065 651.23729,314.06022 C 652.41448,316.40495 653.57087,318.74764 654.27714,321.30071 C 655.52795,324.78051 656.72892,328.26959 657.6573,331.85336 C 658.71428,335.21163 659.74786,338.57919 660.41791,342.04215 C 660.83359,344.35457 661.22451,346.58506 660.71954,348.93852 C 660.18419,350.68482 659.71247,352.40465 658.68813,353.96529 C 657.65262,355.8873 656.67419,357.84466 655.37802,359.61684 C 653.05337,362.79872 650.75813,366.02043 647.83308,368.69518 C 640.78939,373.04777 634.19481,380.44687 625.54871,380.83868 C 623.42232,380.79099 621.2936,380.77004 619.17573,380.54361 C 616.47612,380.20391 613.80291,379.75263 611.14007,379.18646 C 607.92615,378.41196 604.74632,377.48557 601.48049,376.94335 C 599.18749,376.53302 596.8823,376.13413 594.69826,375.29181 C 592.12658,374.26932 589.49103,373.33994 587.09108,371.94834 C 585.6589,370.43655 584.24908,369.01084 583.47883,367.00496 C 582.63765,364.97256 581.87117,362.92959 581.649,360.71666 C 581.52077,358.94252 581.38641,357.15907 581.3183,355.37381 C 581.15819,353.40503 580.81889,351.40634 581.23704,349.4525 C 581.91364,348.08604 582.59189,346.72725 583.2992,345.36429 C 584.64737,343.60851 585.93557,341.79418 587.67768,340.38229 C 589.69588,338.58261 591.72593,336.77828 593.95039,335.23692 L 611.28231,328.24121 z "
         id="path17898"
         style="fill:#000000;fill-opacity:1;fill-rule:nonzero" />
      <text
         sodipodi:linespacing="125%"
         id="text17922"
         y="90.472786"
         x="426.17059"
         style="font-size:43.04310226px;font-style:normal;font-variant:normal;font-weight:bold;font-stretch:normal;text-align:start;line-height:125%;writing-mode:lr-tb;text-anchor:start;fill:#00ff00;fill-opacity:1;stroke:none;stroke-width:1px;stroke-linecap:butt;stroke-linejoin:miter;stroke-opacity:1;font-family:Bitstream Vera Sans"
         xml:space="preserve"><tspan
           y="90.472786"
           x="426.17059"
           id="tspan17924"
           sodipodi:role="line">1</tspan></text>
      <text
         sodipodi:linespacing="125%"
         id="text20833"
         y="243.54366"
         x="292.87708"
         style="font-size:43.04310226px;font-style:normal;font-variant:normal;font-weight:bold;font-stretch:normal;text-align:start;line-height:125%;writing-mode:lr-tb;text-anchor:start;fill:#ff00ff;fill-opacity:1;stroke:none;stroke-width:1px;stroke-linecap:butt;stroke-linejoin:miter;stroke-opacity:1;font-family:Bitstream Vera Sans"
         xml:space="preserve"><tspan
           y="243.54366"
           x="292.87708"
           id="tspan20835"
           sodipodi:role="line">2</tspan></text>
      <text
         sodipodi:linespacing="125%"
         id="text20837"
         y="437.89307"
         x="141.87178"
         style="font-size:43.04310226px;font-style:normal;font-variant:normal;font-weight:bold;font-stretch:normal;text-align:start;line-height:125%;writing-mode:lr-tb;text-anchor:start;fill:#00ff00;fill-opacity:1;stroke:none;stroke-width:1px;stroke-linecap:butt;stroke-linejoin:miter;stroke-opacity:1;font-family:Bitstream Vera Sans"
         xml:space="preserve"><tspan
           y="437.89307"
           x="141.87178"
           id="tspan20839"
           sodipodi:role="line">3</tspan></text>
      <text
         sodipodi:linespacing="125%"
         id="text20841"
         y="389.31439"
         x="334.84036"
         style="font-size:43.04310226px;font-style:normal;font-variant:normal;font-weight:bold;font-stretch:normal;text-align:start;line-height:125%;writing-mode:lr-tb;text-anchor:start;fill:#ff0000;fill-opacity:1;stroke:none;stroke-width:1px;stroke-linecap:butt;stroke-linejoin:miter;stroke-opacity:1;font-family:Bitstream Vera Sans"
         xml:space="preserve"><tspan
           y="389.31439"
           x="334.84036"
           id="tspan20843"
           sodipodi:role="line">0</tspan></text>
      <text
         sodipodi:linespacing="125%"
         id="text20845"
         y="581.90741"
         x="311.42923"
         style="font-size:43.04310226px;font-style:normal;font-variant:normal;font-weight:bold;font-stretch:normal;text-align:start;line-height:125%;writing-mode:lr-tb;text-anchor:start;fill:#ff00ff;fill-opacity:1;stroke:none;stroke-width:1px;stroke-linecap:butt;stroke-linejoin:miter;stroke-opacity:1;font-family:Bitstream Vera Sans"
         xml:space="preserve"><tspan
           y="581.90741"
           x="311.42923"
           id="tspan20847"
           sodipodi:role="line">4</tspan></text>
      <text
         sodipodi:linespacing="125%"
         id="text20849"
         y="378.48703"
         x="460.66077"
         style="font-size:43.04310226px;font-style:normal;font-variant:normal;font-weight:bold;font-stretch:normal;text-align:start;line-height:125%;writing-mode:lr-tb;text-anchor:start;fill:#ff00ff;fill-opacity:1;stroke:none;stroke-width:1px;stroke-linecap:butt;stroke-linejoin:miter;stroke-opacity:1;font-family:Bitstream Vera Sans"
         xml:space="preserve"><tspan
           y="378.48703"
           x="460.66077"
           id="tspan20851"
           sodipodi:role="line">6</tspan></text>
      <text
         sodipodi:linespacing="125%"
         id="text20853"
         y="695.86047"
         x="498.44681"
         style="font-size:43.04310226px;font-style:normal;font-variant:normal;font-weight:bold;font-stretch:normal;text-align:start;line-height:125%;writing-mode:lr-tb;text-anchor:start;fill:#00ff00;fill-opacity:1;stroke:none;stroke-width:1px;stroke-linecap:butt;stroke-linejoin:miter;stroke-opacity:1;font-family:Bitstream Vera Sans"
         xml:space="preserve"><tspan
           y="695.86047"
           x="498.44681"
           id="tspan20855"
           sodipodi:role="line">5</tspan></text>
      <text
         sodipodi:linespacing="125%"
         id="text20857"
         y="196.38054"
         x="607.13062"
         style="font-size:43.04310226px;font-style:normal;font-variant:normal;font-weight:bold;font-stretch:normal;text-align:start;line-height:125%;writing-mode:lr-tb;text-anchor:start;fill:#ff00ff;fill-opacity:1;stroke:none;stroke-width:1px;stroke-linecap:butt;stroke-linejoin:miter;stroke-opacity:1;font-family:Bitstream Vera Sans"
         xml:space="preserve"><tspan
           y="196.38054"
           x="607.13062"
           id="tspan20859"
           sodipodi:role="line">7</tspan></text>
      <text
         sodipodi:linespacing="125%"
         id="text20861"
         y="361.70868"
         x="594.15387"
         style="font-size:43.04310226px;font-style:normal;font-variant:normal;font-weight:bold;font-stretch:normal;text-align:start;line-height:125%;writing-mode:lr-tb;text-anchor:start;fill:#ff0000;fill-opacity:1;stroke:none;stroke-width:1px;stroke-linecap:butt;stroke-linejoin:miter;stroke-opacity:1;font-family:Bitstream Vera Sans"
         xml:space="preserve"><tspan
           y="361.70868"
           x="594.15387"
           id="tspan20863"
           sodipodi:role="line">10</tspan></text>
      <text
         sodipodi:linespacing="125%"
         id="text20865"
         y="358.2132"
         x="787.85626"
         style="font-size:43.04310226px;font-style:normal;font-variant:normal;font-weight:bold;font-stretch:normal;text-align:start;line-height:125%;writing-mode:lr-tb;text-anchor:start;fill:#00ff00;fill-opacity:1;stroke:none;stroke-width:1px;stroke-linecap:butt;stroke-linejoin:miter;stroke-opacity:1;font-family:Bitstream Vera Sans"
         xml:space="preserve"><tspan
           y="358.2132"
           x="787.85626"
           id="tspan20867"
           sodipodi:role="line">8</tspan></text>
      <text
         sodipodi:linespacing="125%"
         id="text20869"
         y="508.17853"
         x="662.01855"
         style="font-size:43.04310226px;font-style:normal;font-variant:normal;font-weight:bold;font-stretch:normal;text-align:start;line-height:125%;writing-mode:lr-tb;text-anchor:start;fill:#ff00ff;fill-opacity:1;stroke:none;stroke-width:1px;stroke-linecap:butt;stroke-linejoin:miter;stroke-opacity:1;font-family:Bitstream Vera Sans"
         xml:space="preserve"><tspan
           y="508.17853"
           x="662.01855"
           id="tspan20871"
           sodipodi:role="line">9</tspan></text>
    </g>
  </g>
</svg>
