<?xml version="1.0" encoding="UTF-8" standalone="no"?>
<!-- Created with Inkscape (http://www.inkscape.org/) -->
<svg
   xmlns:dc="http://purl.org/dc/elements/1.1/"
   xmlns:cc="http://web.resource.org/cc/"
   xmlns:rdf="http://www.w3.org/1999/02/22-rdf-syntax-ns#"
   xmlns:svg="http://www.w3.org/2000/svg"
   xmlns="http://www.w3.org/2000/svg"
   xmlns:sodipodi="http://sodipodi.sourceforge.net/DTD/sodipodi-0.dtd"
   xmlns:inkscape="http://www.inkscape.org/namespaces/inkscape"
   width="792pt"
   height="612pt"
   id="svg17843"
   sodipodi:version="0.32"
   inkscape:version="0.45.1"
   sodipodi:docbase="/dynamics/Presentations/figures/Design"
   sodipodi:docname="DoubletP1NumberedWithData.svg"
   inkscape:output_extension="org.inkscape.output.svg.inkscape">
  <defs
     id="defs17845" />
  <sodipodi:namedview
     inkscape:document-units="in"
     pagecolor="#ffffff"
     bordercolor="#666666"
     borderopacity="1.0"
     inkscape:pageopacity="0.0"
     inkscape:pageshadow="2"
     inkscape:zoom="1.3195079"
     inkscape:cx="521.26951"
     inkscape:cy="323.49829"
     inkscape:current-layer="layer1"
     id="namedview17847"
     inkscape:window-width="1595"
     inkscape:window-height="1145"
     inkscape:window-x="1"
     inkscape:window-y="15" />
  <metadata
     id="metadata17849">
    <rdf:RDF>
      <cc:Work
         rdf:about="">
        <dc:format>image/svg+xml</dc:format>
        <dc:type
           rdf:resource="http://purl.org/dc/dcmitype/StillImage" />
      </cc:Work>
    </rdf:RDF>
  </metadata>
  <g
     inkscape:label="Layer 1"
     inkscape:groupmode="layer"
     id="layer1">
    <g
       id="g65873">
      <path
         d="M 329.09747,369.47684 C 371.85623,345.0003 297.86765,387.09218 339.88117,363.35037 C 338.91758,363.95535 338.13235,364.76793 337.31811,365.52105 C 336.57157,366.43277 336.0217,367.45903 335.39966,368.45323 C 334.95495,369.57337 334.75266,370.77611 334.501,371.95084 C 334.40065,373.53671 334.51908,375.12997 334.58091,376.71632 C 334.56748,378.37847 334.69032,380.03229 334.79718,381.68614 C 334.95676,383.37718 335.6605,384.8846 336.30026,386.42329 C 336.88114,387.56947 337.85018,388.38312 338.69629,389.31171 C 339.77675,390.45291 341.02135,391.37637 342.28472,392.30665 C 343.84551,393.48518 345.61753,394.31706 347.32529,395.25157 C 349.63519,396.27352 352.04359,397.06139 354.43673,397.86617 C 356.31471,398.7659 358.15058,398.72297 360.13445,398.6975 C 361.87248,398.343 363.45117,397.55848 365.04403,396.8159 C 369.01884,394.46336 356.93978,401.25354 352.90594,403.50484 C 354.35761,402.55029 355.5958,401.33638 356.84687,400.1463 C 358.49932,398.39863 359.95532,396.48872 361.42473,394.59137 C 362.81964,392.8952 364.03142,391.06138 365.26084,389.2467 C 366.52416,387.35982 367.58314,385.36779 368.58208,383.33613 C 369.46764,381.58444 370.14644,379.75551 370.82084,377.91697 C 371.77693,375.15964 372.36204,372.31654 372.88577,369.45562 C 373.34539,367.35042 373.12579,365.25519 372.95356,363.14102 C 372.7962,361.35633 372.44545,359.59399 372.14779,357.82827 C 372.11305,356.01059 371.05147,355.41879 370.02226,354.23637 C 368.14416,353.2073 365.96499,352.82698 363.89115,352.32788 C 361.69537,351.84855 359.45439,351.79234 357.22079,351.69564 C 355.27417,351.55424 353.36546,351.84367 351.43839,352.06393 C 348.6896,352.3197 346.10824,353.40598 343.50307,354.25392 C 340.1754,355.28981 310.50904,372.7867 353.98022,347.88189 C 352.64746,348.59282 351.80003,349.83806 350.86828,350.97699 C 349.79301,352.27187 349.07182,353.78805 348.2813,355.25715 C 347.4015,356.68177 346.7102,358.20546 345.97795,359.70624 C 345.38875,360.88967 344.69357,362.0192 344.0523,363.16669 C 343.76099,363.79725 343.19487,364.23929 342.77418,364.76557 L 325.81429,371.87205 C 326.27744,371.4029 326.65358,370.86739 327.19661,370.47181 C 327.95789,369.39607 328.74943,368.36612 329.25993,367.12439 C 330.01856,365.63083 330.80431,364.12604 331.58257,362.6316 C 332.37523,361.13634 333.16476,359.62502 334.0354,358.16539 C 334.99935,356.94447 335.85699,355.66085 336.89248,354.49714 C 343.73266,350.5397 350.19984,345.50459 357.86324,343.21035 C 360.54909,342.35693 363.23628,341.43374 366.07615,341.26152 C 368.07289,341.0657 370.06897,340.91711 372.0763,341.08421 C 374.33733,341.31039 376.60478,341.50735 378.81412,342.07853 C 381.15229,342.68172 383.59203,343.06382 385.53397,344.58997 C 386.86319,346.04398 388.08897,347.14768 388.27088,349.27335 C 388.58717,351.09354 388.98915,352.91184 389.15945,354.75275 C 389.35352,357.01458 389.64943,359.27528 389.18115,361.53062 C 388.66496,364.44464 388.09531,367.34845 387.30575,370.20566 C 386.6862,372.1036 386.20487,374.07405 385.14669,375.79166 C 384.20974,377.90108 383.25872,380.00565 381.94254,381.91919 C 380.78214,383.82733 379.50584,385.65538 378.2079,387.47551 C 376.66995,389.36307 375.22706,391.32248 373.60903,393.145 C 372.46857,394.47773 371.33854,395.73794 369.96084,396.83107 C 363.59762,400.62458 357.52794,405.16427 350.66234,408.07042 C 348.93878,408.7377 347.275,409.48116 345.36785,409.42922 C 343.31665,409.13279 341.28727,408.88798 339.37655,407.96475 C 336.90754,407.10269 334.38661,406.31937 332.03019,405.18661 C 330.2632,404.17894 328.45361,403.2294 326.81366,402.0175 C 325.51762,401.01785 324.21416,400.043 323.07915,398.85618 C 322.06274,397.77298 321.00083,396.74392 320.34065,395.38949 C 319.6512,393.67775 318.90632,391.99383 318.60336,390.15339 C 318.42759,388.44053 318.21646,386.74882 318.30373,385.01546 C 318.23906,383.37064 318.17694,381.7261 318.06722,380.08345 C 318.27739,378.77457 318.43615,377.43915 318.73619,376.11338 C 319.22056,374.97477 319.5093,373.70578 320.48235,372.85621 C 321.22189,371.83828 321.62207,370.70739 322.85851,370.0968 C 376.38749,338.31763 290.25694,388.90752 343.37054,358.01078 L 329.09747,369.47684 z "
         id="path17896"
         style="fill:#000000;fill-opacity:1;fill-rule:nonzero" />
      <path
         d="M 609.98733,329.03688 C 607.80342,330.65019 605.68802,332.34341 603.60391,334.08135 C 601.97924,335.39182 600.63952,336.96655 599.28609,338.53547 C 598.45522,339.66217 597.84115,340.9271 597.17362,342.1522 C 596.3446,343.74423 596.66443,345.4438 596.74696,347.1591 C 596.89704,348.86252 596.98888,350.57015 597.08551,352.27693 C 597.1358,354.28794 597.90252,356.11031 598.55791,357.96734 C 599.21571,359.68903 600.43409,360.8176 601.72339,362.02917 C 604.00056,363.14142 606.41325,363.95029 608.78606,364.83023 C 610.92095,365.43435 613.10044,365.83157 615.2831,366.21531 C 618.42601,366.9346 621.5152,367.82626 624.67615,368.48296 C 627.29634,368.96536 629.91109,369.35009 632.56616,369.57999 C 634.64202,369.70919 636.72257,369.68738 638.80121,369.69134 C 642.16687,368.99752 666.57145,354.94549 629.17585,375.23324 C 632.16299,372.85701 634.45908,369.84644 636.68717,366.79699 C 637.88996,365.14714 638.88804,363.36902 639.90741,361.60636 C 640.75176,360.14727 641.38087,358.58975 642.0417,357.0523 C 642.68241,355.02936 642.45803,353.00966 642.27415,350.9456 C 641.6942,347.60554 640.67785,344.36093 639.76703,341.09982 C 638.797,337.65367 637.59902,334.28098 636.46595,330.88611 C 635.75704,328.55438 634.59317,326.44232 633.42756,324.32503 C 632.10248,322.93681 630.51573,323.04586 628.76231,322.83499 C 626.64805,322.82967 624.5593,322.97567 622.46563,323.2461 C 620.05759,323.4065 617.69211,323.8826 615.32351,324.2994 C 612.54862,324.86522 609.79389,325.55626 607.05634,326.25857 C 603.19034,328.11696 614.43634,321.89207 618.16376,319.77285 C 616.97563,320.56855 615.93222,321.54429 614.87413,322.49724 C 613.92675,323.36612 613.27907,324.46619 612.52734,325.48376 C 611.86238,326.58645 611.32429,327.76844 610.75701,328.92529 C 610.17097,329.95282 609.59277,330.98518 608.99905,332.00765 L 592.23048,339.36269 C 592.80998,338.36662 593.43267,337.38274 593.9843,336.36298 C 594.62295,335.23723 595.3093,334.11128 595.71167,332.86796 C 596.41602,331.7095 597.09374,330.56263 597.96126,329.50901 C 598.98974,328.46 599.94306,327.36956 601.10906,326.46625 C 607.73757,322.59848 613.93056,317.19792 621.5003,315.24992 C 624.28931,314.64834 627.05722,313.95548 629.85416,313.39383 C 632.25383,313.03048 634.6518,312.67164 637.07055,312.45345 C 639.24795,312.28527 641.43556,312.08201 643.6184,312.31531 C 645.86595,312.79754 647.77997,313.29489 649.247,315.20105 C 650.4037,317.48871 651.53996,319.77438 652.23394,322.26531 C 653.46299,325.66041 654.64305,329.06456 655.55528,332.56111 C 656.59387,335.83763 657.60946,339.12323 658.26785,342.5019 C 658.6763,344.75804 659.06042,346.93424 658.56423,349.23041 C 658.0382,350.93421 657.57469,352.61218 656.56817,354.13483 C 655.55068,356.01006 654.58928,357.91977 653.31566,359.64882 C 651.03147,362.75325 648.77617,365.89654 645.90203,368.50619 C 638.98092,372.75284 632.5011,379.97184 624.00546,380.35412 C 621.91607,380.30759 619.8244,380.28715 617.74339,380.06623 C 615.09076,379.7348 612.46406,379.29451 609.84756,378.74211 C 606.68957,377.98647 603.56508,377.08263 600.35608,376.5536 C 598.10299,376.15326 595.83792,375.76408 593.69188,374.94227 C 591.16495,373.94466 588.57527,373.0379 586.21708,371.68017 C 584.80983,370.20518 583.42454,368.81417 582.66769,366.85711 C 581.84116,364.87418 581.08801,362.88094 580.86971,360.72187 C 580.74371,358.99091 580.61169,357.25088 580.54476,355.50906 C 580.38744,353.58821 580.05404,351.63816 580.46492,349.73188 C 581.12975,348.39868 581.79619,347.07296 582.49119,345.74318 C 583.8159,344.03013 585.08168,342.25997 586.79348,340.88244 C 588.77655,339.12657 590.77128,337.36615 592.95703,335.86231 L 609.98733,329.03688 z "
         id="path17898"
         style="fill:#000000;fill-opacity:1;fill-rule:nonzero" />
      <text
         transform="scale(1.0035491,0.9964635)"
         sodipodi:linespacing="125%"
         id="text17922"
         y="97.400223"
         x="426.58304"
         style="font-size:42.14447403px;font-style:normal;font-variant:normal;font-weight:bold;font-stretch:normal;text-align:start;line-height:125%;writing-mode:lr-tb;text-anchor:start;fill:#00ff00;fill-opacity:1;stroke:none;stroke-width:1px;stroke-linecap:butt;stroke-linejoin:miter;stroke-opacity:1;font-family:Bitstream Vera Sans"
         xml:space="preserve"><tspan
           y="97.400223"
           x="426.58304"
           id="tspan17924"
           sodipodi:role="line">1</tspan></text>
      <text
         transform="scale(1.0035491,0.9964635)"
         sodipodi:linespacing="125%"
         id="text20837"
         y="437.56732"
         x="148.21962"
         style="font-size:42.14447403px;font-style:normal;font-variant:normal;font-weight:bold;font-stretch:normal;text-align:start;line-height:125%;writing-mode:lr-tb;text-anchor:start;fill:#00ff00;fill-opacity:1;stroke:none;stroke-width:1px;stroke-linecap:butt;stroke-linejoin:miter;stroke-opacity:1;font-family:Bitstream Vera Sans"
         xml:space="preserve"><tspan
           y="437.56732"
           x="148.21962"
           id="tspan20839"
           sodipodi:role="line">3</tspan></text>
      <text
         transform="scale(1.0035491,0.9964635)"
         sodipodi:linespacing="125%"
         id="text20841"
         y="390.00284"
         x="337.15952"
         style="font-size:42.14447403px;font-style:normal;font-variant:normal;font-weight:bold;font-stretch:normal;text-align:start;line-height:125%;writing-mode:lr-tb;text-anchor:start;fill:#ff0000;fill-opacity:1;stroke:none;stroke-width:1px;stroke-linecap:butt;stroke-linejoin:miter;stroke-opacity:1;font-family:Bitstream Vera Sans"
         xml:space="preserve"><tspan
           y="390.00284"
           x="337.15952"
           id="tspan20843"
           sodipodi:role="line">0</tspan></text>
      <text
         transform="scale(1.0035491,0.9964635)"
         sodipodi:linespacing="125%"
         id="text20853"
         y="690.14899"
         x="497.35031"
         style="font-size:42.14447403px;font-style:normal;font-variant:normal;font-weight:bold;font-stretch:normal;text-align:start;line-height:125%;writing-mode:lr-tb;text-anchor:start;fill:#00ff00;fill-opacity:1;stroke:none;stroke-width:1px;stroke-linecap:butt;stroke-linejoin:miter;stroke-opacity:1;font-family:Bitstream Vera Sans"
         xml:space="preserve"><tspan
           y="690.14899"
           x="497.35031"
           id="tspan20855"
           sodipodi:role="line">5</tspan></text>
      <text
         transform="scale(1.0035491,0.9964635)"
         sodipodi:linespacing="125%"
         id="text20861"
         y="362.97345"
         x="591.0592"
         style="font-size:42.14447403px;font-style:normal;font-variant:normal;font-weight:bold;font-stretch:normal;text-align:start;line-height:125%;writing-mode:lr-tb;text-anchor:start;fill:#ff0000;fill-opacity:1;stroke:none;stroke-width:1px;stroke-linecap:butt;stroke-linejoin:miter;stroke-opacity:1;font-family:Bitstream Vera Sans"
         xml:space="preserve"><tspan
           y="362.97345"
           x="591.0592"
           id="tspan20863"
           sodipodi:role="line">10</tspan></text>
      <text
         transform="scale(1.0035491,0.9964635)"
         sodipodi:linespacing="125%"
         id="text20865"
         y="359.55096"
         x="780.71765"
         style="font-size:42.14447403px;font-style:normal;font-variant:normal;font-weight:bold;font-stretch:normal;text-align:start;line-height:125%;writing-mode:lr-tb;text-anchor:start;fill:#00ff00;fill-opacity:1;stroke:none;stroke-width:1px;stroke-linecap:butt;stroke-linejoin:miter;stroke-opacity:1;font-family:Bitstream Vera Sans"
         xml:space="preserve"><tspan
           y="359.55096"
           x="780.71765"
           id="tspan20867"
           sodipodi:role="line">8</tspan></text>
      <g
         transform="matrix(0.9825976,0,0,0.97566,-0.4831797,12.6877)"
         id="g33544">
        <text
           xml:space="preserve"
           style="font-size:32px;font-style:normal;font-variant:normal;font-weight:bold;font-stretch:normal;text-align:start;line-height:125%;writing-mode:lr-tb;text-anchor:start;fill:#00ff00;fill-opacity:1;stroke:none;stroke-width:1px;stroke-linecap:butt;stroke-linejoin:miter;stroke-opacity:1;font-family:Bitstream Vera Sans"
           x="858.2594"
           y="308.84363"
           id="text33536"
           sodipodi:linespacing="125%"><tspan
             sodipodi:role="line"
             id="tspan33538"
             x="858.2594"
             y="308.84363">D</tspan></text>
        <text
           xml:space="preserve"
           style="font-size:22px;font-style:normal;font-variant:normal;font-weight:bold;font-stretch:normal;text-align:start;line-height:125%;writing-mode:lr-tb;text-anchor:start;fill:#00ff00;fill-opacity:1;stroke:none;stroke-width:1px;stroke-linecap:butt;stroke-linejoin:miter;stroke-opacity:1;font-family:Bitstream Vera Sans"
           x="883.59106"
           y="310.45786"
           id="text33540"
           sodipodi:linespacing="125%"><tspan
             sodipodi:role="line"
             id="tspan33542"
             x="883.59106"
             y="310.45786">1</tspan></text>
      </g>
      <text
         transform="scale(1.0035491,0.9964635)"
         sodipodi:linespacing="125%"
         id="text33552"
         y="330.40045"
         x="880.80994"
         style="font-size:31.33192444px;font-style:normal;font-variant:normal;font-weight:bold;font-stretch:normal;text-align:start;line-height:125%;writing-mode:lr-tb;text-anchor:start;fill:#00ff00;fill-opacity:1;stroke:none;stroke-width:1px;stroke-linecap:butt;stroke-linejoin:miter;stroke-opacity:1;font-family:Bitstream Vera Sans"
         xml:space="preserve"><tspan
           y="330.40045"
           x="880.80994"
           id="tspan33554"
           sodipodi:role="line">D</tspan></text>
      <text
         transform="scale(1.0035491,0.9964635)"
         sodipodi:linespacing="125%"
         id="text33556"
         y="331.98099"
         x="905.61273"
         style="font-size:21.54069901px;font-style:normal;font-variant:normal;font-weight:bold;font-stretch:normal;text-align:start;line-height:125%;writing-mode:lr-tb;text-anchor:start;fill:#00ff00;fill-opacity:1;stroke:none;stroke-width:1px;stroke-linecap:butt;stroke-linejoin:miter;stroke-opacity:1;font-family:Bitstream Vera Sans"
         xml:space="preserve"><tspan
           y="331.98099"
           x="905.61273"
           id="tspan33558"
           sodipodi:role="line">2</tspan></text>
      <g
         style="fill:#008000"
         transform="matrix(0.9825976,0,0,0.97566,3.2736525,49.370077)"
         id="g33560">
        <text
           xml:space="preserve"
           style="font-size:32px;font-style:normal;font-variant:normal;font-weight:bold;font-stretch:normal;text-align:start;line-height:125%;writing-mode:lr-tb;text-anchor:start;fill:#008000;fill-opacity:1;stroke:none;stroke-width:1px;stroke-linecap:butt;stroke-linejoin:miter;stroke-opacity:1;font-family:Bitstream Vera Sans"
           x="858.2594"
           y="308.84363"
           id="text33562"
           sodipodi:linespacing="125%"><tspan
             sodipodi:role="line"
             id="tspan33564"
             x="858.2594"
             y="308.84363">D</tspan></text>
        <text
           xml:space="preserve"
           style="font-size:22px;font-style:normal;font-variant:normal;font-weight:bold;font-stretch:normal;text-align:start;line-height:125%;writing-mode:lr-tb;text-anchor:start;fill:#008000;fill-opacity:1;stroke:none;stroke-width:1px;stroke-linecap:butt;stroke-linejoin:miter;stroke-opacity:1;font-family:Bitstream Vera Sans"
           x="883.59106"
           y="310.45786"
           id="text33566"
           sodipodi:linespacing="125%"><tspan
             sodipodi:role="line"
             id="tspan33568"
             x="883.59106"
             y="310.45786">3</tspan></text>
      </g>
      <text
         transform="scale(1.0035491,0.9964635)"
         sodipodi:linespacing="125%"
         id="text33514"
         y="25.164837"
         x="424.34467"
         style="font-size:31.33192444px;font-style:normal;font-variant:normal;font-weight:bold;font-stretch:normal;text-align:start;line-height:125%;writing-mode:lr-tb;text-anchor:start;fill:#00ff00;fill-opacity:1;stroke:none;stroke-width:1px;stroke-linecap:butt;stroke-linejoin:miter;stroke-opacity:1;font-family:Bitstream Vera Sans"
         xml:space="preserve"><tspan
           y="25.164837"
           x="424.34467"
           id="tspan33516"
           sodipodi:role="line">A</tspan></text>
      <text
         transform="scale(1.0035491,0.9964635)"
         sodipodi:linespacing="125%"
         id="text33582"
         y="35.530308"
         x="448.66721"
         style="font-size:21.54069901px;font-style:normal;font-variant:normal;font-weight:bold;font-stretch:normal;text-align:start;line-height:125%;writing-mode:lr-tb;text-anchor:start;fill:#00ff00;fill-opacity:1;stroke:none;stroke-width:1px;stroke-linecap:butt;stroke-linejoin:miter;stroke-opacity:1;font-family:Bitstream Vera Sans"
         xml:space="preserve"><tspan
           y="35.530308"
           x="448.66721"
           id="tspan33584"
           sodipodi:role="line">2</tspan></text>
      <g
         transform="matrix(0.9825976,0,0,0.97566,-13.582284,20.711509)"
         id="g33592">
        <text
           xml:space="preserve"
           style="font-size:32px;font-style:normal;font-variant:normal;font-weight:bold;font-stretch:normal;text-align:start;line-height:125%;writing-mode:lr-tb;text-anchor:start;fill:#00ff00;fill-opacity:1;stroke:none;stroke-width:1px;stroke-linecap:butt;stroke-linejoin:miter;stroke-opacity:1;font-family:Bitstream Vera Sans"
           x="427.88449"
           y="30.697189"
           id="text33594"
           sodipodi:linespacing="125%"><tspan
             sodipodi:role="line"
             id="tspan33596"
             x="427.88449"
             y="30.697189">A</tspan></text>
        <text
           xml:space="preserve"
           style="font-size:22px;font-style:normal;font-variant:normal;font-weight:bold;font-stretch:normal;text-align:start;line-height:125%;writing-mode:lr-tb;text-anchor:start;fill:#00ff00;fill-opacity:1;stroke:none;stroke-width:1px;stroke-linecap:butt;stroke-linejoin:miter;stroke-opacity:1;font-family:Bitstream Vera Sans"
           x="452.72568"
           y="37.283669"
           id="text33598"
           sodipodi:linespacing="125%"><tspan
             sodipodi:role="line"
             id="tspan33600"
             x="452.72568"
             y="37.283669">1</tspan></text>
      </g>
      <g
         style="fill:#008000"
         transform="matrix(0.9825976,0,0,0.97566,37.549435,23.402241)"
         id="g33602">
        <text
           xml:space="preserve"
           style="font-size:32px;font-style:normal;font-variant:normal;font-weight:bold;font-stretch:normal;text-align:start;line-height:125%;writing-mode:lr-tb;text-anchor:start;fill:#008000;fill-opacity:1;stroke:none;stroke-width:1px;stroke-linecap:butt;stroke-linejoin:miter;stroke-opacity:1;font-family:Bitstream Vera Sans"
           x="427.88449"
           y="30.697189"
           id="text33604"
           sodipodi:linespacing="125%"><tspan
             sodipodi:role="line"
             id="tspan33606"
             x="427.88449"
             y="30.697189">A</tspan></text>
        <text
           xml:space="preserve"
           style="font-size:22px;font-style:normal;font-variant:normal;font-weight:bold;font-stretch:normal;text-align:start;line-height:125%;writing-mode:lr-tb;text-anchor:start;fill:#008000;fill-opacity:1;stroke:none;stroke-width:1px;stroke-linecap:butt;stroke-linejoin:miter;stroke-opacity:1;font-family:Bitstream Vera Sans"
           x="452.72568"
           y="37.283669"
           id="text33608"
           sodipodi:linespacing="125%"><tspan
             sodipodi:role="line"
             id="tspan33610"
             x="452.72568"
             y="37.283669">3</tspan></text>
      </g>
      <path
         d="M 154.86653,402.40822 C 153.63317,400.39096 152.05784,398.61319 150.60815,396.75032 C 149.57629,395.28409 148.21489,394.15048 146.87086,392.99439 C 145.48815,391.97074 143.86271,391.38741 142.30462,390.70041 C 140.38719,386.63975 147.11207,388.57434 148.8161,388.08316 C 150.30961,388.33789 151.65927,388.99897 153.05409,389.50423 C 154.40759,390.05952 155.04066,391.30207 155.91525,392.34359 C 156.39941,393.52998 157.16794,394.61827 157.7784,395.67471 C 154.15516,397.95212 153.09546,398.93746 155.23088,395.66966 C 155.63993,394.30234 155.95314,392.90238 156.27261,391.50932 C 156.4422,390.23929 156.76054,389.00419 157.01466,387.75168 C 157.1955,387.13458 157.22193,386.48944 157.32532,385.85972 L 161.95071,383.58181 C 161.85853,384.23124 161.84295,384.89415 161.67381,385.53267 C 161.40259,386.78723 161.04463,388.00655 160.92956,389.29255 C 160.59773,390.70795 160.23858,392.10957 159.91289,393.52509 C 158.42932,396.42644 157.72791,397.89089 153.37822,398.39072 C 152.74071,397.2646 151.95844,396.15096 151.45185,394.91355 C 150.6192,393.95212 150.02034,392.80498 148.73416,392.31487 C 147.37063,391.85239 146.04344,391.24737 144.59509,391.02575 C 145.36301,390.03093 145.41776,388.25495 146.60948,387.84158 C 148.18413,388.57887 149.81759,389.22759 151.22543,390.26779 C 152.58669,391.46711 153.97172,392.63701 155.01809,394.14533 C 156.4654,396.01902 158.02027,397.8151 159.30686,399.80555 L 154.86653,402.40822 z "
         id="path33650"
         style="opacity:1;fill:#0000ff;fill-opacity:1;fill-rule:nonzero" />
      <g
         transform="matrix(0.9825976,0,0,0.97566,-6.2952681,27.27036)"
         id="g33678">
        <text
           xml:space="preserve"
           style="font-size:32px;font-style:normal;font-variant:normal;font-weight:bold;font-stretch:normal;text-align:start;line-height:125%;writing-mode:lr-tb;text-anchor:start;fill:#00ff00;fill-opacity:1;stroke:none;stroke-width:1px;stroke-linecap:butt;stroke-linejoin:miter;stroke-opacity:1;font-family:Bitstream Vera Sans"
           x="504.77551"
           y="745.0174"
           id="text33532"
           sodipodi:linespacing="125%"><tspan
             sodipodi:role="line"
             id="tspan33534"
             x="504.77551"
             y="745.0174">C</tspan></text>
        <text
           xml:space="preserve"
           style="font-size:22px;font-style:normal;font-variant:normal;font-weight:bold;font-stretch:normal;text-align:start;line-height:125%;writing-mode:lr-tb;text-anchor:start;fill:#00ff00;fill-opacity:1;stroke:none;stroke-width:1px;stroke-linecap:butt;stroke-linejoin:miter;stroke-opacity:1;font-family:Bitstream Vera Sans"
           x="527.45789"
           y="752.83044"
           id="text33632"
           sodipodi:linespacing="125%"><tspan
             sodipodi:role="line"
             id="tspan33634"
             x="527.45789"
             y="752.83044">2</tspan></text>
      </g>
      <g
         style="fill:#008000"
         transform="matrix(0.9825976,0,0,0.97566,-332.51631,429.34293)"
         id="g33688">
        <text
           xml:space="preserve"
           style="font-size:32px;font-style:normal;font-variant:normal;font-weight:bold;font-stretch:normal;text-align:start;line-height:125%;writing-mode:lr-tb;text-anchor:start;fill:#008000;fill-opacity:1;stroke:none;stroke-width:1px;stroke-linecap:butt;stroke-linejoin:miter;stroke-opacity:1;font-family:Bitstream Vera Sans"
           x="858.2594"
           y="308.84363"
           id="text33690"
           sodipodi:linespacing="125%"><tspan
             sodipodi:role="line"
             id="tspan33692"
             x="858.2594"
             y="308.84363">C</tspan></text>
        <text
           xml:space="preserve"
           style="font-size:22px;font-style:normal;font-variant:normal;font-weight:bold;font-stretch:normal;text-align:start;line-height:125%;writing-mode:lr-tb;text-anchor:start;fill:#008000;fill-opacity:1;stroke:none;stroke-width:1px;stroke-linecap:butt;stroke-linejoin:miter;stroke-opacity:1;font-family:Bitstream Vera Sans"
           x="883.59106"
           y="310.45786"
           id="text33694"
           sodipodi:linespacing="125%"><tspan
             sodipodi:role="line"
             id="tspan33696"
             x="883.59106"
             y="310.45786">3</tspan></text>
      </g>
      <g
         transform="matrix(0.9825976,0,0,0.97566,-378.06472,425.09046)"
         id="g33698">
        <text
           xml:space="preserve"
           style="font-size:32px;font-style:normal;font-variant:normal;font-weight:bold;font-stretch:normal;text-align:start;line-height:125%;writing-mode:lr-tb;text-anchor:start;fill:#00ff00;fill-opacity:1;stroke:none;stroke-width:1px;stroke-linecap:butt;stroke-linejoin:miter;stroke-opacity:1;font-family:Bitstream Vera Sans"
           x="858.2594"
           y="308.84363"
           id="text33700"
           sodipodi:linespacing="125%"><tspan
             sodipodi:role="line"
             id="tspan33702"
             x="858.2594"
             y="308.84363">C</tspan></text>
        <text
           xml:space="preserve"
           style="font-size:22px;font-style:normal;font-variant:normal;font-weight:bold;font-stretch:normal;text-align:start;line-height:125%;writing-mode:lr-tb;text-anchor:start;fill:#00ff00;fill-opacity:1;stroke:none;stroke-width:1px;stroke-linecap:butt;stroke-linejoin:miter;stroke-opacity:1;font-family:Bitstream Vera Sans"
           x="883.59106"
           y="310.45786"
           id="text33704"
           sodipodi:linespacing="125%"><tspan
             sodipodi:role="line"
             id="tspan33706"
             x="883.59106"
             y="310.45786">1</tspan></text>
      </g>
      <g
         transform="matrix(0.9825976,0,0,0.97566,-8.3439605,8.78506)"
         id="g33728">
        <text
           xml:space="preserve"
           style="font-size:32px;font-style:normal;font-variant:normal;font-weight:bold;font-stretch:normal;text-align:start;line-height:125%;writing-mode:lr-tb;text-anchor:start;fill:#00ff00;fill-opacity:1;stroke:none;stroke-width:1px;stroke-linecap:butt;stroke-linejoin:miter;stroke-opacity:1;font-family:Bitstream Vera Sans"
           x="72.891029"
           y="438.73749"
           id="text33528"
           sodipodi:linespacing="125%"><tspan
             sodipodi:role="line"
             id="tspan33530"
             x="72.891029"
             y="438.73749">B</tspan></text>
        <text
           xml:space="preserve"
           style="font-size:22px;font-style:normal;font-variant:normal;font-weight:bold;font-stretch:normal;text-align:start;line-height:125%;writing-mode:lr-tb;text-anchor:start;fill:#00ff00;fill-opacity:1;stroke:none;stroke-width:1px;stroke-linecap:butt;stroke-linejoin:miter;stroke-opacity:1;font-family:Bitstream Vera Sans"
           x="96.595154"
           y="443.93924"
           id="text33616"
           sodipodi:linespacing="125%"><tspan
             sodipodi:role="line"
             id="tspan33618"
             x="96.595154"
             y="443.93924">2</tspan></text>
      </g>
      <g
         style="fill:#008000"
         transform="matrix(0.9825976,0,0,0.97566,10.429144,15.498422)"
         id="g33636">
        <text
           xml:space="preserve"
           style="font-size:32px;font-style:normal;font-variant:normal;font-weight:bold;font-stretch:normal;text-align:start;line-height:125%;writing-mode:lr-tb;text-anchor:start;fill:#008000;fill-opacity:1;stroke:none;stroke-width:1px;stroke-linecap:butt;stroke-linejoin:miter;stroke-opacity:1;font-family:Bitstream Vera Sans"
           x="86.891029"
           y="410.73749"
           id="text33638"
           sodipodi:linespacing="125%"><tspan
             sodipodi:role="line"
             id="tspan33640"
             x="86.891029"
             y="410.73749">B</tspan></text>
        <text
           xml:space="preserve"
           style="font-size:22px;font-style:normal;font-variant:normal;font-weight:bold;font-stretch:normal;text-align:start;line-height:125%;writing-mode:lr-tb;text-anchor:start;fill:#008000;fill-opacity:1;stroke:none;stroke-width:1px;stroke-linecap:butt;stroke-linejoin:miter;stroke-opacity:1;font-family:Bitstream Vera Sans"
           x="110.59515"
           y="415.93924"
           id="text33642"
           sodipodi:linespacing="125%"><tspan
             sodipodi:role="line"
             id="tspan33644"
             x="110.59515"
             y="415.93924">3</tspan></text>
      </g>
      <g
         transform="matrix(0.9825976,0,0,0.97566,-0.4831797,-0.9715397)"
         id="g33722">
        <text
           xml:space="preserve"
           style="font-size:32px;font-style:normal;font-variant:normal;font-weight:bold;font-stretch:normal;text-align:start;line-height:125%;writing-mode:lr-tb;text-anchor:start;fill:#00ff00;fill-opacity:1;stroke:none;stroke-width:1px;stroke-linecap:butt;stroke-linejoin:miter;stroke-opacity:1;font-family:Bitstream Vera Sans"
           x="101.30163"
           y="473.31918"
           id="text33714"
           sodipodi:linespacing="125%"><tspan
             sodipodi:role="line"
             id="tspan33716"
             x="101.30163"
             y="473.31918">B</tspan></text>
        <text
           xml:space="preserve"
           style="font-size:22px;font-style:normal;font-variant:normal;font-weight:bold;font-stretch:normal;text-align:start;line-height:125%;writing-mode:lr-tb;text-anchor:start;fill:#00ff00;fill-opacity:1;stroke:none;stroke-width:1px;stroke-linecap:butt;stroke-linejoin:miter;stroke-opacity:1;font-family:Bitstream Vera Sans"
           x="123.00575"
           y="486.52094"
           id="text33718"
           sodipodi:linespacing="125%"><tspan
             sodipodi:role="line"
             id="tspan33720"
             x="123.00575"
             y="486.52094">1</tspan></text>
      </g>
      <g
         style="fill:#ff0000"
         transform="matrix(0.9825976,0,0,0.97566,192.98568,257.43307)"
         id="g36871">
        <text
           xml:space="preserve"
           style="font-size:32px;font-style:normal;font-variant:normal;font-weight:bold;font-stretch:normal;text-align:start;line-height:125%;writing-mode:lr-tb;text-anchor:start;fill:#ff0000;fill-opacity:1;stroke:none;stroke-width:1px;stroke-linecap:butt;stroke-linejoin:miter;stroke-opacity:1;font-family:Bitstream Vera Sans"
           x="165.19453"
           y="202.55307"
           id="text36873"
           sodipodi:linespacing="125%"><tspan
             sodipodi:role="line"
             id="tspan36875"
             x="165.19453"
             y="202.55307"> I</tspan></text>
        <text
           xml:space="preserve"
           style="font-size:22px;font-style:normal;font-variant:normal;font-weight:bold;font-stretch:normal;text-align:start;line-height:125%;writing-mode:lr-tb;text-anchor:start;fill:#ff0000;fill-opacity:1;stroke:none;stroke-width:1px;stroke-linecap:butt;stroke-linejoin:miter;stroke-opacity:1;font-family:Bitstream Vera Sans"
           x="188.89867"
           y="207.75482"
           id="text36877"
           sodipodi:linespacing="125%"><tspan
             sodipodi:role="line"
             id="tspan36879"
             x="188.89867"
             y="207.75482">1</tspan></text>
      </g>
      <g
         style="fill:#ff0000"
         transform="matrix(0.9825976,0,0,0.97566,399.37664,87.588698)"
         id="g36885">
        <text
           xml:space="preserve"
           style="font-size:32px;font-style:normal;font-variant:normal;font-weight:bold;font-stretch:normal;text-align:start;line-height:125%;writing-mode:lr-tb;text-anchor:start;fill:#ff0000;fill-opacity:1;stroke:none;stroke-width:1px;stroke-linecap:butt;stroke-linejoin:miter;stroke-opacity:1;font-family:Bitstream Vera Sans"
           x="165.19453"
           y="202.55307"
           id="text36887"
           sodipodi:linespacing="125%"><tspan
             sodipodi:role="line"
             id="tspan36889"
             x="165.19453"
             y="202.55307"> J</tspan></text>
        <text
           xml:space="preserve"
           style="font-size:22px;font-style:normal;font-variant:normal;font-weight:bold;font-stretch:normal;text-align:start;line-height:125%;writing-mode:lr-tb;text-anchor:start;fill:#ff0000;fill-opacity:1;stroke:none;stroke-width:1px;stroke-linecap:butt;stroke-linejoin:miter;stroke-opacity:1;font-family:Bitstream Vera Sans"
           x="188.89867"
           y="207.75482"
           id="text36891"
           sodipodi:linespacing="125%"><tspan
             sodipodi:role="line"
             id="tspan36893"
             x="188.89867"
             y="207.75482">1</tspan></text>
      </g>
      <path
         d="M 885.82905,298.63527 C 886.26389,296.26386 886.22853,293.88925 886.09871,291.49814 C 886.21987,289.80571 885.60917,288.31087 885.16751,286.73632 C 884.8153,285.36226 884.04881,284.17896 883.41915,282.93101 C 882.52815,281.48457 881.38818,280.22177 880.29001,278.92897 C 879.01804,277.28408 877.46514,275.90962 875.897,274.55852 C 874.3932,273.06505 872.521,272.12836 870.68484,271.12627 C 869.06758,270.34347 867.35013,269.79888 865.67642,269.15219 C 863.0272,268.26014 860.30237,267.61246 857.5851,266.96209 C 855.28112,266.29684 852.90971,266.04248 850.53972,265.77144 C 848.6,265.93108 846.66326,266.12834 844.72473,266.30368 C 842.9686,266.48452 841.37859,267.17817 839.75123,267.78127 C 837.80194,268.54406 832.60881,271.59084 840.53984,267.12621 C 839.51893,267.67655 838.72402,268.52174 837.84115,269.2475 C 836.88977,270.11255 836.11349,271.12636 835.27273,272.08844 C 834.4525,273.04538 833.72221,274.06806 832.95841,275.06759 C 832.05725,276.04945 831.37713,277.19524 830.64562,278.30058 C 829.90373,279.40881 829.24449,280.56948 828.55168,281.70345 C 827.93267,282.95709 827.2555,284.17994 826.5937,285.41154 C 826.06138,286.64452 825.60479,287.91021 825.11741,289.16234 C 824.57732,290.76076 823.95099,292.32412 823.32149,293.88932 C 822.61939,295.40761 822.09074,296.99505 821.53116,298.56555 C 821.17459,299.7405 820.65398,300.84937 820.19105,301.98271 C 819.75636,303.17006 819.33856,304.36465 818.90427,305.55268 C 818.26862,307.0095 817.72178,308.50031 817.1615,309.98652 C 815.76805,313.54978 815.73035,312.95807 811.212,314.71953 C 811.94379,313.59679 811.6793,312.36197 811.76679,311.134 C 811.74909,309.5843 811.32587,308.11369 811.03318,306.61084 C 810.87466,305.35046 810.43924,304.16518 810.06655,302.95981 C 809.73351,301.82554 809.03279,300.84496 808.46689,299.84198 C 808.99507,298.36949 811.57878,299.36095 813.14314,299.18638 C 813.49073,300.61335 813.5253,302.07957 813.61623,303.53593 C 813.65626,305.22614 813.65015,306.91693 813.65335,308.60747 C 813.18145,309.67724 814.22296,310.7832 814.40016,311.46001 C 813.68315,312.01086 812.59143,311.64876 811.71095,311.86313 C 812.45271,310.87458 813.4377,310.12904 814.33067,309.29617 C 816.69422,307.50214 819.32824,306.14758 821.9091,304.68165 C 821.72112,304.98122 816.85764,307.55267 825.47952,302.98682 C 826.77292,302.49268 828.06025,302.80969 829.3454,302.87013 C 829.23373,305.7223 829.89747,303.8909 824.01626,307.25285 C 822.39989,308.04174 820.81226,308.8862 819.21132,309.69997 C 829.5461,303.86814 810.13107,314.84028 820.51275,309.04602 C 819.90366,309.40139 819.40485,309.90283 818.85209,310.33033 L 814.05274,312.24951 C 814.6004,311.79568 815.12932,311.33698 815.68758,310.89473 C 830.53115,302.26709 807.06333,315.88032 823.22562,306.48608 C 824.83031,305.67358 826.44057,304.87154 828.03168,304.03307 C 817.06885,310.35622 825.07481,305.79579 825.08209,305.79166 C 823.85376,305.81313 822.59858,305.62197 821.40476,306.13851 C 822.29873,305.57169 825.95322,303.30888 817.88016,307.89321 C 825.64475,303.37251 820.82036,306.14052 819.12338,307.37546 C 818.22407,308.18764 817.24222,308.88576 816.46058,309.83176 C 814.44909,311.35052 814.03053,315.49428 810.05941,314.29377 C 809.64919,313.23738 808.67423,312.31634 809.06223,310.92987 C 809.06264,309.24587 809.07504,307.56152 809.02953,305.87793 C 808.93096,304.4543 808.94267,303.0152 808.59627,301.61853 C 809.16351,300.9489 807.27522,293.36264 812.90942,297.19604 C 813.50084,298.25823 814.21924,299.28717 814.58277,300.47184 C 814.9697,301.69257 815.43004,302.89211 815.57595,304.17518 C 815.87775,305.7035 816.31072,307.19603 816.33613,308.77183 C 816.35592,310.09603 816.55883,311.35811 815.94226,312.61054 C 808.66161,316.21288 811.13566,315.66999 812.49082,312.13401 C 813.0449,310.65708 813.55237,309.1571 814.24093,307.73386 C 814.65838,306.53414 815.06492,305.32999 815.50103,304.14271 C 815.96422,303.0161 816.45754,301.91354 816.87432,300.76615 C 817.41563,299.16546 817.93907,297.55672 818.64624,296.01498 C 819.28883,294.46473 819.93854,292.92008 820.43034,291.31245 C 820.93648,290.0531 821.41229,288.78545 821.89023,287.51617 C 822.55969,286.29284 823.20604,285.05833 823.85472,283.8283 C 824.52412,282.66453 825.14374,281.467 825.91693,280.3597 C 826.63755,279.24048 827.31445,278.07916 828.21202,277.09151 C 828.96593,276.07982 829.71137,275.06314 830.52043,274.09371 C 831.34291,273.10871 832.11392,272.08961 833.06441,271.21868 C 833.9242,270.44896 834.70253,269.56384 835.72966,268.99372 C 838.37089,267.45165 840.94231,265.74345 843.79745,264.61235 C 845.45488,264.04575 847.08708,263.38747 848.86408,263.26812 C 850.81585,263.08675 852.76892,262.84258 854.72902,262.80535 C 857.1002,263.11847 859.47187,263.41974 861.77932,264.08764 C 864.52221,264.74472 867.26682,265.40813 869.94935,266.28368 C 871.63451,266.94419 873.35541,267.52506 874.98172,268.32321 C 876.83071,269.36512 878.71515,270.34196 880.23973,271.85494 C 881.82952,273.23413 883.40859,274.63221 884.70275,276.30389 C 885.81994,277.61503 886.9777,278.89716 887.88615,280.36387 C 888.52905,281.63689 889.31548,282.84459 889.67656,284.24574 C 890.14123,285.86958 890.79025,287.40502 890.65476,289.15498 C 890.79363,291.56901 890.83433,293.96488 890.45525,296.36626 L 885.82905,298.63527 z "
         id="path33576"
         style="opacity:0.33333333;fill:#0000ff;fill-opacity:1;fill-rule:nonzero" />
      <path
         d="M 89.03693,399.10856 C 89.249453,396.51325 89.683041,393.94838 90.143732,391.38959 C 90.617052,389.04302 91.591733,386.84964 92.488838,384.64273 C 93.324064,382.73904 94.311288,380.90599 95.224233,379.03649 C 96.162323,376.90742 97.432764,374.98767 98.747197,373.07953 C 100.44777,370.16243 102.99786,368.23892 105.6483,366.24432 C 109.20528,363.67834 113.16969,361.84902 117.14378,360.07033 C 118.56938,359.54794 120.07754,359.622 121.56304,359.52867 C 123.40477,359.45263 125.15471,359.99757 126.90916,360.46855 C 128.8306,360.90573 130.52524,361.82157 132.25856,362.70782 C 133.88492,363.54671 135.45111,364.49317 137.05124,365.38015 C 138.27735,366.19406 139.30851,367.23803 140.38962,368.22293 C 142.04143,369.97896 143.67167,371.75558 145.30314,373.52951 C 146.87595,375.25598 148.31353,377.08837 149.76355,378.90849 C 151.13575,380.99658 152.63234,382.98929 154.16264,384.96462 C 155.61386,386.75279 156.81443,388.71704 158.05731,390.64174 C 158.8262,391.90596 159.14536,393.31791 159.6055,394.68878 C 159.75538,396.19747 160.02097,397.68902 160.27405,399.18346 L 155.71472,401.58848 C 155.46632,400.09731 155.1854,398.61115 155.05119,397.1053 C 154.62288,395.77693 154.33221,394.41174 153.59624,393.18522 C 152.37723,391.27603 151.20074,389.32647 149.77315,387.55239 C 148.23441,385.57452 146.71006,383.59304 145.3396,381.49468 C 143.90237,379.68929 142.47565,377.87354 140.92901,376.15151 C 139.30773,374.38917 137.67624,372.63497 136.00645,370.91665 C 134.94577,369.96229 133.94303,368.93538 132.72478,368.1711 C 131.14047,367.27724 129.58883,366.3229 127.96214,365.50667 C 126.24604,364.65658 124.57045,363.76942 122.67136,363.36867 C 120.93461,362.9267 119.21787,362.4048 117.39636,362.55035 C 115.94396,362.68283 114.46779,362.63108 113.09538,363.22762 C 106.78222,366.10896 113.04357,362.9153 110.36,364.39625 C 107.7052,366.34611 105.11301,368.16341 103.42582,371.07077 C 102.09705,372.93709 100.85688,374.8285 99.896507,376.9162 C 99.003305,378.80022 98.024419,380.63421 97.143697,382.51964 C 96.242073,384.69817 95.254302,386.86166 94.766248,389.18031 C 94.26799,391.71022 93.793141,394.25199 93.654154,396.83613 L 89.03693,399.10856 z "
         id="path33648"
         style="opacity:0.33333333;fill:#0000ff;fill-opacity:1;fill-rule:nonzero" />
      <path
         d="M 547.91738,725.96807 C 550.52594,726.39065 553.13829,726.41898 555.76715,726.31364 C 558.01418,726.09262 560.26867,726.01114 562.52304,725.91593 C 565.06752,725.96484 567.56046,725.38069 570.05655,724.95554 C 572.19869,724.61867 574.32182,724.15169 576.4501,723.74442 C 578.05111,723.37968 579.65845,723.06331 581.26472,722.73016 C 582.94576,722.45907 584.51616,721.84443 586.10849,721.3051 C 591.02213,718.04021 587.29754,720.8886 586.7214,721.41028 C 587.60023,720.41758 588.01308,719.16557 588.57126,718.00864 C 588.94449,716.50311 588.92151,714.94918 588.97571,713.4114 C 589.15672,711.95106 588.74259,710.56683 588.48589,709.1561 C 587.90726,707.3941 587.10318,705.71512 586.36972,704.0146 C 585.57083,702.12508 584.47282,700.38656 583.44535,698.61613 C 582.15459,696.30943 580.47268,694.27289 578.82512,692.21479 C 577.10324,689.50665 574.55084,688.40359 571.74854,687.06327 C 568.64652,685.66552 565.44181,684.53762 562.22773,683.43012 C 560.18491,682.66921 558.0683,682.14192 555.96276,681.58746 C 554.62302,681.13173 553.24808,680.79833 551.88935,680.41604 C 550.62682,680.39729 549.64166,679.4759 548.67411,679.01318 C 551.87255,675.34195 552.48388,675.6225 556.14625,674.84279 C 558.13064,674.33999 560.01049,673.56586 561.91158,672.83587 C 563.25663,672.46852 564.30991,671.5958 565.45659,670.8677 C 569.39538,668.15815 563.27503,673.05234 561.8071,674.35777 C 560.57511,675.07695 559.19554,675.4279 557.84228,675.84113 C 556.25397,676.44498 554.62318,676.92519 553.01373,677.46557 C 551.79715,677.64078 550.67034,678.27381 549.58913,678.70973 C 560.91201,663.99356 550.24812,678.47285 554.05534,677.10422 C 554.62589,678.17894 555.35813,679.14269 556.04796,680.13962 C 556.71615,681.16864 557.33896,682.22431 557.97664,683.27233 C 558.62461,684.22615 559.05532,685.29822 559.59214,686.30418 L 555.78786,689.77168 C 555.27326,688.78851 554.88792,687.7246 554.23678,686.80358 C 553.6061,685.7695 552.97907,684.73444 552.33444,683.71037 C 551.63636,682.70791 550.9004,681.73711 550.31829,680.65926 C 548.43297,677.69465 548.12608,679.01513 552.72441,674.60967 C 553.88778,674.21528 555.03547,673.74049 556.24367,673.47898 C 557.85318,672.93853 559.47038,672.41998 561.07236,671.85673 C 562.42066,671.41185 563.76336,670.97831 565.04832,670.36885 C 564.44739,672.03926 563.90208,674.09074 562.34789,674.96527 C 561.17382,675.65996 560.07295,676.4777 558.72811,676.85013 C 556.80489,677.55837 554.89679,678.31079 552.90003,678.80828 C 549.72611,679.43848 546.60222,680.88309 552.77258,675.82344 C 553.62106,676.07635 554.46152,676.35751 555.31802,676.58217 C 556.68015,676.98666 558.05854,677.35153 559.41154,677.79403 C 561.5172,678.36148 563.63018,678.91108 565.67324,679.68036 C 568.88584,680.81292 572.08345,681.97637 575.18653,683.38716 C 578.07495,684.75202 580.73533,685.86877 582.48235,688.67455 C 584.13659,690.75055 585.85378,692.78881 587.16796,695.10193 C 588.2041,696.88593 589.32101,698.63342 590.12051,700.54074 C 590.88805,702.24807 591.68587,703.95012 592.31062,705.71547 C 592.61232,707.16275 593.07879,708.58298 592.90071,710.09272 C 592.85942,711.65994 592.87794,713.23733 592.58349,714.78506 C 592.06117,715.99159 591.75043,717.30907 590.85968,718.35922 C 588.3643,720.98122 586.30134,723.88024 582.92434,725.3226 C 581.3029,725.82787 579.69353,726.39516 578.00968,726.69999 C 576.40294,727.01767 574.7935,727.32729 573.19774,727.69991 C 571.06727,728.09621 568.94415,728.54464 566.80089,728.86906 C 564.28334,729.29425 561.76765,729.8602 559.201,729.80297 C 556.95464,729.90426 554.70895,730.00314 552.4674,730.19113 C 549.80629,730.2573 547.16159,730.19655 544.51783,729.82224 L 547.91738,725.96807 z "
         id="path33708"
         style="opacity:0.33333333;fill:#0000ff;fill-opacity:1;fill-rule:nonzero" />
      <path
         d="M 387.43458,429.28608 C 388.87717,426.86387 390.0344,424.29536 391.15809,421.7185 C 392.01909,419.77911 392.44212,417.74287 392.89336,415.69618 C 393.14275,413.3071 393.13231,410.9023 393.15066,408.50349 C 393.15207,406.25687 393.14125,404.01025 393.13228,401.76364 C 393.15217,399.4628 392.37325,397.41487 391.51325,395.33226 C 390.85405,393.59068 389.74097,392.20394 388.60363,390.77105 C 386.81137,388.83177 384.99733,386.91313 383.15546,385.0205 C 382.0623,384.51876 384.287,382.81302 385.25408,382.10041 C 385.42246,383.71755 385.28595,385.34697 385.22514,386.96705 C 385.15895,388.57146 385.15021,390.17716 385.13265,391.78253 C 382.98245,396.45057 392.30873,386.36209 382.0636,396.12594 C 382.81422,394.70811 383.23548,393.14245 383.73783,391.62725 C 384.19643,389.96138 383.94349,388.25022 383.83355,386.55592 C 383.56115,382.80043 388.15821,382.36591 389.98865,381.08024 C 391.44738,381.15743 392.90699,381.20668 394.3668,381.25658 C 395.46743,381.31139 396.54967,381.01153 397.62758,380.81662 L 394.33994,384.77228 C 393.23318,384.93762 392.13927,385.26485 391.0064,385.14134 C 389.55115,385.08812 388.0961,385.02236 386.64047,384.98561 C 386.96593,384.37716 387.65264,382.5508 387.74485,383.23365 C 387.85569,384.95108 388.11286,386.70165 387.74161,388.40233 C 387.25844,389.95876 386.77617,391.51136 386.19984,393.03931 C 374.0095,405.46384 384.63505,395.3139 381.20957,395.1051 C 381.22592,393.49372 381.23318,391.88202 381.29891,390.27159 C 381.36083,388.66738 381.52993,387.03804 381.32325,385.44397 C 382.55221,383.90525 384.23374,378.52032 386.79811,381.43213 C 388.62408,383.34405 390.41824,385.28642 392.26585,387.17779 C 393.44094,388.64635 394.59335,390.05995 395.25703,391.85781 C 396.16899,393.98862 397.00827,396.08413 397.03998,398.44837 C 397.0411,400.69978 397.04418,402.95119 397.04533,405.20261 C 397.03503,407.61516 397.03995,410.03078 396.83682,412.43712 C 396.436,414.53216 396.06024,416.59646 395.16874,418.57185 C 394.06957,421.15508 392.92109,423.72076 391.52674,426.16536 L 387.43458,429.28608 z "
         id="path36899"
         style="opacity:0.33333333;fill:#0000ff;fill-opacity:1;fill-rule:nonzero" />
      <path
         d="M 608.72161,263.08573 C 611.51877,260.81202 614.85185,259.32906 618.05169,257.70771 C 620.79693,256.39258 623.75509,255.73732 626.73062,255.19676 C 630.10592,254.53871 633.28633,255.44761 636.54542,256.20658 C 640.07988,257.08648 642.97001,258.84179 645.62871,261.20868 C 647.38427,262.8867 648.10888,265.05793 648.96786,267.22159 C 649.4633,270.06981 648.77444,272.99021 648.3505,275.82229 C 647.90217,278.24179 647.4818,280.66525 647.02875,283.08397 C 646.54898,285.96034 645.89417,288.80537 645.30607,291.66151 C 644.76341,294.28506 644.11882,296.87647 643.40917,299.45852 C 642.42483,303.14087 641.59088,303.32725 638.03122,306.19092 C 637.25776,304.89264 637.06395,303.29687 636.71947,301.83003 C 635.38962,297.33926 635.3655,298.27898 639.90176,294.5553 C 641.08902,295.9495 641.27988,297.7501 641.69644,299.458 C 641.91718,301.32629 641.54263,303.14672 641.21824,304.97289 C 640.72707,306.17903 639.16069,306.58679 638.086,307.33108 C 638.91088,305.4811 639.94217,303.74106 640.96174,301.99454 C 642.78187,299.43504 645.25861,297.45499 647.52602,295.30559 L 644.46046,299.4246 C 644.27146,299.5818 644.08246,299.739 643.89346,299.89618 C 644.88871,298.87876 645.88397,297.86132 646.87921,296.8439 C 647.51757,296.18735 644.33691,299.46685 645.05382,298.89578 C 644.00907,300.61598 642.96542,302.33519 642.14872,304.17868 C 640.84682,305.64936 637.86553,311.6237 637.24443,308.24562 C 637.59272,306.46076 637.96649,304.67495 637.84624,302.84032 C 637.49028,301.27926 637.34926,299.62953 636.34569,298.30592 C 641.29903,293.10013 639.14019,294.2779 640.54582,298.42673 C 640.86667,299.7562 641.18045,301.09654 641.55203,302.40777 C 635.40988,308.68194 638.72097,305.71004 639.40816,302.66914 C 640.16186,300.08617 640.81716,297.48916 641.38505,294.85804 C 641.96031,292.0162 642.57799,289.17987 643.06895,286.32314 C 643.52577,283.89778 643.95089,281.46883 644.41388,279.04477 C 644.8497,276.27937 645.52602,273.425 645.15388,270.63543 C 644.36216,268.52898 643.69903,266.42766 642.00695,264.79268 C 639.43282,262.47367 636.61478,260.77943 633.17085,259.93968 C 629.94351,259.23197 626.79278,258.41959 623.47259,259.11247 C 620.54452,259.68215 617.63194,260.35346 614.93817,261.68288 C 611.73453,263.32109 608.40275,264.83279 605.6613,267.20132 L 608.72161,263.08573 z "
         id="path36907"
         style="opacity:0.33333333;fill:#0000ff;fill-opacity:1;fill-rule:nonzero" />
      <path
         d="M 479.75174,21.781051 C 482.14916,21.205277 484.59943,20.950434 487.04755,20.707966 C 489.44878,20.476749 491.3273,21.456652 493.40168,22.392702 C 495.06386,23.365612 496.34799,24.824323 497.71802,26.145533 C 498.9083,27.534845 500.22904,28.791735 501.53649,30.066649 C 502.54754,30.909178 503.47312,31.843988 504.433,32.739994 C 505.36442,33.499463 506.00663,34.519108 506.73523,35.455784 C 507.66831,36.659407 508.31106,38.037585 509.0095,39.375832 C 509.88868,41.375028 509.91621,43.456378 509.88863,45.589204 C 509.81069,47.6669 509.41103,49.704729 509.0499,51.746195 C 508.71526,53.4969 508.13346,55.187445 507.60904,56.887902 C 507.12853,58.374326 506.4283,59.764494 505.74429,61.165193 C 505.11284,62.744974 504.30506,64.233359 503.49692,65.724838 C 500.71214,69.457069 496.7192,72.171432 493.3499,75.189351 C 491.54759,76.259187 489.71192,77.267072 487.87205,78.262299 C 486.22693,79.148817 484.4157,79.58001 482.63878,80.086777 C 481.0617,80.41472 479.49784,80.765269 477.90922,81.047335 C 476.58487,81.100587 475.30002,81.417291 474.01135,81.710331 C 472.68046,82.078822 471.37755,81.757556 470.07593,81.66588 C 467.30569,78.105958 474.64168,75.493646 477.34736,72.934646 C 478.62567,72.345184 479.62551,71.355018 480.71292,70.512644 C 469.94252,81.567189 475.1595,76.093699 477.46214,73.391859 C 478.33456,72.387823 479.10626,71.303514 479.89532,70.235191 C 481.33446,67.377268 484.73186,65.995698 487.38247,64.183843 C 486.47427,65.483666 485.41511,66.670051 484.39944,67.886324 C 461.19789,91.181324 497.0966,55.422845 475.11755,77.30862 C 470.39589,80.87554 476.80216,75.150032 479.01893,72.939902 C 479.01999,73.259687 480.2705,73.546425 480.72633,73.767323 C 481.83053,74.131356 482.92354,74.508591 484.03091,74.868587 C 485.06405,75.351309 486.09232,75.827151 487.12978,76.296534 C 488.16184,76.768667 489.11019,77.38602 490.0945,77.931824 C 491.0113,78.548514 491.91935,79.174198 492.82782,79.79665 L 486.62139,86.106944 C 485.72433,85.490425 484.83974,84.855063 483.92659,84.25946 C 482.99237,83.759388 482.08568,83.194172 481.11165,82.758555 C 480.09884,82.294705 479.1022,81.800211 478.06975,81.37797 C 476.94254,81.010746 475.81745,80.635785 474.70461,80.231041 C 473.77956,79.719755 472.66769,79.622049 472.13945,78.548114 C 473.84367,76.696768 477.27047,72.380898 480.33046,70.201616 C 464.73772,85.792437 496.85108,53.573758 477.31441,73.105832 C 478.309,71.899959 479.3418,70.728494 480.2971,69.489684 C 483.30064,67.140129 490.32364,60.241317 486.98073,64.956306 C 486.17764,66.024753 485.43164,67.14717 484.55631,68.147382 C 481.81282,71.567416 478.82234,74.674931 475.46351,77.599856 C 474.33231,78.402147 473.23258,79.248051 472.02942,79.948151 C 473.46929,78.432653 477.66478,76.38744 476.01013,75.106268 C 477.21097,75.106341 478.44049,75.260655 479.63668,74.919145 C 480.93853,74.668097 482.21983,74.34203 483.5533,74.285096 C 485.10177,73.946617 486.65653,73.624596 488.20928,73.301423 C 489.93324,72.730234 491.68932,72.227111 493.29723,71.352273 C 495.10056,70.326227 496.90193,69.29261 498.69438,68.244668 C 497.90535,69.139054 495.62234,71.891281 496.43398,71.017067 C 497.34174,69.596556 498.22855,68.166363 498.79436,66.555061 C 499.46549,65.161161 500.17646,63.7995 500.69411,62.343259 C 501.23635,60.683785 501.83634,59.029059 502.25044,57.32453 C 502.62163,55.297877 503.05445,53.279355 503.1677,51.21782 C 503.17765,49.215451 503.38911,47.249863 502.54537,45.342842 C 501.88341,44.053397 501.26977,42.725345 500.36831,41.57214 C 499.66691,40.66705 499.05205,39.682801 498.15061,38.950712 C 497.20486,38.053637 496.2889,37.123332 495.3005,36.26973 C 493.98982,34.982041 492.66524,33.710874 491.45773,32.322837 C 490.15309,31.050446 488.93165,29.651547 487.3304,28.729869 C 485.37712,27.91742 483.62448,27.094092 481.39773,27.397747 C 478.96766,27.653951 476.53386,27.926617 474.1749,28.59577 L 479.75174,21.781051 z "
         id="path42176"
         style="opacity:0.33333333;fill:#0000ff;fill-opacity:1;fill-rule:nonzero" />
      <path
         d="M 447.02231,65.209745 C 444.21964,65.243955 441.4327,64.926912 438.64207,64.70783 C 436.18586,64.191519 433.749,64.121476 431.25597,64.20192 C 428.49592,64.358443 425.84859,65.314368 423.22497,66.12662 C 420.65686,66.852336 418.23815,67.877094 415.86682,69.077106 C 412.40241,71.025325 406.51711,77.435067 418.31298,65.851854 C 416.84094,67.525273 416.56272,69.578778 416.07424,71.642694 C 415.79315,74.012856 415.81902,76.403493 415.79952,78.785732 C 415.97179,82.182884 416.66026,85.513514 417.37793,88.82786 C 418.23644,92.71621 419.83927,96.3672 421.44302,99.9927 C 422.584,102.51077 424.45436,104.27195 426.50198,106.04139 C 429.04576,107.8337 431.96776,108.67223 434.91609,109.51398 C 438.40004,110.2987 441.92574,110.74332 445.47587,111.07218 C 448.6267,111.30159 451.78244,111.27537 454.93229,111.16113 C 459.12473,110.23231 465.72023,102.40359 453.90001,114.00859 C 455.27177,112.30602 456.2233,110.33466 457.18197,108.3884 C 457.97825,106.71023 458.43934,104.93431 458.92152,103.1585 C 459.17267,101.46177 459.20624,99.74137 459.28334,98.03116 C 459.63237,95.16214 459.13421,92.26544 458.85911,89.404817 C 458.74265,87.017557 458.48718,84.654397 458.18791,82.285893 C 458.00765,80.472104 457.63355,78.691361 457.28197,76.905831 C 457.01122,75.339773 456.29102,73.91933 455.69865,72.464446 C 455.13779,71.328295 454.21262,70.486366 453.41036,69.537873 C 452.38309,68.558336 451.22262,67.742623 450.10576,66.872559 C 449.5528,66.579178 449.04221,66.221023 448.50916,65.894488 L 455.13445,58.999654 C 455.68459,59.348658 456.22541,59.710551 456.78408,60.04618 C 457.95357,60.940809 459.13757,61.821676 460.21171,62.830848 C 461.08882,63.846352 462.07723,64.76011 462.71083,65.967177 C 463.33117,67.482362 464.09259,68.958841 464.39726,70.586212 C 464.77461,72.390143 465.22277,74.185276 465.35699,76.030478 C 465.67618,78.427628 465.94212,80.815274 466.00678,83.236321 C 466.2714,86.125684 466.76011,89.055986 466.6177,91.943781 C 466.51619,93.66299 466.43038,95.39372 466.29207,97.11555 C 465.8893,98.97311 465.49608,100.80395 464.67821,102.54871 C 463.76164,104.55142 462.80631,106.53385 461.57802,108.37374 C 457.43769,112.57379 454.64203,117.38372 448.81461,118.35986 C 445.63679,118.40503 442.45467,118.40747 439.28172,118.1547 C 435.69791,117.78108 432.13612,117.29394 428.6213,116.47413 C 425.54365,115.5763 422.4904,114.71529 419.87421,112.77017 C 417.69522,110.89839 415.6942,109.08506 414.54482,106.37608 C 412.95298,102.69583 411.33024,98.98597 410.32254,95.09909 C 409.59431,91.727631 408.9517,88.345303 408.57381,84.912191 C 408.57111,82.503864 408.53764,80.090186 408.75257,77.688619 C 409.05794,75.520365 409.3908,73.389746 410.63382,71.516848 C 414.52571,67.553862 417.07314,64.031875 421.71434,61.61133 C 424.12472,60.482042 426.58671,59.522504 429.15663,58.798872 C 431.85827,58.002074 434.56794,57.022651 437.415,56.990714 C 439.92558,56.967801 442.38003,57.153451 444.85769,57.594359 C 447.64576,57.821331 450.43651,58.121713 453.23823,57.983228 L 447.02231,65.209745 z "
         id="path105444"
         style="opacity:1;fill:#000000;fill-opacity:1;fill-rule:nonzero;stroke-width:1;stroke-miterlimit:4;stroke-dasharray:1, 2;stroke-dashoffset:0" />
      <path
         d="M 175.13897,399.21384 C 172.3363,399.24806 169.54936,398.93101 166.75873,398.71192 C 164.30252,398.19562 161.86566,398.12558 159.37263,398.20601 C 156.61258,398.36254 153.96525,399.31846 151.34163,400.13072 C 148.77353,400.85644 146.35481,401.88119 143.98347,403.0812 C 140.51906,405.02942 134.63377,411.43917 146.42964,399.85596 C 144.9576,401.52937 144.67938,403.58288 144.1909,405.64679 C 143.90981,408.01695 143.93568,410.40759 143.91618,412.78983 C 144.08845,416.18698 144.77692,419.51761 145.49459,422.83196 C 146.3531,426.72031 147.95592,430.37129 149.55968,433.9968 C 150.70066,436.51487 152.57101,438.27605 154.61863,440.04549 C 157.16242,441.83781 160.08441,442.67634 163.03275,443.51809 C 166.5167,444.30281 170.0424,444.74742 173.59253,445.07628 C 176.74336,445.30569 179.89909,445.27948 183.04895,445.16523 C 187.24139,444.2364 193.83688,436.40769 182.01667,448.01268 C 183.38843,446.31013 184.33996,444.33877 185.29863,442.39249 C 186.09491,440.71433 186.556,438.93841 187.03818,437.16258 C 187.28933,435.46588 187.3229,433.74546 187.39999,432.03526 C 187.74903,429.16623 187.25087,426.26953 186.97577,423.40892 C 186.8593,421.02166 186.60384,418.65849 186.30456,416.28999 C 186.12431,414.4762 185.75021,412.69545 185.39862,410.90992 C 185.12788,409.34386 184.40768,407.92344 183.8153,406.46855 C 183.25444,405.33239 182.32928,404.49047 181.52702,403.54197 C 180.49976,402.56243 179.33928,401.74672 178.22242,400.87666 C 177.66945,400.58328 177.15886,400.22512 176.62582,399.89858 L 183.25111,393.00375 C 183.80125,393.35276 184.34207,393.71466 184.90074,394.05028 C 186.07023,394.94491 187.25423,395.82578 188.32837,396.83495 C 189.20548,397.85045 190.19389,398.76422 190.82749,399.97127 C 191.44782,401.48646 192.20925,402.96295 192.51392,404.59031 C 192.89127,406.39425 193.33943,408.18938 193.47365,410.03458 C 193.79283,412.43172 194.05878,414.81937 194.12344,417.24042 C 194.38806,420.12978 194.87677,423.06008 194.73436,425.94788 C 194.63285,427.66708 194.54703,429.3978 194.40873,431.11965 C 194.00596,432.97721 193.61274,434.80805 192.79487,436.55281 C 191.8783,438.5555 190.92297,440.53796 189.69468,442.37784 C 185.55434,446.5779 182.75868,451.38783 176.93128,452.36397 C 173.75344,452.40913 170.57133,452.41157 167.39838,452.15879 C 163.81456,451.78517 160.25278,451.29803 156.73795,450.47824 C 153.66031,449.5804 150.60706,448.7194 147.99087,446.77427 C 145.81188,444.9025 143.81086,443.08917 142.66148,440.38019 C 141.06964,436.69993 139.4469,432.99007 138.4392,429.1032 C 137.71096,425.73173 137.06836,422.34941 136.69047,418.91629 C 136.68777,416.50796 136.6543,414.09429 136.86923,411.69272 C 137.1746,409.52446 137.50746,407.39385 138.75048,405.52095 C 142.64237,401.55796 145.1898,398.03598 149.831,395.61542 C 152.24139,394.48614 154.70337,393.5266 157.27329,392.80297 C 159.97493,392.00617 162.6846,391.02675 165.53166,390.99482 C 168.04224,390.9719 170.49669,391.15755 172.97434,391.59846 C 175.76242,391.82543 178.55317,392.12581 181.35489,391.98732 L 175.13897,399.21384 z "
         id="path105446"
         style="opacity:1;fill:#000000;fill-opacity:1;fill-rule:nonzero;stroke-width:1;stroke-miterlimit:4;stroke-dasharray:1, 2;stroke-dashoffset:0" />
      <path
         d="M 521.20336,647.86185 C 518.40068,647.89607 515.61375,647.57903 512.82312,647.35995 C 510.36689,646.84363 507.93003,646.77359 505.43701,646.85404 C 502.67696,647.01055 500.02964,647.96648 497.40601,648.77873 C 494.8379,649.50445 492.41918,650.52921 490.04786,651.72923 C 486.58344,653.67744 480.69814,660.08718 492.49401,648.50397 C 491.02198,650.17739 490.74375,652.23089 490.25529,654.29481 C 489.9742,656.66497 490.00005,659.0556 489.98056,661.43784 C 490.15283,664.835 490.8413,668.16564 491.55898,671.47997 C 492.41748,675.36832 494.0203,679.0193 495.62406,682.64482 C 496.76505,685.16288 498.6354,686.92406 500.68301,688.69349 C 503.2268,690.48581 506.14879,691.32435 509.09712,692.1661 C 512.58109,692.95082 516.10678,693.39543 519.6569,693.72429 C 522.80773,693.9537 525.96347,693.92748 529.11334,693.81324 C 533.30576,692.88442 539.90126,685.05571 528.08104,696.6607 C 529.4528,694.95813 530.40434,692.98677 531.36301,691.04051 C 532.15929,689.36234 532.62039,687.58643 533.10255,685.81061 C 533.3537,684.11388 533.38728,682.39348 533.46438,680.68328 C 533.81342,677.81426 533.31526,674.91755 533.04015,672.05693 C 532.92368,669.66967 532.66822,667.30652 532.36895,664.938 C 532.18869,663.12422 531.8146,661.34348 531.463,659.55794 C 531.19227,657.99189 530.47206,656.57144 529.87968,655.11656 C 529.31883,653.98041 528.39366,653.13847 527.5914,652.18999 C 526.56413,651.21045 525.40365,650.39474 524.28679,649.52468 C 523.73384,649.23129 523.22324,648.87314 522.69021,648.5466 L 529.3155,641.65177 C 529.86562,642.00077 530.40644,642.36267 530.96512,642.69829 C 532.13462,643.59292 533.31861,644.47379 534.39274,645.48296 C 535.26986,646.49847 536.25826,647.41222 536.89187,648.61929 C 537.51221,650.13448 538.27363,651.61095 538.57829,653.23833 C 538.95566,655.04226 539.4038,656.83739 539.53802,658.68259 C 539.85721,661.07974 540.12315,663.46739 540.18782,665.88843 C 540.45245,668.7778 540.94115,671.7081 540.79874,674.5959 C 540.69723,676.3151 540.61142,678.04583 540.4731,679.76766 C 540.07034,681.62522 539.67713,683.45607 538.85925,685.20082 C 537.94268,687.20353 536.98735,689.18596 535.75905,691.02585 C 531.61872,695.2259 528.82307,700.03584 522.99565,701.01198 C 519.81782,701.05714 516.6357,701.05957 513.46277,700.80681 C 509.87895,700.43319 506.31716,699.94605 502.80234,699.12625 C 499.7247,698.22841 496.67144,697.3674 494.05524,695.42228 C 491.87627,693.55051 489.87524,691.73717 488.72587,689.0282 C 487.13401,685.34794 485.51129,681.63808 484.50358,677.75121 C 483.77535,674.37975 483.13274,670.99742 482.75485,667.56431 C 482.75214,665.15598 482.71867,662.7423 482.93362,660.34073 C 483.23898,658.17248 483.57183,656.04185 484.81486,654.16896 C 488.70675,650.20598 491.25419,646.68399 495.89539,644.26345 C 498.30577,643.13416 500.76775,642.17462 503.33766,641.45098 C 506.03931,640.65419 508.74898,639.67477 511.59604,639.64282 C 514.10663,639.61991 516.56108,639.80557 519.03872,640.24648 C 521.82681,640.47344 524.61755,640.77383 527.41927,640.63534 L 521.20336,647.86185 z "
         id="path105448"
         style="opacity:1;fill:#000000;fill-opacity:1;fill-rule:nonzero;stroke-width:1;stroke-miterlimit:4;stroke-dasharray:1, 2;stroke-dashoffset:0" />
      <path
         d="M 809.59759,319.35734 C 806.79492,319.39156 804.00798,319.07452 801.21735,318.85544 C 798.76113,318.33912 796.32427,318.26908 793.83125,318.34952 C 791.07119,318.50605 788.42387,319.46197 785.80024,320.27422 C 783.23214,320.99994 780.81341,322.0247 778.44209,323.22472 C 774.97767,325.17293 769.09238,331.58266 780.88825,319.99945 C 779.41621,321.67288 779.13799,323.72638 778.64952,325.79029 C 778.36843,328.16046 778.39428,330.5511 778.37479,332.93334 C 778.54707,336.33049 779.23553,339.66112 779.95321,342.97546 C 780.81172,346.86381 782.41453,350.51479 784.01829,354.1403 C 785.15928,356.65837 787.02963,358.41955 789.07724,360.18899 C 791.62103,361.9813 794.54302,362.81983 797.49136,363.66158 C 800.97532,364.4463 804.50101,364.89092 808.05114,365.21978 C 811.20196,365.44919 814.3577,365.42297 817.50757,365.30873 C 821.7,364.37991 828.29549,356.5512 816.47528,368.15619 C 817.84703,366.45362 818.79857,364.48226 819.75724,362.536 C 820.55352,360.85783 821.01462,359.08191 821.49679,357.3061 C 821.74794,355.60937 821.78152,353.88898 821.85861,352.17876 C 822.20765,349.30975 821.70949,346.41304 821.43438,343.55242 C 821.31791,341.16516 821.06245,338.802 820.76318,336.4335 C 820.58292,334.61971 820.20883,332.83897 819.85723,331.05344 C 819.5865,329.48738 818.86629,328.06693 818.27391,326.61204 C 817.71306,325.4759 816.7879,324.63396 815.98563,323.68548 C 814.95837,322.70593 813.79789,321.89023 812.68103,321.02015 C 812.12807,320.72677 811.61747,320.36863 811.08443,320.04209 L 817.70973,313.14726 C 818.25985,313.49626 818.80067,313.85815 819.35935,314.19378 C 820.52885,315.08841 821.71285,315.96928 822.78697,316.97845 C 823.66409,317.99395 824.6525,318.90771 825.28611,320.11478 C 825.90644,321.62997 826.66786,323.10644 826.97253,324.73381 C 827.34989,326.53774 827.79804,328.33287 827.93226,330.17807 C 828.25144,332.57523 828.51738,334.96288 828.58205,337.38392 C 828.84668,340.27329 829.33539,343.20359 829.19297,346.09139 C 829.09146,347.81059 829.00565,349.54132 828.86734,351.26315 C 828.46458,353.12072 828.07136,354.95156 827.25348,356.69631 C 826.33691,358.69902 825.38159,360.68145 824.15329,362.52134 C 820.01295,366.72139 817.2173,371.53132 811.38989,372.50746 C 808.21205,372.55263 805.02993,372.55506 801.857,372.30229 C 798.27318,371.92868 794.71139,371.44154 791.19657,370.62174 C 788.11893,369.7239 785.06567,368.86289 782.44948,366.91777 C 780.2705,365.04599 778.26947,363.23266 777.1201,360.52368 C 775.52825,356.84343 773.90552,353.13357 772.89781,349.2467 C 772.16958,345.87524 771.52698,342.4929 771.14909,339.05979 C 771.14638,336.65147 771.11291,334.23779 771.32785,331.83622 C 771.63321,329.66797 771.96607,327.53734 773.20909,325.66444 C 777.10098,321.70147 779.64842,318.17948 784.28962,315.75894 C 786.7,314.62964 789.16199,313.67011 791.7319,312.94647 C 794.43355,312.14968 797.14321,311.17026 799.99027,311.13831 C 802.50086,311.1154 804.95531,311.30105 807.43295,311.74196 C 810.22104,311.96893 813.01178,312.26932 815.8135,312.13083 L 809.59759,319.35734 z "
         id="path105450"
         style="opacity:1;fill:#000000;fill-opacity:1;fill-rule:nonzero;stroke-width:1;stroke-miterlimit:4;stroke-dasharray:1, 2;stroke-dashoffset:0" />
      <path
         d="M 194.53546,435.84271 C 197.74002,437.7479 201.14841,439.30645 204.48732,440.96732 C 208.0594,442.65131 211.68638,444.21907 215.25065,445.91044 C 218.19139,447.45017 221.05428,449.12338 223.95073,450.74147 C 225.98112,451.81659 227.92639,453.02229 229.85816,454.25869 C 232.74395,455.86648 235.62391,457.48506 238.49855,459.1113 C 242.30634,461.17293 246.1728,463.14043 249.77024,465.55295 C 254.41417,468.85243 259.16835,471.98258 263.68138,475.46103 C 268.08901,478.64434 272.32886,482.04004 276.6074,485.38945 C 281.2418,489.42098 286.30489,492.90611 291.23878,496.55484 C 298.2095,501.63259 305.47382,506.30163 312.53189,511.26183 C 319.66573,516.56249 327.37004,521.02307 334.90541,525.72025 C 341.75658,529.88247 348.36562,534.41131 355.08939,538.76685 C 362.50556,543.34586 369.83855,548.05906 377.24973,552.64645 C 384.53596,557.31534 392.14943,561.44655 399.38615,566.19184 C 403.96138,569.14042 408.588,572.00321 413.11497,575.02411 C 416.45367,577.41075 419.59499,580.06414 422.85909,582.5555 C 425.68709,584.88565 428.4834,587.24725 431.37966,589.49777 C 433.57851,591.40193 435.79202,593.28672 438.0565,595.11303 C 439.85598,596.54256 441.57716,598.06798 443.30669,599.57695 C 445.34277,601.33399 447.3141,603.15615 449.40118,604.85793 C 451.10738,606.16707 452.66407,607.64324 454.21995,609.12052 C 456.15851,611.16445 458.22567,613.07879 460.32353,614.95781 C 463.09124,617.22156 465.75428,619.60636 468.42189,621.98306 C 471.43678,624.54686 474.62964,626.89001 477.81083,629.24157 C 479.44835,630.52346 481.17731,631.67899 482.91437,632.82033 C 485.10125,634.20147 487.18598,635.73424 489.34262,637.16453 C 490.9374,638.18371 492.57267,639.14127 494.20559,640.0974 C 495.3171,640.92808 496.55336,641.55997 497.74133,642.26509 C 498.24869,642.72337 498.9116,642.93309 499.49046,643.26353 L 486.37063,657.15623 C 485.78019,656.80633 485.16278,656.49936 484.59793,656.10574 C 483.38761,655.40144 482.16456,654.71853 481.02609,653.89926 C 479.38711,652.86346 477.74125,651.83472 476.16729,650.70159 C 474.02088,649.24198 471.8564,647.82088 469.63181,646.48042 C 467.90922,645.29458 466.18818,644.10988 464.63548,642.70214 C 461.50613,640.21885 458.30618,637.82195 455.20898,635.30363 C 452.48808,632.96671 449.82805,630.56012 447.02211,628.32362 C 444.88041,626.45721 442.84754,624.4839 440.73828,622.58104 C 439.24731,621.09813 437.74716,619.62792 436.09155,618.32205 C 434.04305,616.57279 432.06072,614.74853 429.93353,613.09225 C 428.23059,611.56825 426.53859,610.02843 424.76057,608.5892 C 422.52126,606.74818 420.34662,604.83574 418.17112,602.92042 C 415.31858,600.62317 412.51662,598.26732 409.70276,595.9234 C 406.53089,593.35617 403.35516,590.80351 399.98096,588.49853 C 395.64456,585.31791 391.24366,582.23292 386.78971,579.21519 C 379.55984,574.48 371.95406,570.35635 364.6799,565.68913 C 357.33715,560.98103 349.87369,556.46353 342.50124,551.80162 C 335.75618,547.47672 329.06755,543.06629 322.24355,538.86171 C 314.72975,534.10379 307.25644,529.26376 299.96997,524.17011 C 292.8695,519.22036 285.52649,514.62744 278.43201,509.67139 C 273.39937,506.09811 268.28031,502.6367 263.59302,498.61057 C 259.34876,495.23937 255.04603,491.94427 250.72974,488.66473 C 246.20514,485.27042 241.56965,482.02463 236.8046,478.97029 C 233.17171,476.69395 229.40874,474.65728 225.57659,472.73587 C 222.65488,471.13929 219.75668,469.49436 216.81176,467.9338 C 214.83542,466.76874 212.85933,465.59758 210.87482,464.43768 C 208.07407,462.75718 205.311,461.00909 202.38527,459.54327 C 198.78394,457.89561 195.18747,456.23756 191.58975,454.5824 C 188.20991,452.86854 184.81242,451.19445 181.34933,449.6522 L 194.53546,435.84271 z "
         id="path105460"
         style="opacity:1;fill:#000000;fill-opacity:1;fill-rule:nonzero;stroke-width:1;stroke-miterlimit:4;stroke-dasharray:1, 2;stroke-dashoffset:0" />
      <path
         d="M 467.66054,89.108992 C 470.1749,92.6573 473.47301,95.54246 476.74369,98.38076 C 480.90516,101.66971 485.46724,104.3808 490.13221,106.88872 C 493.28182,108.60763 496.53548,110.12042 499.76433,111.68435 C 502.95671,113.22171 505.95186,115.04879 508.87918,117.02588 C 511.50656,118.81554 514.07673,120.68405 516.66214,122.5324 C 519.26109,124.09239 521.62769,125.96424 524.01877,127.81375 C 526.72476,129.79786 529.55358,131.60104 532.31119,133.51291 C 535.63247,136.13902 539.04784,138.64349 542.47456,141.12941 C 545.90727,143.6059 549.12886,146.34211 552.55784,148.82429 C 558.15568,152.96475 563.91136,156.88777 569.56286,160.95311 C 575.69395,165.23517 581.59955,169.8138 587.55938,174.32416 C 594.35696,179.72333 601.84572,184.14876 609.19337,188.75118 C 617.01335,193.3819 624.95028,197.81217 632.90693,202.20513 C 640.89637,206.71984 648.85497,211.29167 656.90226,215.70476 C 663.77566,219.75229 670.68979,223.71834 677.44284,227.96154 C 682.18391,230.73724 686.94955,233.47797 691.763,236.12706 C 694.62501,237.75506 697.56202,239.24203 700.44529,240.8308 C 703.31491,242.34776 706.19088,243.82483 709.01399,245.4277 C 712.66317,247.81806 716.37371,250.10097 720.12119,252.3343 C 724.07012,255.00672 728.08137,257.58428 732.13085,260.10382 C 735.60187,262.54897 739.0063,265.08523 742.45532,267.56086 C 745.14017,269.60737 747.80351,271.67829 750.51623,273.68779 C 752.69517,275.01297 754.52886,276.73219 756.38711,278.43688 C 757.56281,279.7239 758.82766,280.92883 760.07743,282.14368 C 761.40974,283.50354 762.7918,284.81185 764.15519,286.14117 C 765.87839,287.81171 767.70993,289.364 769.49791,290.96314 C 770.88002,292.08961 772.15778,293.33336 773.46235,294.54379 C 775.84845,296.51859 778.10616,298.63071 780.37683,300.73371 C 782.18586,302.2627 783.92067,303.87468 785.70549,305.42906 C 786.75319,306.33758 787.73128,307.31934 788.74222,308.26655 C 789.42881,309.17955 790.37718,309.7916 791.21812,310.52802 C 792.02245,311.20187 792.94932,311.68009 793.81608,312.26416 L 782.59683,323.94704 C 781.67212,323.33936 780.72415,322.77609 779.86235,322.07933 C 778.98266,321.3072 778.01055,320.64272 777.29334,319.69397 C 776.28531,318.73504 775.29735,317.75788 774.28473,316.80335 C 772.54886,315.21209 770.86351,313.56608 769.11205,311.98991 C 766.83468,309.89455 764.52105,307.84391 762.12007,305.88726 C 760.78012,304.73553 759.45065,303.57513 758.1457,302.38641 C 756.38611,300.7328 754.59931,299.10858 752.83271,297.4614 C 751.39851,296.20163 749.96837,294.93825 748.66129,293.54772 C 747.3895,292.30621 746.11632,291.0652 744.9316,289.74002 C 743.17639,288.07497 741.43162,286.41346 739.37946,285.085 C 736.6961,283.03301 733.96393,281.04774 731.3157,278.95209 C 727.95717,276.42859 724.66993,273.80368 721.18021,271.45906 C 717.17094,268.86502 713.13858,266.3093 709.06739,263.81178 C 705.42077,261.49609 701.83663,259.08271 698.11366,256.88947 C 695.21349,255.36003 692.23102,254.01553 689.37686,252.40894 C 686.53037,250.80509 683.66639,249.23023 680.8619,247.55366 C 676.08551,244.81785 671.38682,241.95853 666.673,239.11765 C 660.03804,234.76747 653.12927,230.88031 646.34496,226.76864 C 638.39662,222.17674 630.3141,217.82392 622.31531,213.32025 C 614.3596,208.89831 606.52088,204.27831 598.65443,199.70219 C 591.21001,195.13176 583.61361,190.75391 576.73054,185.35518 C 570.83854,180.77954 564.83607,176.34838 558.7306,172.05682 C 553.06828,167.99577 547.36646,163.98427 541.62151,160.04054 C 538.14125,157.58703 534.68927,155.10347 531.34169,152.47365 C 527.9724,149.96075 524.66437,147.36613 521.24959,144.91312 C 518.40658,143.07528 515.57591,141.21955 512.88002,139.17001 C 510.47648,137.35168 508.0339,135.60709 505.46968,134.01601 C 502.94159,132.13078 500.46977,130.17098 497.84524,128.41591 C 494.91987,126.5676 491.94611,124.81488 488.85523,123.24551 C 485.61071,121.65897 482.29307,120.21618 479.17668,118.38665 C 474.54241,115.64916 470.0324,112.71305 465.74794,109.45314 C 462.40361,106.58561 458.8976,103.83249 456.12301,100.39048 L 467.66054,89.108992 z "
         id="path105468"
         style="opacity:1;fill:#000000;fill-opacity:1;fill-rule:nonzero;stroke-width:1;stroke-miterlimit:4;stroke-dasharray:1, 2;stroke-dashoffset:0" />
      <path
         d="M 419.84261,113.23087 C 418.39847,117.17549 416.47896,120.94182 414.69673,124.75588 C 411.65103,130.6748 408.10305,136.32333 404.5952,141.98145 C 399.37797,151.09509 392.99647,159.45734 386.89835,167.98933 C 380.28502,177.10623 373.43497,186.04151 366.30149,194.76269 C 359.28932,204.01612 351.83637,212.92281 344.41406,221.85103 C 337.03838,230.91767 329.94861,240.198 322.5569,249.25262 C 315.58126,257.787 309.08985,266.69659 302.33051,275.39788 C 295.02183,284.45677 287.48588,293.32117 279.64343,301.92723 C 272.22781,309.7278 264.91417,317.62352 257.4598,325.38782 C 251.15285,331.95687 244.97916,338.62453 238.28207,344.80782 C 232.86183,349.92978 227.46614,355.07735 222.11439,360.26985 C 218.39477,363.78228 214.77744,367.39876 211.13531,370.98836 C 208.32077,373.77852 205.48373,376.54117 202.7376,379.39825 C 201.21028,380.89075 199.69578,382.3989 198.22186,383.93439 C 197.03074,384.95787 196.07759,386.23901 195.06103,387.42465 C 193.9428,388.56674 192.90499,389.77499 191.79858,390.91969 C 190.90852,392.00484 189.83688,392.91761 188.84965,393.90262 C 187.76063,395.08841 186.59843,396.23148 185.43185,397.36103 C 184.06657,398.93073 182.55033,400.3453 181.02154,401.74684 C 180.44025,402.42291 179.74022,402.96924 179.10017,403.57988 L 180.4675,387.50531 C 181.10538,386.91363 181.72175,386.2971 182.38269,385.72882 C 183.84931,384.32233 185.30011,382.90556 186.67164,381.40519 C 187.84517,380.21215 188.96458,378.97322 190.18403,377.82927 C 191.13377,376.85974 192.10324,375.90764 192.97482,374.8652 C 194.05288,373.72849 195.16942,372.6235 196.15447,371.40257 C 197.23128,370.20258 198.28286,368.97861 199.45983,367.87315 C 200.97,366.45283 202.48121,365.03284 203.96074,363.58048 C 206.76477,360.78514 209.61919,358.03951 212.38569,355.20725 C 216.02357,351.7521 219.67774,348.31412 223.34876,344.89342 C 228.64483,339.72325 234.01987,334.63777 239.52491,329.6865 C 246.09258,323.43962 252.2274,316.7783 258.61633,310.35411 C 266.07135,302.61655 273.39346,294.75884 280.76446,286.94302 C 288.68866,278.45729 296.07417,269.50492 303.31763,260.44217 C 310.01417,251.72879 316.51545,242.85739 323.57135,234.42352 C 330.91586,225.31811 337.99862,216.01322 345.44636,206.99014 C 352.8518,198.03029 360.27635,189.08432 367.32379,179.84067 C 374.38778,171.10122 381.22341,162.18559 387.82484,153.09581 C 393.97667,144.47789 400.25683,135.9263 405.43595,126.6761 C 408.90007,120.91329 412.45721,115.18028 415.37992,109.12228 C 417.20837,105.19318 419.05847,101.26673 420.42393,97.14905 L 419.84261,113.23087 z "
         id="path105472"
         style="opacity:1;fill:#000000;fill-opacity:1;fill-rule:nonzero;stroke-width:1;stroke-miterlimit:4;stroke-dasharray:1, 2;stroke-dashoffset:0" />
      <path
         d="M 783.2037,374.16293 C 781.60683,377.63855 779.6636,380.94671 777.67778,384.21489 C 772.82326,391.73185 767.84064,399.16212 763.03764,406.7124 C 756.99697,416.19666 751.05215,425.73682 745.25788,435.37159 C 739.29425,445.83505 732.78947,455.9764 726.43294,466.20538 C 719.82997,476.61232 713.09459,486.93143 706.08068,497.07024 C 698.91025,507.102 691.41437,516.90135 683.94818,526.71778 C 676.66016,536.43077 669.1968,546.00425 661.66521,555.53196 C 654.49266,564.43543 646.94012,573.0167 639.11502,581.35704 C 631.94352,588.93878 624.86296,596.59389 617.41429,603.90968 C 609.74785,611.64919 601.98986,619.29911 594.2258,626.9429 C 587.33775,633.30678 580.52281,639.7513 573.46341,645.92951 C 566.69668,652.10611 559.55273,657.83944 552.39999,663.56362 C 548.92593,666.52429 545.26217,669.22461 541.53326,671.84908 C 540.37904,672.57532 539.14532,673.12577 537.92429,673.69001 L 539.86192,657.63338 C 540.95699,657.07289 542.08397,656.5709 543.13327,655.92143 C 546.80795,653.5614 550.36739,651.05038 553.78522,648.33018 C 560.99859,642.74733 567.97024,636.87632 574.75547,630.78698 C 581.74812,624.58927 588.57256,618.2107 595.43804,611.87555 C 603.29773,604.36936 610.93476,596.63327 618.60362,588.93621 C 625.97045,581.59006 632.97331,573.90807 640.23844,566.4635 C 648.00744,558.10187 655.52343,549.52296 662.6737,540.63037 C 670.28822,531.21504 677.54447,521.53431 684.91122,511.92897 C 692.36183,502.08732 699.8876,492.29464 706.98374,482.19599 C 713.98955,472.0793 720.73013,461.78755 727.26097,451.3622 C 733.63513,441.12724 740.09068,430.93999 746.06675,420.46742 C 751.88196,410.79961 757.85615,401.23139 763.88787,391.69551 C 768.74016,384.00773 773.79555,376.44726 778.50115,368.66977 C 780.43967,365.21552 782.38965,361.74769 783.86049,358.06497 L 783.2037,374.16293 z "
         id="path105474"
         style="opacity:1;fill:#000000;fill-opacity:1;fill-rule:nonzero;stroke-width:1;stroke-miterlimit:4;stroke-dasharray:1, 2;stroke-dashoffset:0" />
      <path
         d="M 451.16329,110.9767 C 451.46241,113.93074 451.59329,116.89261 451.69502,119.85813 C 451.90271,122.93096 451.66687,125.99311 451.42216,129.05415 C 451.13195,132.74196 451.04423,136.44014 451.01541,140.13777 C 450.80128,145.11274 451.37539,150.05532 451.8235,154.99981 C 452.3021,160.32403 452.34074,165.67507 452.43905,171.01646 C 452.48358,176.94418 452.44665,182.87294 452.3897,188.80073 C 452.11534,197.8601 452.51623,206.90606 452.87065,215.95574 C 453.51274,226.14526 454.63107,236.29617 455.5428,246.46311 C 456.58418,256.9228 457.50031,267.39265 458.53569,277.85328 C 459.45231,287.18595 460.78538,296.46887 461.92952,305.77521 C 463.11686,317.05192 464.43558,328.3146 465.7722,339.57482 C 467.2514,352.03647 468.22972,364.54655 469.35261,377.04221 C 470.5023,388.32246 471.39835,399.62132 472.31582,410.92227 C 473.29266,420.05215 474.03636,429.20018 475.224,438.30669 C 476.2027,446.60365 477.45132,454.86717 479.00053,463.07754 C 480.39296,471.44374 481.48363,479.85042 482.68596,488.2441 C 483.73475,495.15752 485.04999,502.02735 486.15297,508.93109 C 487.59312,517.25935 488.72088,525.63446 489.99911,533.98794 C 491.28099,542.39904 493.10164,550.71849 495.00009,559.01013 C 496.52896,565.83723 498.2595,572.617 499.98146,579.39798 C 501.42618,585.35218 502.51299,591.3856 503.97893,597.33405 C 505.03339,601.60049 505.96324,605.8941 507.01554,610.1612 C 507.68577,612.61062 508.30191,615.065 508.86919,617.53641 C 509.29521,619.47649 509.53595,621.43836 509.78625,623.40394 C 510.07496,625.44749 510.30087,627.49723 510.52531,629.5481 C 510.55076,631.17717 510.81855,632.77131 511.08382,634.37324 C 511.34815,635.8658 511.37362,637.38013 511.43894,638.88904 C 511.44295,639.13648 511.44696,639.38391 511.45098,639.63134 L 499.13522,650.098 C 499.13403,649.85387 499.13284,649.60974 499.13165,649.36562 C 499.09113,647.91111 499.11625,646.45114 498.92059,645.00502 C 498.64795,643.3632 498.29411,641.73062 498.31702,640.05952 C 498.1471,638.00448 498.02826,635.94096 497.58111,633.9194 C 497.39644,631.97797 497.25409,630.03252 496.75049,628.1357 C 496.29782,625.64102 495.76153,623.17572 495.14936,620.71042 C 494.14202,616.39907 493.14231,612.08747 492.25003,607.75144 C 490.91002,601.75803 489.66249,595.74499 488.3572,589.74423 C 486.72721,582.89851 484.80954,576.11658 483.50373,569.19849 C 481.68931,560.858 479.73537,552.54177 478.4161,544.10386 C 477.23076,535.75869 476.07988,527.40187 474.53604,519.11337 C 473.34441,512.20023 471.93728,505.32258 471.08729,498.35426 C 469.97808,489.96714 468.84733,481.58381 467.44901,473.23837 C 465.96421,464.97949 464.55249,456.7215 463.66967,448.37115 C 462.40391,439.1916 461.74465,429.95229 460.94735,420.72386 C 460.00001,409.40176 459.08239,398.07811 458.10025,386.75868 C 456.97122,374.28532 456.00006,361.796 454.51812,349.35641 C 453.09173,338.17288 451.80612,326.97238 450.42632,315.78322 C 449.18335,306.46047 448.02857,297.12492 447.04914,287.77129 C 446.20263,277.29507 445.13604,266.83526 444.05295,256.38116 C 443.16366,246.1768 442.06014,235.99298 441.40776,225.76845 C 440.91999,216.79395 440.3776,207.8302 440.55425,198.83686 C 440.50233,192.96085 440.49231,187.08473 440.44845,181.20881 C 440.42292,175.89455 440.34176,170.57896 439.91196,165.27874 C 439.49851,160.30687 438.7507,155.3488 438.95677,150.35026 C 438.97764,146.67137 438.8751,142.98789 439.12915,139.31479 C 439.38775,136.2799 439.76742,133.24852 439.57595,130.19672 C 439.46593,127.32159 439.39896,124.43561 438.96406,121.58558 L 451.16329,110.9767 z "
         id="path105480"
         style="opacity:1;fill:#000000;fill-opacity:1;fill-rule:nonzero;stroke-width:1;stroke-miterlimit:4;stroke-dasharray:1, 2;stroke-dashoffset:0" />
    </g>
  </g>
</svg>
