#FIG 3.2
Portrait
Center
Inches
Letter  
100.00
Single
-2
1200 2
2 3 0 1 0 7 50 -1 -1 0.000 0 0 0 0 0 4
	 3300 3600 3297 748 828 2177 3300 3600
2 3 0 1 0 7 50 -1 -1 0.000 0 0 0 0 0 4
	 3297 748 3300 3600 5769 2171 3297 748
2 1 0 1 0 7 50 -1 -1 0.000 0 0 -1 1 0 2
	1 1 1.00 60.00 120.00
	 2025 5475 2025 6225
2 1 0 1 0 7 50 -1 -1 0.000 0 0 -1 1 0 2
	1 1 1.00 60.00 120.00
	 4575 5475 4575 6225
2 1 0 1 0 7 50 -1 -1 0.000 0 0 -1 1 0 2
	1 1 1.00 60.00 120.00
	 3300 5475 4275 6300
2 1 0 1 0 7 50 -1 -1 0.000 0 0 -1 1 0 2
	1 1 1.00 60.00 120.00
	 3300 5475 2325 6300
2 1 0 1 0 7 50 -1 -1 0.000 0 0 -1 1 0 2
	1 1 1.00 60.00 120.00
	 825 5475 1725 6300
2 1 0 1 0 7 50 -1 -1 0.000 0 0 -1 1 0 2
	1 1 1.00 60.00 120.00
	 5925 5475 4875 6300
2 1 0 1 0 7 50 -1 -1 0.000 0 0 -1 1 0 2
	1 1 1.00 60.00 120.00
	 1125 4425 825 5175
2 1 0 1 0 7 50 -1 -1 0.000 0 0 -1 1 0 2
	1 1 1.00 60.00 120.00
	 1125 4425 1725 5175
2 1 0 1 0 7 50 -1 -1 0.000 0 0 -1 1 0 2
	1 1 1.00 60.00 120.00
	 2550 4425 2325 5175
2 1 0 1 0 7 50 -1 -1 0.000 0 0 -1 1 0 2
	1 1 1.00 60.00 120.00
	 2550 4425 4275 5175
2 1 0 1 0 7 50 -1 -1 0.000 0 0 -1 1 0 2
	1 1 1.00 60.00 120.00
	 4050 4425 5625 5250
2 1 0 1 0 7 50 -1 -1 0.000 0 0 -1 1 0 2
	1 1 1.00 60.00 120.00
	 4050 4425 1125 5175
2 1 0 1 0 7 50 -1 -1 0.000 0 0 -1 1 0 2
	1 1 1.00 60.00 120.00
	 5475 4425 4875 5175
2 1 0 1 0 7 50 -1 -1 0.000 0 0 -1 1 0 2
	1 1 1.00 60.00 120.00
	 5475 4425 5925 5175
2 1 0 1 0 7 50 -1 -1 0.000 0 0 -1 1 0 2
	1 1 1.00 60.00 120.00
	 2550 4425 3150 5100
2 1 0 1 0 7 50 -1 -1 0.000 0 0 -1 1 0 2
	1 1 1.00 60.00 120.00
	 4050 4425 3300 5100
2 3 0 1 0 30 100 -1 20 0.000 0 0 -1 0 0 7
	 600 5325 1050 6300 2100 6825 2400 6375 1650 5475 750 5100
	 600 5325
2 3 0 1 0 30 60 -1 20 0.000 0 0 -1 0 0 7
	 1800 5100 1650 5925 1875 6675 2175 6675 2400 5925 2250 5100
	 1800 5100
2 3 0 1 0 30 59 -1 20 0.000 0 0 -1 0 0 8
	 3075 5100 2325 5550 1725 6525 1950 6825 2925 6225 3450 5250
	 3225 5025 3075 5100
4 0 4 50 -1 0 20 0.0000 4 195 135 4575 3075 5\001
4 0 4 50 -1 0 20 0.0000 4 195 135 4500 1350 6\001
4 0 13 50 -1 0 20 0.0000 4 195 135 4050 2250 1\001
4 0 4 50 -1 0 20 0.0000 4 195 135 1875 1350 2\001
4 0 4 50 -1 0 20 0.0000 4 195 135 3075 2250 4\001
4 0 13 50 -1 0 20 0.0000 4 195 135 2400 2250 0\001
4 0 1 50 -1 0 20 0.0000 4 195 135 1050 4350 7\001
4 0 1 50 -1 0 20 0.0000 4 195 135 2475 4350 8\001
4 0 1 50 -1 0 20 0.0000 4 195 135 3975 4350 9\001
4 0 1 50 -1 0 20 0.0000 4 195 270 5325 4350 10\001
4 0 13 50 -1 0 20 0.0000 4 195 135 1950 6525 0\001
4 0 13 50 -1 0 20 0.0000 4 195 135 4500 6525 1\001
4 0 4 50 -1 0 20 0.0000 4 195 135 825 5400 2\001
4 0 4 50 -1 0 20 0.0000 4 195 135 1950 5325 3\001
4 0 4 50 -1 0 20 0.0000 4 195 135 4500 5325 5\001
4 0 4 50 -1 0 20 0.0000 4 195 135 5775 5400 6\001
4 0 1 50 -1 0 20 0.0000 4 195 135 1125 2250 7\001
4 0 1 50 -1 0 20 0.0000 4 195 270 5250 2250 10\001
4 0 1 50 -1 0 20 0.0000 4 195 135 3150 3450 8\001
4 0 1 50 -1 0 20 0.0000 4 195 135 3375 1050 9\001
4 0 4 50 -1 0 20 0.0000 4 195 135 1800 3075 3\001
4 0 4 50 -1 0 20 0.0000 4 195 135 3150 5325 4\001
