#FIG 3.2
Landscape
Center
Inches
Letter  
100.00
Single
-2
1200 2
6 5925 300 6450 750
6 6075 420 6390 705
4 0 7 50 -1 26 22 0.0000 4 180 225 6075 600 v\001
4 0 7 50 -1 26 17 0.0000 4 180 150 6240 705 5\001
-6
1 3 0 1 0 1 55 -1 20 0.000 1 0.0000 6210 525 216 216 6210 525 6426 525
-6
6 6600 300 7125 750
6 6750 420 7065 705
4 0 7 50 -1 26 22 0.0000 4 180 225 6750 600 v\001
4 0 7 50 -1 26 17 0.0000 4 180 150 6915 705 4\001
-6
1 3 0 1 0 1 55 -1 20 0.000 1 0.0000 6885 525 216 216 6885 525 7101 525
-6
6 6000 4425 6525 4875
6 6150 4545 6465 4830
4 0 7 50 -1 26 22 0.0000 4 180 225 6150 4725 v\001
4 0 7 50 -1 26 17 0.0000 4 180 150 6315 4830 2\001
-6
1 3 0 1 0 1 55 -1 20 0.000 1 0.0000 6285 4650 216 216 6285 4650 6501 4650
-6
6 6675 4425 7200 4875
6 6825 4545 7140 4830
4 0 7 50 -1 26 22 0.0000 4 180 225 6825 4725 v\001
4 0 7 50 -1 26 17 0.0000 4 180 150 6990 4830 6\001
-6
1 3 0 1 0 1 55 -1 20 0.000 1 0.0000 6960 4650 216 216 6960 4650 7176 4650
-6
6 5925 2925 6450 3375
1 3 0 1 0 4 55 -1 20 0.000 1 0.0000 6210 3150 216 216 6210 3150 6426 3150
-6
6 6000 1725 6525 2175
6 6150 1845 6465 2130
4 0 7 50 -1 26 22 0.0000 4 180 225 6150 2025 e\001
4 0 7 50 -1 26 17 0.0000 4 180 150 6315 2130 7\001
-6
1 3 0 1 0 4 55 -1 20 0.000 1 0.0000 6285 1950 216 216 6285 1950 6501 1950
-6
6 6600 2925 7125 3375
6 6750 3045 7065 3330
4 0 7 50 -1 26 22 0.0000 4 180 225 6750 3225 e\001
4 0 7 50 -1 26 17 0.0000 4 180 150 6915 3330 8\001
-6
1 3 0 1 0 4 55 -1 20 0.000 1 0.0000 6885 3150 216 216 6885 3150 7101 3150
-6
6 6600 1725 7125 2175
1 3 0 1 0 4 55 -1 20 0.000 1 0.0000 6885 1950 216 216 6885 1950 7101 1950
-6
6 75 2250 600 2700
6 225 2325 600 2700
4 0 7 50 -1 26 22 0.0000 4 180 225 225 2550 v\001
4 0 7 50 -1 26 17 0.0000 4 180 150 390 2655 1\001
-6
1 3 0 1 0 1 55 -1 20 0.000 1 0.0000 360 2475 216 216 360 2475 576 2475
-6
6 2850 3900 3375 4350
6 3000 4020 3315 4305
4 0 7 50 -1 26 22 0.0000 4 180 225 3000 4200 v\001
4 0 7 50 -1 26 17 0.0000 4 180 150 3165 4305 2\001
-6
1 3 0 1 0 1 55 -1 20 0.000 1 0.0000 3135 4125 216 216 3135 4125 3351 4125
-6
6 2100 3225 2625 3675
6 2250 3345 2565 3630
4 0 7 50 -1 26 22 0.0000 4 180 225 2250 3525 e\001
4 0 7 50 -1 26 17 0.0000 4 180 150 2415 3630 2\001
-6
1 3 0 1 0 4 55 -1 20 0.000 1 0.0000 2385 3450 216 216 2385 3450 2601 3450
-6
6 1050 2625 1575 3075
6 1200 2745 1515 3030
4 0 7 50 -1 26 22 0.0000 4 180 225 1200 2925 e\001
4 0 7 50 -1 26 17 0.0000 4 180 150 1365 3030 1\001
-6
1 3 0 1 0 4 55 -1 20 0.000 1 0.0000 1335 2850 216 216 1335 2850 1551 2850
-6
6 2850 1575 3375 2025
6 3000 1695 3315 1980
4 0 7 50 -1 26 22 0.0000 4 180 225 3000 1875 e\001
4 0 7 50 -1 26 17 0.0000 4 180 150 3165 1980 7\001
-6
1 3 0 1 0 4 55 -1 20 0.000 1 0.0000 3135 1800 216 216 3135 1800 3351 1800
-6
6 2175 1275 2700 1725
6 2325 1395 2640 1680
4 0 7 50 -1 26 22 0.0000 4 180 225 2325 1575 e\001
4 0 7 50 -1 26 17 0.0000 4 180 150 2490 1680 9\001
-6
1 3 0 1 0 4 55 -1 20 0.000 1 0.0000 2460 1500 216 216 2460 1500 2676 1500
-6
6 1050 1800 1575 2250
6 1200 1920 1515 2205
4 0 7 50 -1 26 22 0.0000 4 180 225 1200 2100 e\001
4 0 7 50 -1 26 17 0.0000 4 180 150 1365 2205 0\001
-6
1 3 0 1 0 4 55 -1 20 0.000 1 0.0000 1335 2025 216 216 1335 2025 1551 2025
-6
6 2100 2175 2625 2625
6 2250 2205 2565 2580
4 0 7 50 -1 26 22 0.0000 4 270 150 2250 2475 f\001
4 0 7 50 -1 26 17 0.0000 4 180 150 2415 2580 1\001
-6
1 3 0 1 0 13 55 -1 20 0.000 1 0.0000 2385 2400 216 216 2385 2400 2601 2400
-6
6 2850 600 3375 1050
6 3000 720 3315 1005
4 0 7 50 -1 26 22 0.0000 4 180 225 3000 900 v\001
4 0 7 50 -1 26 17 0.0000 4 180 150 3165 1005 5\001
-6
1 3 0 1 0 1 55 -1 20 0.000 1 0.0000 3135 825 216 216 3135 825 3351 825
-6
6 2850 2775 3375 3225
1 3 0 1 0 4 55 -1 20 0.000 1 0.0000 3135 3000 216 216 3135 3000 3351 3000
-6
6 12525 2325 13050 2775
6 12675 2445 12990 2730
4 0 7 50 -1 26 22 0.0000 4 180 225 12675 2625 v\001
4 0 7 50 -1 26 17 0.0000 4 180 150 12840 2730 3\001
-6
1 3 0 1 0 1 55 -1 20 0.000 1 0.0000 12810 2550 216 216 12810 2550 13026 2550
-6
6 10425 3300 10950 3750
6 10575 3420 10890 3705
4 0 7 50 -1 26 22 0.0000 4 180 225 10575 3600 e\001
4 0 7 50 -1 26 17 0.0000 4 180 150 10740 3705 3\001
-6
1 3 0 1 0 4 55 -1 20 0.000 1 0.0000 10710 3525 216 216 10710 3525 10926 3525
-6
6 11400 1800 11925 2250
6 11550 1920 11865 2205
4 0 7 50 -1 26 22 0.0000 4 180 225 11550 2100 e\001
4 0 7 50 -1 26 17 0.0000 4 180 150 11715 2205 5\001
-6
1 3 0 1 0 4 55 -1 20 0.000 1 0.0000 11685 2025 216 216 11685 2025 11901 2025
-6
6 11400 2700 11925 3150
6 11550 2820 11865 3105
4 0 7 50 -1 26 22 0.0000 4 180 225 11550 3000 e\001
4 0 7 50 -1 26 17 0.0000 4 180 150 11715 3105 4\001
-6
1 3 0 1 0 4 55 -1 20 0.000 1 0.0000 11685 2925 216 216 11685 2925 11901 2925
-6
6 10500 1350 11025 1800
6 10650 1470 10965 1755
4 0 7 50 -1 26 22 0.0000 4 180 225 10650 1650 e\001
4 0 7 50 -1 26 17 0.0000 4 180 150 10815 1755 6\001
-6
1 3 0 1 0 4 55 -1 20 0.000 1 0.0000 10785 1575 216 216 10785 1575 11001 1575
-6
6 10350 2250 10875 2700
6 10500 2280 10815 2655
4 0 7 50 -1 26 22 0.0000 4 270 150 10500 2550 f\001
4 0 7 50 -1 26 17 0.0000 4 180 150 10665 2655 2\001
-6
1 3 0 1 0 13 55 -1 20 0.000 1 0.0000 10635 2475 216 216 10635 2475 10851 2475
-6
6 9675 3975 10200 4425
6 9825 4095 10140 4380
4 0 7 50 -1 26 22 0.0000 4 180 225 9825 4275 v\001
4 0 7 50 -1 26 17 0.0000 4 180 150 9990 4380 6\001
-6
1 3 0 1 0 1 55 -1 20 0.000 1 0.0000 9960 4200 216 216 9960 4200 10176 4200
-6
6 9675 675 10200 1125
6 9825 795 10140 1080
4 0 7 50 -1 26 22 0.0000 4 180 225 9825 975 v\001
4 0 7 50 -1 26 17 0.0000 4 180 150 9990 1080 4\001
-6
1 3 0 1 0 1 55 -1 20 0.000 1 0.0000 9960 900 216 216 9960 900 10176 900
-6
6 9750 2775 10275 3225
6 9900 2895 10215 3180
4 0 7 50 -1 26 22 0.0000 4 180 225 9900 3075 e\001
4 0 7 50 -1 26 17 0.0000 4 180 150 10065 3180 8\001
-6
1 3 0 1 0 4 55 -1 20 0.000 1 0.0000 10035 3000 216 216 10035 3000 10251 3000
-6
6 9750 1575 10275 2025
1 3 0 1 0 4 55 -1 20 0.000 1 0.0000 10035 1800 216 216 10035 1800 10251 1800
-6
6 2850 2775 3375 3225
1 3 0 1 0 4 55 -1 20 0.000 1 0.0000 3135 3000 216 216 3135 3000 3351 3000
4 0 7 50 -1 26 22 0.0000 4 180 225 3000 3075 e\001
4 0 7 50 -1 26 17 0.0000 4 30 75 3165 3180 -\001
-6
6 5925 2925 6450 3375
1 3 0 1 0 4 55 -1 20 0.000 1 0.0000 6210 3150 216 216 6210 3150 6426 3150
4 0 7 50 -1 26 22 0.0000 4 180 225 6075 3225 e\001
4 0 7 50 -1 26 17 0.0000 4 30 75 6240 3330 -\001
-6
6 6600 1725 7125 2175
1 3 0 1 0 4 55 -1 20 0.000 1 0.0000 6885 1950 216 216 6885 1950 7101 1950
4 0 7 50 -1 26 22 0.0000 4 180 225 6750 2025 e\001
4 0 7 50 -1 26 17 0.0000 4 120 150 6915 2130 +\001
-6
6 9750 1575 10275 2025
1 3 0 1 0 4 55 -1 20 0.000 1 0.0000 10035 1800 216 216 10035 1800 10251 1800
4 0 7 50 -1 26 22 0.0000 4 180 225 9900 1875 e\001
4 0 7 50 -1 26 17 0.0000 4 120 150 10065 1980 +\001
-6
2 1 0 1 0 7 50 -1 -1 0.000 0 0 -1 1 0 2
	2 1 3.20 60.00 120.00
	 3150 2475 6375 2400
2 1 0 1 0 7 50 -1 -1 0.000 0 0 -1 1 0 2
	2 1 3.20 60.00 120.00
	 9975 2475 6900 2400
2 1 0 1 0 7 50 -1 -1 0.000 0 0 -1 0 0 3
	 6600 1200 8925 2625 6600 4050
2 3 0 1 0 7 50 -1 -1 0.000 0 0 0 0 0 4
	 6616 4081 6600 1200 4144 2658 6616 4081
2 4 0 1 0 7 50 -1 -1 0.000 0 0 7 0 0 5
	 3600 4800 3600 300 2700 300 2700 4800 3600 4800
2 4 0 1 0 7 50 -1 -1 0.000 0 0 7 0 0 5
	 10350 4875 10350 375 9450 375 9450 4875 10350 4875
2 4 0 1 0 7 50 -1 -1 0.000 0 0 7 0 0 5
	 7425 5100 7425 150 5700 150 5700 5100 7425 5100
2 3 0 1 0 7 50 -1 -1 0.000 0 0 0 0 0 4
	 3150 3900 3147 1048 678 2477 3150 3900
2 3 0 1 0 7 50 -1 -1 0.000 0 0 0 0 0 4
	 9972 1123 9975 3975 12444 2546 9972 1123
4 0 1 50 -1 0 20 0.0000 4 255 900 6150 1125 ( 12, 9 )\001
4 0 1 50 -1 0 20 0.0000 4 255 855 6225 4275 ( 8, -7 )\001
4 0 4 50 -1 0 20 0.0000 4 255 900 6225 2700 ( 4, 11 )\001
4 0 4 50 -1 0 20 0.0000 4 195 135 1725 1650 2\001
4 0 4 50 -1 0 20 0.0000 4 195 135 2925 2550 4\001
4 0 1 50 -1 0 20 0.0000 4 195 135 975 2550 7\001
4 0 1 50 -1 0 20 0.0000 4 195 135 3000 3750 8\001
4 0 1 50 -1 0 20 0.0000 4 195 270 3225 1350 12\001
4 0 4 50 -1 0 20 0.0000 4 195 135 1650 3375 3\001
4 0 13 50 -1 0 20 0.0000 4 195 135 1725 2550 0\001
4 0 4 50 -1 0 20 0.0000 4 195 135 11250 3450 5\001
4 0 4 50 -1 0 20 0.0000 4 195 135 11175 1725 6\001
4 0 1 50 -1 0 20 0.0000 4 195 270 11925 2625 10\001
4 0 13 50 -1 0 20 0.0000 4 195 135 11175 2550 1\001
4 0 4 50 -1 0 20 0.0000 4 195 270 10050 2550 11\001
4 0 1 50 -1 0 20 0.0000 4 195 225 10050 3825 -7\001
4 0 1 50 -1 0 20 0.0000 4 195 135 9750 1425 9\001
